[{"tablename" : "ad_window", "data" : {"ad_window_id":271,
 "name":"Cost Type",
 "ad_client_id":0,
 "ad_color_id":null,
 "ad_image_id":null,
 "ad_org_id":0,
 "created":"2003-06-01T23:19:56",
 "createdby":0,
 "description":"Maintain Cost Types",
 "entitytype":"Costing",
 "help":"You can define multiple cost types. A cost type selected in an Accounting Schema is used for accounting.",
 "isactive":"Y",
 "isbetafunctionality":"N",
 "isdefault":"N",
 "issotrx":"Y",
 "processing":"N",
 "updated":"2005-04-24T21:03:43",
 "updatedby":100,
 "windowtype":"M",
 "winheight":null,
 "winwidth":null}, "children" : [{"tablename" : "ad_tab", "data" : {"ad_tab_id":489,
 "name":"Cost Type",
 "ad_window_id":271,
 "ad_client_id":0,
 "ad_column_id":null,
 "ad_columnsortorder_id":null,
 "ad_columnsortyesno_id":null,
 "ad_image_id":null,
 "ad_org_id":0,
 "ad_process_id":null,
 "ad_table_id":586,
 "commitwarning":null,
 "created":"2003-06-01T23:21:23",
 "createdby":0,
 "description":"Type of Cost (e.g. Current, Plan, Future)",
 "displaylogic":null,
 "entitytype":"Costing",
 "hastree":"N",
 "help":"You can define multiple cost types. The cost type selected in an Accounting Schema is used for accounting.",
 "importfields":"N",
 "included_tab_id":null,
 "isactive":"Y",
 "isadvancedtab":"N",
 "isinfotab":"N",
 "isinheritfiltertoreports":"N",
 "isinsertrecord":"Y",
 "isreadonly":"N",
 "issinglerow":"N",
 "issorttab":"N",
 "istranslationtab":"N",
 "orderbyclause":null,
 "parent_column_id":null,
 "processing":"N",
 "readonlylogic":null,
 "seqno":10,
 "tablevel":0,
 "updated":"2005-04-24T21:03:24",
 "updatedby":100,
 "whereclause":null}, "children" : [{"tablename" : "ad_field", "data" : {"ad_field_id":6782,
 "name":"Organisation",
 "ad_client_id":0,
 "ad_column_id":8924,
 "ad_fieldgroup_id":null,
 "ad_org_id":0,
 "ad_reference_id":null,
 "ad_reference_value_id":null,
 "ad_tab_id":489,
 "ad_val_rule_id":null,
 "columnspan":2,
 "created":"2003-06-02T00:06:32",
 "createdby":0,
 "defaultvalue":null,
 "description":"Organisational entity within client",
 "displaylength":14,
 "displaylogic":null,
 "entitytype":"Costing",
 "help":"An organisation is a unit of your client or legal entity - examples are store, department. You can share data between organisations.",
 "included_tab_id":null,
 "infofactoryclass":null,
 "isactive":"Y",
 "isallowcopy":null,
 "isallownewattributeinstance":"N",
 "iscentrallymaintained":"Y",
 "isdisplayed":"Y",
 "isdisplayedgrid":"Y",
 "isencrypted":"N",
 "isfieldonly":"N",
 "isheading":"N",
 "ismandatory":null,
 "isquickentry":null,
 "isreadonly":"N",
 "issameline":"Y",
 "numlines":1,
 "obscuretype":null,
 "seqno":30,
 "seqnogrid":null,
 "sortno":null,
 "updated":"2000-01-02T00:00:00",
 "updatedby":0,
 "xposition":4}, "children" : []},{"tablename" : "ad_field", "data" : {"ad_field_id":6783,
 "name":"Cost Type",
 "ad_client_id":0,
 "ad_column_id":8916,
 "ad_fieldgroup_id":null,
 "ad_org_id":0,
 "ad_reference_id":null,
 "ad_reference_value_id":null,
 "ad_tab_id":489,
 "ad_val_rule_id":null,
 "columnspan":2,
 "created":"2003-06-02T00:06:32",
 "createdby":0,
 "defaultvalue":null,
 "description":"Type of Cost (e.g. Current, Plan, Future)",
 "displaylength":14,
 "displaylogic":null,
 "entitytype":"Costing",
 "help":"You can define multiple cost types. A cost type selected in an Accounting Schema is used for accounting.",
 "included_tab_id":null,
 "infofactoryclass":null,
 "isactive":"Y",
 "isallowcopy":null,
 "isallownewattributeinstance":"N",
 "iscentrallymaintained":"Y",
 "isdisplayed":"N",
 "isdisplayedgrid":"Y",
 "isencrypted":"N",
 "isfieldonly":"N",
 "isheading":"N",
 "ismandatory":null,
 "isquickentry":null,
 "isreadonly":"N",
 "issameline":"N",
 "numlines":1,
 "obscuretype":null,
 "seqno":10,
 "seqnogrid":null,
 "sortno":null,
 "updated":"2000-01-02T00:00:00",
 "updatedby":0,
 "xposition":1}, "children" : []},{"tablename" : "ad_field", "data" : {"ad_field_id":6784,
 "name":"Description",
 "ad_client_id":0,
 "ad_column_id":8918,
 "ad_fieldgroup_id":null,
 "ad_org_id":0,
 "ad_reference_id":null,
 "ad_reference_value_id":null,
 "ad_tab_id":489,
 "ad_val_rule_id":null,
 "columnspan":5,
 "created":"2003-06-02T00:06:32",
 "createdby":0,
 "defaultvalue":null,
 "description":"Optional short description of the record",
 "displaylength":60,
 "displaylogic":null,
 "entitytype":"Costing",
 "help":"A description is limited to 255 characters.",
 "included_tab_id":null,
 "infofactoryclass":null,
 "isactive":"Y",
 "isallowcopy":null,
 "isallownewattributeinstance":"N",
 "iscentrallymaintained":"Y",
 "isdisplayed":"Y",
 "isdisplayedgrid":"Y",
 "isencrypted":"N",
 "isfieldonly":"N",
 "isheading":"N",
 "ismandatory":null,
 "isquickentry":null,
 "isreadonly":"N",
 "issameline":"N",
 "numlines":1,
 "obscuretype":null,
 "seqno":50,
 "seqnogrid":null,
 "sortno":null,
 "updated":"2000-01-02T00:00:00",
 "updatedby":0,
 "xposition":1}, "children" : []},{"tablename" : "ad_field", "data" : {"ad_field_id":6785,
 "name":"Client",
 "ad_client_id":0,
 "ad_column_id":8919,
 "ad_fieldgroup_id":null,
 "ad_org_id":0,
 "ad_reference_id":null,
 "ad_reference_value_id":null,
 "ad_tab_id":489,
 "ad_val_rule_id":null,
 "columnspan":2,
 "created":"2003-06-02T00:06:32",
 "createdby":0,
 "defaultvalue":null,
 "description":"Client/Tenant for this installation.",
 "displaylength":14,
 "displaylogic":null,
 "entitytype":"Costing",
 "help":"A Client is a company or a legal entity. You cannot share data between Clients. Tenant is a synonym for Client.",
 "included_tab_id":null,
 "infofactoryclass":null,
 "isactive":"Y",
 "isallowcopy":null,
 "isallownewattributeinstance":"N",
 "iscentrallymaintained":"Y",
 "isdisplayed":"Y",
 "isdisplayedgrid":"Y",
 "isencrypted":"N",
 "isfieldonly":"N",
 "isheading":"N",
 "ismandatory":null,
 "isquickentry":null,
 "isreadonly":"N",
 "issameline":"N",
 "numlines":1,
 "obscuretype":null,
 "seqno":20,
 "seqnogrid":null,
 "sortno":null,
 "updated":"2000-01-02T00:00:00",
 "updatedby":0,
 "xposition":1}, "children" : []},{"tablename" : "ad_field", "data" : {"ad_field_id":6786,
 "name":"Name",
 "ad_client_id":0,
 "ad_column_id":8920,
 "ad_fieldgroup_id":null,
 "ad_org_id":0,
 "ad_reference_id":null,
 "ad_reference_value_id":null,
 "ad_tab_id":489,
 "ad_val_rule_id":null,
 "columnspan":5,
 "created":"2003-06-02T00:06:32",
 "createdby":0,
 "defaultvalue":null,
 "description":"Alphanumeric identifier of the entity",
 "displaylength":60,
 "displaylogic":null,
 "entitytype":"Costing",
 "help":"The name of an entity (record) is used as an default search option in addition to the search key. The name is up to 60 characters in length.",
 "included_tab_id":null,
 "infofactoryclass":null,
 "isactive":"Y",
 "isallowcopy":null,
 "isallownewattributeinstance":"N",
 "iscentrallymaintained":"Y",
 "isdisplayed":"Y",
 "isdisplayedgrid":"Y",
 "isencrypted":"N",
 "isfieldonly":"N",
 "isheading":"N",
 "ismandatory":null,
 "isquickentry":null,
 "isreadonly":"N",
 "issameline":"N",
 "numlines":1,
 "obscuretype":null,
 "seqno":40,
 "seqnogrid":null,
 "sortno":1,
 "updated":"2000-01-02T00:00:00",
 "updatedby":0,
 "xposition":1}, "children" : []},{"tablename" : "ad_field", "data" : {"ad_field_id":6788,
 "name":"Active",
 "ad_client_id":0,
 "ad_column_id":8922,
 "ad_fieldgroup_id":null,
 "ad_org_id":0,
 "ad_reference_id":null,
 "ad_reference_value_id":null,
 "ad_tab_id":489,
 "ad_val_rule_id":null,
 "columnspan":2,
 "created":"2003-06-02T00:06:32",
 "createdby":0,
 "defaultvalue":null,
 "description":"The record is active in the system",
 "displaylength":1,
 "displaylogic":null,
 "entitytype":"Costing",
 "help":"There are two methods of making records unavailable in the system: One is to delete the record, the other is to de-activate the record. A de-activated record is not available for selection, but available for reports.\nThere are two reasons for de-activating and not deleting records:\n(1) The system requires the record for audit purposes.\n(2) The record is referenced by other records. E.g., you cannot delete a Business Partner, if there are invoices for this partner record existing. You de-activate the Business Partner and prevent that this record is used for future entries.",
 "included_tab_id":null,
 "infofactoryclass":null,
 "isactive":"Y",
 "isallowcopy":null,
 "isallownewattributeinstance":"N",
 "iscentrallymaintained":"Y",
 "isdisplayed":"Y",
 "isdisplayedgrid":"Y",
 "isencrypted":"N",
 "isfieldonly":"N",
 "isheading":"N",
 "ismandatory":null,
 "isquickentry":null,
 "isreadonly":"N",
 "issameline":"N",
 "numlines":1,
 "obscuretype":null,
 "seqno":70,
 "seqnogrid":null,
 "sortno":null,
 "updated":"2000-01-02T00:00:00",
 "updatedby":0,
 "xposition":2}, "children" : []},{"tablename" : "ad_field", "data" : {"ad_field_id":6789,
 "name":"Comment/Help",
 "ad_client_id":0,
 "ad_column_id":8923,
 "ad_fieldgroup_id":null,
 "ad_org_id":0,
 "ad_reference_id":null,
 "ad_reference_value_id":null,
 "ad_tab_id":489,
 "ad_val_rule_id":null,
 "columnspan":5,
 "created":"2003-06-02T00:06:32",
 "createdby":0,
 "defaultvalue":null,
 "description":"Comment or Hint",
 "displaylength":60,
 "displaylogic":null,
 "entitytype":"Costing",
 "help":"The Help field contains a hint, comment or help about the use of this item.",
 "included_tab_id":null,
 "infofactoryclass":null,
 "isactive":"Y",
 "isallowcopy":null,
 "isallownewattributeinstance":"N",
 "iscentrallymaintained":"Y",
 "isdisplayed":"Y",
 "isdisplayedgrid":"Y",
 "isencrypted":"N",
 "isfieldonly":"N",
 "isheading":"N",
 "ismandatory":null,
 "isquickentry":null,
 "isreadonly":"N",
 "issameline":"N",
 "numlines":3,
 "obscuretype":null,
 "seqno":60,
 "seqnogrid":null,
 "sortno":null,
 "updated":"2000-01-02T00:00:00",
 "updatedby":0,
 "xposition":1}, "children" : []}]}]},
 {"tablename" : "ad_window", "data" : {"ad_window_id":343,
 "name":"Cost Element",
 "ad_client_id":0,
 "ad_color_id":null,
 "ad_image_id":null,
 "ad_org_id":0,
 "created":"2005-04-24T22:06:58",
 "createdby":100,
 "description":"Maintain Product Cost Element",
 "entitytype":"Costing",
 "help":"You can define your own product cost elements.",
 "isactive":"Y",
 "isbetafunctionality":"N",
 "isdefault":"N",
 "issotrx":"Y",
 "processing":"N",
 "updated":"2005-04-24T22:18:10",
 "updatedby":100,
 "windowtype":"M",
 "winheight":0,
 "winwidth":0}, "children" : [{"tablename" : "ad_tab", "data" : {"ad_tab_id":699,
 "name":"Cost Element",
 "ad_window_id":343,
 "ad_client_id":0,
 "ad_column_id":null,
 "ad_columnsortorder_id":null,
 "ad_columnsortyesno_id":null,
 "ad_image_id":null,
 "ad_org_id":0,
 "ad_process_id":null,
 "ad_table_id":770,
 "commitwarning":null,
 "created":"2005-04-24T22:07:40",
 "createdby":100,
 "description":"Maintain product cost elements",
 "displaylogic":null,
 "entitytype":"Costing",
 "hastree":"N",
 "help":"You can maintain multiple Material Costs. Which of the Material Cost Types is used for accounting is determined by the costing method.<br>\nDefine a Costing Method (for Material Elements) only if you want the cost calculated for that costing method. For accounting, the costing method defined in the Accounting Schema or Product Category Acct is used.",
 "importfields":"N",
 "included_tab_id":null,
 "isactive":"Y",
 "isadvancedtab":"N",
 "isinfotab":"N",
 "isinheritfiltertoreports":"N",
 "isinsertrecord":"Y",
 "isreadonly":"N",
 "issinglerow":"N",
 "issorttab":"N",
 "istranslationtab":"N",
 "orderbyclause":null,
 "parent_column_id":null,
 "processing":"N",
 "readonlylogic":null,
 "seqno":10,
 "tablevel":0,
 "updated":"2005-04-25T02:00:01",
 "updatedby":100,
 "whereclause":null}, "children" : [{"tablename" : "ad_field", "data" : {"ad_field_id":11284,
 "name":"Active",
 "ad_client_id":0,
 "ad_column_id":13455,
 "ad_fieldgroup_id":null,
 "ad_org_id":0,
 "ad_reference_id":null,
 "ad_reference_value_id":null,
 "ad_tab_id":699,
 "ad_val_rule_id":null,
 "columnspan":2,
 "created":"2005-04-24T22:07:44",
 "createdby":100,
 "defaultvalue":null,
 "description":"The record is active in the system",
 "displaylength":1,
 "displaylogic":null,
 "entitytype":"Costing",
 "help":"There are two methods of making records unavailable in the system: One is to delete the record, the other is to de-activate the record. A de-activated record is not available for selection, but available for reports.\nThere are two reasons for de-activating and not deleting records:\n(1) The system requires the record for audit purposes.\n(2) The record is referenced by other records. E.g., you cannot delete a Business Partner, if there are invoices for this partner record existing. You de-activate the Business Partner and prevent that this record is used for future entries.",
 "included_tab_id":null,
 "infofactoryclass":null,
 "isactive":"Y",
 "isallowcopy":null,
 "isallownewattributeinstance":"N",
 "iscentrallymaintained":"Y",
 "isdisplayed":"Y",
 "isdisplayedgrid":"Y",
 "isencrypted":"N",
 "isfieldonly":"N",
 "isheading":"N",
 "ismandatory":null,
 "isquickentry":null,
 "isreadonly":"N",
 "issameline":"N",
 "numlines":1,
 "obscuretype":null,
 "seqno":50,
 "seqnogrid":null,
 "sortno":null,
 "updated":"2005-04-24T22:07:44",
 "updatedby":100,
 "xposition":2}, "children" : []},{"tablename" : "ad_field", "data" : {"ad_field_id":11285,
 "name":"Cost Element Type",
 "ad_client_id":0,
 "ad_column_id":13462,
 "ad_fieldgroup_id":null,
 "ad_org_id":0,
 "ad_reference_id":null,
 "ad_reference_value_id":null,
 "ad_tab_id":699,
 "ad_val_rule_id":null,
 "columnspan":2,
 "created":"2005-04-24T22:07:44",
 "createdby":100,
 "defaultvalue":null,
 "description":"Type of Cost Element",
 "displaylength":14,
 "displaylogic":null,
 "entitytype":"Costing",
 "help":null,
 "included_tab_id":null,
 "infofactoryclass":null,
 "isactive":"Y",
 "isallowcopy":null,
 "isallownewattributeinstance":"N",
 "iscentrallymaintained":"Y",
 "isdisplayed":"Y",
 "isdisplayedgrid":"Y",
 "isencrypted":"N",
 "isfieldonly":"N",
 "isheading":"N",
 "ismandatory":null,
 "isquickentry":null,
 "isreadonly":"N",
 "issameline":"N",
 "numlines":1,
 "obscuretype":null,
 "seqno":60,
 "seqnogrid":null,
 "sortno":null,
 "updated":"2005-04-24T22:07:44",
 "updatedby":100,
 "xposition":1}, "children" : []},{"tablename" : "ad_field", "data" : {"ad_field_id":11286,
 "name":"Client",
 "ad_client_id":0,
 "ad_column_id":13453,
 "ad_fieldgroup_id":null,
 "ad_org_id":0,
 "ad_reference_id":null,
 "ad_reference_value_id":null,
 "ad_tab_id":699,
 "ad_val_rule_id":null,
 "columnspan":2,
 "created":"2005-04-24T22:07:44",
 "createdby":100,
 "defaultvalue":null,
 "description":"Client/Tenant for this installation.",
 "displaylength":14,
 "displaylogic":null,
 "entitytype":"Costing",
 "help":"A Client is a company or a legal entity. You cannot share data between Clients. Tenant is a synonym for Client.",
 "included_tab_id":null,
 "infofactoryclass":null,
 "isactive":"Y",
 "isallowcopy":null,
 "isallownewattributeinstance":"N",
 "iscentrallymaintained":"Y",
 "isdisplayed":"Y",
 "isdisplayedgrid":"Y",
 "isencrypted":"N",
 "isfieldonly":"N",
 "isheading":"N",
 "ismandatory":null,
 "isquickentry":null,
 "isreadonly":"Y",
 "issameline":"N",
 "numlines":1,
 "obscuretype":null,
 "seqno":10,
 "seqnogrid":null,
 "sortno":null,
 "updated":"2005-04-24T22:08:49",
 "updatedby":100,
 "xposition":1}, "children" : []},{"tablename" : "ad_field", "data" : {"ad_field_id":11287,
 "name":"Cost Element",
 "ad_client_id":0,
 "ad_column_id":13452,
 "ad_fieldgroup_id":null,
 "ad_org_id":0,
 "ad_reference_id":null,
 "ad_reference_value_id":null,
 "ad_tab_id":699,
 "ad_val_rule_id":null,
 "columnspan":2,
 "created":"2005-04-24T22:07:44",
 "createdby":100,
 "defaultvalue":null,
 "description":"Product Cost Element",
 "displaylength":14,
 "displaylogic":null,
 "entitytype":"Costing",
 "help":null,
 "included_tab_id":null,
 "infofactoryclass":null,
 "isactive":"Y",
 "isallowcopy":null,
 "isallownewattributeinstance":"N",
 "iscentrallymaintained":"Y",
 "isdisplayed":"N",
 "isdisplayedgrid":"Y",
 "isencrypted":"N",
 "isfieldonly":"N",
 "isheading":"N",
 "ismandatory":null,
 "isquickentry":null,
 "isreadonly":"N",
 "issameline":"N",
 "numlines":1,
 "obscuretype":null,
 "seqno":0,
 "seqnogrid":null,
 "sortno":null,
 "updated":"2005-04-24T22:07:44",
 "updatedby":100,
 "xposition":1}, "children" : []},{"tablename" : "ad_field", "data" : {"ad_field_id":11288,
 "name":"Costing Method",
 "ad_client_id":0,
 "ad_column_id":13463,
 "ad_fieldgroup_id":null,
 "ad_org_id":0,
 "ad_reference_id":null,
 "ad_reference_value_id":null,
 "ad_tab_id":699,
 "ad_val_rule_id":null,
 "columnspan":2,
 "created":"2005-04-24T22:07:44",
 "createdby":100,
 "defaultvalue":null,
 "description":"Indicates how Costs will be calculated",
 "displaylength":14,
 "displaylogic":null,
 "entitytype":"Costing",
 "help":"The Costing Method indicates how costs will be calculated (Standard, Average, Lifo, FiFo).  The default costing method is defined on accounting schema level and can be optionally overwritten in the product category.  The costing method cannot conflict with the Material Movement Policy (defined on Product Category).",
 "included_tab_id":null,
 "infofactoryclass":null,
 "isactive":"Y",
 "isallowcopy":null,
 "isallownewattributeinstance":"N",
 "iscentrallymaintained":"Y",
 "isdisplayed":"Y",
 "isdisplayedgrid":"Y",
 "isencrypted":"N",
 "isfieldonly":"N",
 "isheading":"N",
 "ismandatory":null,
 "isquickentry":null,
 "isreadonly":"N",
 "issameline":"N",
 "numlines":1,
 "obscuretype":null,
 "seqno":70,
 "seqnogrid":null,
 "sortno":null,
 "updated":"2010-06-14T20:09:44.146448",
 "updatedby":0,
 "xposition":1}, "children" : []},{"tablename" : "ad_field", "data" : {"ad_field_id":11289,
 "name":"Description",
 "ad_client_id":0,
 "ad_column_id":13461,
 "ad_fieldgroup_id":null,
 "ad_org_id":0,
 "ad_reference_id":null,
 "ad_reference_value_id":null,
 "ad_tab_id":699,
 "ad_val_rule_id":null,
 "columnspan":5,
 "created":"2005-04-24T22:07:44",
 "createdby":100,
 "defaultvalue":null,
 "description":"Optional short description of the record",
 "displaylength":60,
 "displaylogic":null,
 "entitytype":"Costing",
 "help":"A description is limited to 255 characters.",
 "included_tab_id":null,
 "infofactoryclass":null,
 "isactive":"Y",
 "isallowcopy":null,
 "isallownewattributeinstance":"N",
 "iscentrallymaintained":"Y",
 "isdisplayed":"Y",
 "isdisplayedgrid":"Y",
 "isencrypted":"N",
 "isfieldonly":"N",
 "isheading":"N",
 "ismandatory":null,
 "isquickentry":null,
 "isreadonly":"N",
 "issameline":"N",
 "numlines":3,
 "obscuretype":null,
 "seqno":40,
 "seqnogrid":null,
 "sortno":null,
 "updated":"2005-04-24T22:07:44",
 "updatedby":100,
 "xposition":1}, "children" : []},{"tablename" : "ad_field", "data" : {"ad_field_id":11290,
 "name":"Calculated",
 "ad_client_id":0,
 "ad_column_id":13464,
 "ad_fieldgroup_id":null,
 "ad_org_id":0,
 "ad_reference_id":null,
 "ad_reference_value_id":null,
 "ad_tab_id":699,
 "ad_val_rule_id":null,
 "columnspan":2,
 "created":"2005-04-24T22:07:44",
 "createdby":100,
 "defaultvalue":null,
 "description":"The value is calculated by the system",
 "displaylength":1,
 "displaylogic":null,
 "entitytype":"Costing",
 "help":"You cannot change values maintained by the system.",
 "included_tab_id":null,
 "infofactoryclass":null,
 "isactive":"Y",
 "isallowcopy":null,
 "isallownewattributeinstance":"N",
 "iscentrallymaintained":"Y",
 "isdisplayed":"Y",
 "isdisplayedgrid":"Y",
 "isencrypted":"N",
 "isfieldonly":"N",
 "isheading":"N",
 "ismandatory":null,
 "isquickentry":null,
 "isreadonly":"Y",
 "issameline":"N",
 "numlines":1,
 "obscuretype":null,
 "seqno":80,
 "seqnogrid":null,
 "sortno":null,
 "updated":"2005-09-13T21:53:58",
 "updatedby":100,
 "xposition":2}, "children" : []},{"tablename" : "ad_field", "data" : {"ad_field_id":11291,
 "name":"Name",
 "ad_client_id":0,
 "ad_column_id":13460,
 "ad_fieldgroup_id":null,
 "ad_org_id":0,
 "ad_reference_id":null,
 "ad_reference_value_id":null,
 "ad_tab_id":699,
 "ad_val_rule_id":null,
 "columnspan":5,
 "created":"2005-04-24T22:07:44",
 "createdby":100,
 "defaultvalue":null,
 "description":"Alphanumeric identifier of the entity",
 "displaylength":60,
 "displaylogic":null,
 "entitytype":"Costing",
 "help":"The name of an entity (record) is used as an default search option in addition to the search key. The name is up to 60 characters in length.",
 "included_tab_id":null,
 "infofactoryclass":null,
 "isactive":"Y",
 "isallowcopy":null,
 "isallownewattributeinstance":"N",
 "iscentrallymaintained":"Y",
 "isdisplayed":"Y",
 "isdisplayedgrid":"Y",
 "isencrypted":"N",
 "isfieldonly":"N",
 "isheading":"N",
 "ismandatory":null,
 "isquickentry":null,
 "isreadonly":"N",
 "issameline":"N",
 "numlines":1,
 "obscuretype":null,
 "seqno":30,
 "seqnogrid":null,
 "sortno":1,
 "updated":"2005-05-15T17:36:11",
 "updatedby":100,
 "xposition":1}, "children" : []},{"tablename" : "ad_field", "data" : {"ad_field_id":11292,
 "name":"Organisation",
 "ad_client_id":0,
 "ad_column_id":13454,
 "ad_fieldgroup_id":null,
 "ad_org_id":0,
 "ad_reference_id":null,
 "ad_reference_value_id":null,
 "ad_tab_id":699,
 "ad_val_rule_id":null,
 "columnspan":2,
 "created":"2005-04-24T22:07:44",
 "createdby":100,
 "defaultvalue":null,
 "description":"Organisational entity within client",
 "displaylength":14,
 "displaylogic":null,
 "entitytype":"Costing",
 "help":"An organisation is a unit of your client or legal entity - examples are store, department. You can share data between organisations.",
 "included_tab_id":null,
 "infofactoryclass":null,
 "isactive":"Y",
 "isallowcopy":null,
 "isallownewattributeinstance":"N",
 "iscentrallymaintained":"Y",
 "isdisplayed":"Y",
 "isdisplayedgrid":"Y",
 "isencrypted":"N",
 "isfieldonly":"N",
 "isheading":"N",
 "ismandatory":null,
 "isquickentry":null,
 "isreadonly":"N",
 "issameline":"Y",
 "numlines":1,
 "obscuretype":null,
 "seqno":20,
 "seqnogrid":null,
 "sortno":null,
 "updated":"2005-04-24T22:08:53",
 "updatedby":100,
 "xposition":4}, "children" : []}]}]}]