[{"tablename" : "ad_table", "data" : {"ad_table_id":633,
 "tablename":"RV_Click_Unprocessed",
 "name":"Click Unprocessed",
 "accesslevel":"3",
 "ad_client_id":0,
 "ad_org_id":0,
 "ad_val_rule_id":null,
 "ad_window_id":null,
 "copycolumnsfromtable":null,
 "created":"2003-12-11T20:24:40",
 "createdby":0,
 "description":null,
 "entitytype":"Web",
 "help":null,
 "importtable":null,
 "isactive":"Y",
 "iscentrallymaintained":"Y",
 "ischangelog":"N",
 "isdeleteable":"N",
 "ishighvolume":"N",
 "issecurityenabled":"N",
 "istscapable":"N",
 "isview":"Y",
 "loadseq":150,
 "po_window_id":null,
 "replicationtype":"L",
 "sqlstatement":null,
 "updated":"2006-01-22T14:55:46",
 "updatedby":100}, "children" : [{"tablename" : "ad_column", "data" : {"ad_column_id":10197,
 "columnname":"UpdatedBy",
 "name":"Updated By",
 "ad_chart_id":null,
 "ad_client_id":0,
 "ad_element_id":608,
 "ad_infowindow_id":null,
 "ad_org_id":0,
 "ad_process_id":null,
 "ad_reference_id":18,
 "ad_reference_value_id":110,
 "ad_table_id":633,
 "ad_val_rule_id":null,
 "callout":null,
 "columnsql":null,
 "created":"2003-12-11T20:24:41",
 "createdby":0,
 "defaultvalue":null,
 "description":"User who updated this records",
 "entitytype":"Web",
 "fieldlength":22,
 "formatpattern":null,
 "help":"The Updated By field indicates the user who updated this record.",
 "infofactoryclass":null,
 "isactive":"Y",
 "isallowcopy":"N",
 "isallowlogging":"Y",
 "isalwaysupdateable":"N",
 "isautocomplete":"N",
 "isencrypted":"N",
 "isidentifier":"N",
 "isincludeints":"N",
 "iskey":"N",
 "ismandatory":"Y",
 "isparent":"N",
 "issecure":"N",
 "isselectioncolumn":"N",
 "issyncdatabase":"N",
 "istoolbarbutton":"N",
 "istranslated":"N",
 "isupdateable":"N",
 "mandatorylogic":null,
 "readonlylogic":null,
 "seqno":0,
 "updated":"2000-01-02T00:00:00",
 "updatedby":0,
 "valuemax":null,
 "valuemin":null,
 "version":1,
 "vformat":null}, "children" : []},{"tablename" : "ad_column", "data" : {"ad_column_id":10198,
 "columnname":"Updated",
 "name":"Updated",
 "ad_chart_id":null,
 "ad_client_id":0,
 "ad_element_id":607,
 "ad_infowindow_id":null,
 "ad_org_id":0,
 "ad_process_id":null,
 "ad_reference_id":16,
 "ad_reference_value_id":null,
 "ad_table_id":633,
 "ad_val_rule_id":null,
 "callout":null,
 "columnsql":null,
 "created":"2003-12-11T20:24:41",
 "createdby":0,
 "defaultvalue":null,
 "description":"Date this record was updated",
 "entitytype":"Web",
 "fieldlength":7,
 "formatpattern":null,
 "help":"The Updated field indicates the date that this record was updated.",
 "infofactoryclass":null,
 "isactive":"Y",
 "isallowcopy":"N",
 "isallowlogging":"Y",
 "isalwaysupdateable":"N",
 "isautocomplete":"N",
 "isencrypted":"N",
 "isidentifier":"N",
 "isincludeints":"N",
 "iskey":"N",
 "ismandatory":"Y",
 "isparent":"N",
 "issecure":"N",
 "isselectioncolumn":"N",
 "issyncdatabase":"N",
 "istoolbarbutton":"N",
 "istranslated":"N",
 "isupdateable":"N",
 "mandatorylogic":null,
 "readonlylogic":null,
 "seqno":0,
 "updated":"2000-01-02T00:00:00",
 "updatedby":0,
 "valuemax":null,
 "valuemin":null,
 "version":1,
 "vformat":null}, "children" : []},{"tablename" : "ad_column", "data" : {"ad_column_id":10199,
 "columnname":"Created",
 "name":"Created",
 "ad_chart_id":null,
 "ad_client_id":0,
 "ad_element_id":245,
 "ad_infowindow_id":null,
 "ad_org_id":0,
 "ad_process_id":null,
 "ad_reference_id":16,
 "ad_reference_value_id":null,
 "ad_table_id":633,
 "ad_val_rule_id":null,
 "callout":null,
 "columnsql":null,
 "created":"2003-12-11T20:24:41",
 "createdby":0,
 "defaultvalue":null,
 "description":"Date this record was created",
 "entitytype":"Web",
 "fieldlength":7,
 "formatpattern":null,
 "help":"The Created field indicates the date that this record was created.",
 "infofactoryclass":null,
 "isactive":"Y",
 "isallowcopy":"N",
 "isallowlogging":"Y",
 "isalwaysupdateable":"N",
 "isautocomplete":"N",
 "isencrypted":"N",
 "isidentifier":"N",
 "isincludeints":"N",
 "iskey":"N",
 "ismandatory":"Y",
 "isparent":"N",
 "issecure":"N",
 "isselectioncolumn":"N",
 "issyncdatabase":"N",
 "istoolbarbutton":"N",
 "istranslated":"N",
 "isupdateable":"N",
 "mandatorylogic":null,
 "readonlylogic":null,
 "seqno":0,
 "updated":"2000-01-02T00:00:00",
 "updatedby":0,
 "valuemax":null,
 "valuemin":null,
 "version":1,
 "vformat":null}, "children" : []},{"tablename" : "ad_column", "data" : {"ad_column_id":10200,
 "columnname":"W_Click_ID",
 "name":"Web Click",
 "ad_chart_id":null,
 "ad_client_id":0,
 "ad_element_id":2007,
 "ad_infowindow_id":null,
 "ad_org_id":0,
 "ad_process_id":null,
 "ad_reference_id":19,
 "ad_reference_value_id":null,
 "ad_table_id":633,
 "ad_val_rule_id":null,
 "callout":null,
 "columnsql":null,
 "created":"2003-12-11T20:24:41",
 "createdby":0,
 "defaultvalue":null,
 "description":"Individual Web Click",
 "entitytype":"Web",
 "fieldlength":22,
 "formatpattern":null,
 "help":"Web Click Details",
 "infofactoryclass":null,
 "isactive":"Y",
 "isallowcopy":"N",
 "isallowlogging":"Y",
 "isalwaysupdateable":"N",
 "isautocomplete":"N",
 "isencrypted":"N",
 "isidentifier":"N",
 "isincludeints":"N",
 "iskey":"Y",
 "ismandatory":"Y",
 "isparent":"N",
 "issecure":"N",
 "isselectioncolumn":"N",
 "issyncdatabase":"N",
 "istoolbarbutton":"N",
 "istranslated":"N",
 "isupdateable":"N",
 "mandatorylogic":null,
 "readonlylogic":null,
 "seqno":0,
 "updated":"2010-06-14T20:09:43.671039",
 "updatedby":0,
 "valuemax":null,
 "valuemin":null,
 "version":1,
 "vformat":null}, "children" : []},{"tablename" : "ad_column", "data" : {"ad_column_id":10201,
 "columnname":"AD_User_ID",
 "name":"User/Contact",
 "ad_chart_id":null,
 "ad_client_id":0,
 "ad_element_id":138,
 "ad_infowindow_id":null,
 "ad_org_id":0,
 "ad_process_id":null,
 "ad_reference_id":30,
 "ad_reference_value_id":null,
 "ad_table_id":633,
 "ad_val_rule_id":null,
 "callout":null,
 "columnsql":null,
 "created":"2003-12-11T20:24:41",
 "createdby":0,
 "defaultvalue":null,
 "description":"User within the system - Internal or Business Partner Contact",
 "entitytype":"Web",
 "fieldlength":22,
 "formatpattern":null,
 "help":"The User identifies a unique user in the system. This could be an internal user or a business partner contact",
 "infofactoryclass":null,
 "isactive":"Y",
 "isallowcopy":"Y",
 "isallowlogging":"Y",
 "isalwaysupdateable":"N",
 "isautocomplete":"N",
 "isencrypted":"N",
 "isidentifier":"N",
 "isincludeints":"N",
 "iskey":"N",
 "ismandatory":"N",
 "isparent":"N",
 "issecure":"N",
 "isselectioncolumn":"N",
 "issyncdatabase":"N",
 "istoolbarbutton":"N",
 "istranslated":"N",
 "isupdateable":"N",
 "mandatorylogic":null,
 "readonlylogic":null,
 "seqno":0,
 "updated":"2000-01-02T00:00:00",
 "updatedby":0,
 "valuemax":null,
 "valuemin":null,
 "version":1,
 "vformat":null}, "children" : []},{"tablename" : "ad_column", "data" : {"ad_column_id":10202,
 "columnname":"TargetURL",
 "name":"Target URL",
 "ad_chart_id":null,
 "ad_client_id":0,
 "ad_element_id":2005,
 "ad_infowindow_id":null,
 "ad_org_id":0,
 "ad_process_id":null,
 "ad_reference_id":40,
 "ad_reference_value_id":null,
 "ad_table_id":633,
 "ad_val_rule_id":null,
 "callout":null,
 "columnsql":null,
 "created":"2003-12-11T20:24:41",
 "createdby":0,
 "defaultvalue":null,
 "description":"URL for the Target",
 "entitytype":"Web",
 "fieldlength":120,
 "formatpattern":null,
 "help":"URL of the Target Site",
 "infofactoryclass":null,
 "isactive":"Y",
 "isallowcopy":"Y",
 "isallowlogging":"Y",
 "isalwaysupdateable":"N",
 "isautocomplete":"N",
 "isencrypted":"N",
 "isidentifier":"N",
 "isincludeints":"N",
 "iskey":"N",
 "ismandatory":"N",
 "isparent":"N",
 "issecure":"N",
 "isselectioncolumn":"N",
 "issyncdatabase":"N",
 "istoolbarbutton":"N",
 "istranslated":"N",
 "isupdateable":"N",
 "mandatorylogic":null,
 "readonlylogic":null,
 "seqno":0,
 "updated":"2000-01-02T00:00:00",
 "updatedby":0,
 "valuemax":null,
 "valuemin":null,
 "version":1,
 "vformat":null}, "children" : []},{"tablename" : "ad_column", "data" : {"ad_column_id":10203,
 "columnname":"Referrer",
 "name":"Referrer",
 "ad_chart_id":null,
 "ad_client_id":0,
 "ad_element_id":1429,
 "ad_infowindow_id":null,
 "ad_org_id":0,
 "ad_process_id":null,
 "ad_reference_id":10,
 "ad_reference_value_id":null,
 "ad_table_id":633,
 "ad_val_rule_id":null,
 "callout":null,
 "columnsql":null,
 "created":"2003-12-11T20:24:41",
 "createdby":0,
 "defaultvalue":null,
 "description":"Referring web address",
 "entitytype":"Web",
 "fieldlength":120,
 "formatpattern":null,
 "help":null,
 "infofactoryclass":null,
 "isactive":"Y",
 "isallowcopy":"Y",
 "isallowlogging":"Y",
 "isalwaysupdateable":"N",
 "isautocomplete":"N",
 "isencrypted":"N",
 "isidentifier":"N",
 "isincludeints":"N",
 "iskey":"N",
 "ismandatory":"N",
 "isparent":"N",
 "issecure":"N",
 "isselectioncolumn":"N",
 "issyncdatabase":"N",
 "istoolbarbutton":"N",
 "istranslated":"N",
 "isupdateable":"N",
 "mandatorylogic":null,
 "readonlylogic":null,
 "seqno":0,
 "updated":"2000-01-02T00:00:00",
 "updatedby":0,
 "valuemax":null,
 "valuemin":null,
 "version":1,
 "vformat":null}, "children" : []},{"tablename" : "ad_column", "data" : {"ad_column_id":10204,
 "columnname":"Remote_Host",
 "name":"Remote Host",
 "ad_chart_id":null,
 "ad_client_id":0,
 "ad_element_id":1431,
 "ad_infowindow_id":null,
 "ad_org_id":0,
 "ad_process_id":null,
 "ad_reference_id":10,
 "ad_reference_value_id":null,
 "ad_table_id":633,
 "ad_val_rule_id":null,
 "callout":null,
 "columnsql":null,
 "created":"2003-12-11T20:24:41",
 "createdby":0,
 "defaultvalue":null,
 "description":"Remote host Info",
 "entitytype":"Web",
 "fieldlength":120,
 "formatpattern":null,
 "help":null,
 "infofactoryclass":null,
 "isactive":"Y",
 "isallowcopy":"Y",
 "isallowlogging":"Y",
 "isalwaysupdateable":"N",
 "isautocomplete":"N",
 "isencrypted":"N",
 "isidentifier":"N",
 "isincludeints":"N",
 "iskey":"N",
 "ismandatory":"N",
 "isparent":"N",
 "issecure":"N",
 "isselectioncolumn":"N",
 "issyncdatabase":"N",
 "istoolbarbutton":"N",
 "istranslated":"N",
 "isupdateable":"N",
 "mandatorylogic":null,
 "readonlylogic":null,
 "seqno":0,
 "updated":"2000-01-02T00:00:00",
 "updatedby":0,
 "valuemax":null,
 "valuemin":null,
 "version":1,
 "vformat":null}, "children" : []},{"tablename" : "ad_column", "data" : {"ad_column_id":10205,
 "columnname":"AcceptLanguage",
 "name":"Accept Language",
 "ad_chart_id":null,
 "ad_client_id":0,
 "ad_element_id":1703,
 "ad_infowindow_id":null,
 "ad_org_id":0,
 "ad_process_id":null,
 "ad_reference_id":10,
 "ad_reference_value_id":null,
 "ad_table_id":633,
 "ad_val_rule_id":null,
 "callout":null,
 "columnsql":null,
 "created":"2003-12-11T20:24:41",
 "createdby":0,
 "defaultvalue":null,
 "description":"Language accepted based on browser information",
 "entitytype":"Web",
 "fieldlength":60,
 "formatpattern":null,
 "help":null,
 "infofactoryclass":null,
 "isactive":"Y",
 "isallowcopy":"Y",
 "isallowlogging":"Y",
 "isalwaysupdateable":"N",
 "isautocomplete":"N",
 "isencrypted":"N",
 "isidentifier":"N",
 "isincludeints":"N",
 "iskey":"N",
 "ismandatory":"N",
 "isparent":"N",
 "issecure":"N",
 "isselectioncolumn":"N",
 "issyncdatabase":"N",
 "istoolbarbutton":"N",
 "istranslated":"N",
 "isupdateable":"N",
 "mandatorylogic":null,
 "readonlylogic":null,
 "seqno":0,
 "updated":"2000-01-02T00:00:00",
 "updatedby":0,
 "valuemax":null,
 "valuemin":null,
 "version":1,
 "vformat":null}, "children" : []},{"tablename" : "ad_column", "data" : {"ad_column_id":10206,
 "columnname":"IsActive",
 "name":"Active",
 "ad_chart_id":null,
 "ad_client_id":0,
 "ad_element_id":348,
 "ad_infowindow_id":null,
 "ad_org_id":0,
 "ad_process_id":null,
 "ad_reference_id":20,
 "ad_reference_value_id":null,
 "ad_table_id":633,
 "ad_val_rule_id":null,
 "callout":null,
 "columnsql":null,
 "created":"2003-12-11T20:24:41",
 "createdby":0,
 "defaultvalue":"Y",
 "description":"The record is active in the system",
 "entitytype":"Web",
 "fieldlength":1,
 "formatpattern":null,
 "help":"There are two methods of making records unavailable in the system: One is to delete the record, the other is to de-activate the record. A de-activated record is not available for selection, but available for reports.\nThere are two reasons for de-activating and not deleting records:\n(1) The system requires the record for audit purposes.\n(2) The record is referenced by other records. E.g., you cannot delete a Business Partner, if there are invoices for this partner record existing. You de-activate the Business Partner and prevent that this record is used for future entries.",
 "infofactoryclass":null,
 "isactive":"Y",
 "isallowcopy":"N",
 "isallowlogging":"Y",
 "isalwaysupdateable":"N",
 "isautocomplete":"N",
 "isencrypted":"N",
 "isidentifier":"N",
 "isincludeints":"N",
 "iskey":"N",
 "ismandatory":"Y",
 "isparent":"N",
 "issecure":"N",
 "isselectioncolumn":"N",
 "issyncdatabase":"N",
 "istoolbarbutton":"N",
 "istranslated":"N",
 "isupdateable":"N",
 "mandatorylogic":null,
 "readonlylogic":null,
 "seqno":0,
 "updated":"2000-01-02T00:00:00",
 "updatedby":0,
 "valuemax":null,
 "valuemin":null,
 "version":1,
 "vformat":null}, "children" : []},{"tablename" : "ad_column", "data" : {"ad_column_id":10207,
 "columnname":"AD_Client_ID",
 "name":"Client",
 "ad_chart_id":null,
 "ad_client_id":0,
 "ad_element_id":102,
 "ad_infowindow_id":null,
 "ad_org_id":0,
 "ad_process_id":null,
 "ad_reference_id":19,
 "ad_reference_value_id":null,
 "ad_table_id":633,
 "ad_val_rule_id":129,
 "callout":null,
 "columnsql":null,
 "created":"2003-12-11T20:24:41",
 "createdby":0,
 "defaultvalue":null,
 "description":"Client/Tenant for this installation.",
 "entitytype":"Web",
 "fieldlength":22,
 "formatpattern":null,
 "help":"A Client is a company or a legal entity. You cannot share data between Clients. Tenant is a synonym for Client.",
 "infofactoryclass":null,
 "isactive":"Y",
 "isallowcopy":"N",
 "isallowlogging":"Y",
 "isalwaysupdateable":"N",
 "isautocomplete":"N",
 "isencrypted":"N",
 "isidentifier":"N",
 "isincludeints":"N",
 "iskey":"N",
 "ismandatory":"Y",
 "isparent":"N",
 "issecure":"N",
 "isselectioncolumn":"N",
 "issyncdatabase":"N",
 "istoolbarbutton":"N",
 "istranslated":"N",
 "isupdateable":"N",
 "mandatorylogic":null,
 "readonlylogic":null,
 "seqno":0,
 "updated":"2000-01-02T00:00:00",
 "updatedby":0,
 "valuemax":null,
 "valuemin":null,
 "version":1,
 "vformat":null}, "children" : []},{"tablename" : "ad_column", "data" : {"ad_column_id":10208,
 "columnname":"CreatedBy",
 "name":"Created By",
 "ad_chart_id":null,
 "ad_client_id":0,
 "ad_element_id":246,
 "ad_infowindow_id":null,
 "ad_org_id":0,
 "ad_process_id":null,
 "ad_reference_id":18,
 "ad_reference_value_id":110,
 "ad_table_id":633,
 "ad_val_rule_id":null,
 "callout":null,
 "columnsql":null,
 "created":"2003-12-11T20:24:41",
 "createdby":0,
 "defaultvalue":null,
 "description":"User who created this records",
 "entitytype":"Web",
 "fieldlength":22,
 "formatpattern":null,
 "help":"The Created By field indicates the user who created this record.",
 "infofactoryclass":null,
 "isactive":"Y",
 "isallowcopy":"N",
 "isallowlogging":"Y",
 "isalwaysupdateable":"N",
 "isautocomplete":"N",
 "isencrypted":"N",
 "isidentifier":"N",
 "isincludeints":"N",
 "iskey":"N",
 "ismandatory":"Y",
 "isparent":"N",
 "issecure":"N",
 "isselectioncolumn":"N",
 "issyncdatabase":"N",
 "istoolbarbutton":"N",
 "istranslated":"N",
 "isupdateable":"N",
 "mandatorylogic":null,
 "readonlylogic":null,
 "seqno":0,
 "updated":"2000-01-02T00:00:00",
 "updatedby":0,
 "valuemax":null,
 "valuemin":null,
 "version":1,
 "vformat":null}, "children" : []},{"tablename" : "ad_column", "data" : {"ad_column_id":10209,
 "columnname":"Processed",
 "name":"Processed",
 "ad_chart_id":null,
 "ad_client_id":0,
 "ad_element_id":1047,
 "ad_infowindow_id":null,
 "ad_org_id":0,
 "ad_process_id":null,
 "ad_reference_id":20,
 "ad_reference_value_id":null,
 "ad_table_id":633,
 "ad_val_rule_id":null,
 "callout":null,
 "columnsql":null,
 "created":"2003-12-11T20:24:41",
 "createdby":0,
 "defaultvalue":null,
 "description":"The document has been processed",
 "entitytype":"Web",
 "fieldlength":1,
 "formatpattern":null,
 "help":"The Processed checkbox indicates that a document has been processed.",
 "infofactoryclass":null,
 "isactive":"Y",
 "isallowcopy":"Y",
 "isallowlogging":"Y",
 "isalwaysupdateable":"N",
 "isautocomplete":"N",
 "isencrypted":"N",
 "isidentifier":"N",
 "isincludeints":"N",
 "iskey":"N",
 "ismandatory":"Y",
 "isparent":"N",
 "issecure":"N",
 "isselectioncolumn":"N",
 "issyncdatabase":"N",
 "istoolbarbutton":"N",
 "istranslated":"N",
 "isupdateable":"N",
 "mandatorylogic":null,
 "readonlylogic":null,
 "seqno":0,
 "updated":"2000-01-02T00:00:00",
 "updatedby":0,
 "valuemax":null,
 "valuemin":null,
 "version":1,
 "vformat":null}, "children" : []},{"tablename" : "ad_column", "data" : {"ad_column_id":10210,
 "columnname":"UserAgent",
 "name":"User Agent",
 "ad_chart_id":null,
 "ad_client_id":0,
 "ad_element_id":1704,
 "ad_infowindow_id":null,
 "ad_org_id":0,
 "ad_process_id":null,
 "ad_reference_id":10,
 "ad_reference_value_id":null,
 "ad_table_id":633,
 "ad_val_rule_id":null,
 "callout":null,
 "columnsql":null,
 "created":"2003-12-11T20:24:41",
 "createdby":0,
 "defaultvalue":null,
 "description":"Browser Used",
 "entitytype":"Web",
 "fieldlength":255,
 "formatpattern":null,
 "help":null,
 "infofactoryclass":null,
 "isactive":"Y",
 "isallowcopy":"Y",
 "isallowlogging":"Y",
 "isalwaysupdateable":"N",
 "isautocomplete":"N",
 "isencrypted":"N",
 "isidentifier":"N",
 "isincludeints":"N",
 "iskey":"N",
 "ismandatory":"N",
 "isparent":"N",
 "issecure":"N",
 "isselectioncolumn":"N",
 "issyncdatabase":"N",
 "istoolbarbutton":"N",
 "istranslated":"N",
 "isupdateable":"N",
 "mandatorylogic":null,
 "readonlylogic":null,
 "seqno":0,
 "updated":"2000-01-02T00:00:00",
 "updatedby":0,
 "valuemax":null,
 "valuemin":null,
 "version":1,
 "vformat":null}, "children" : []},{"tablename" : "ad_column", "data" : {"ad_column_id":10211,
 "columnname":"EMail",
 "name":"EMail Address",
 "ad_chart_id":null,
 "ad_client_id":0,
 "ad_element_id":881,
 "ad_infowindow_id":null,
 "ad_org_id":0,
 "ad_process_id":null,
 "ad_reference_id":10,
 "ad_reference_value_id":null,
 "ad_table_id":633,
 "ad_val_rule_id":null,
 "callout":null,
 "columnsql":null,
 "created":"2003-12-11T20:24:41",
 "createdby":0,
 "defaultvalue":null,
 "description":"Electronic Mail Address",
 "entitytype":"Web",
 "fieldlength":60,
 "formatpattern":null,
 "help":"The Email Address is the Electronic Mail ID for this User and should be fully qualified (e.g. joe.smith@company.com). The Email Address is used to access the self service application functionality from the web.",
 "infofactoryclass":null,
 "isactive":"Y",
 "isallowcopy":"Y",
 "isallowlogging":"Y",
 "isalwaysupdateable":"N",
 "isautocomplete":"N",
 "isencrypted":"N",
 "isidentifier":"N",
 "isincludeints":"N",
 "iskey":"N",
 "ismandatory":"N",
 "isparent":"N",
 "issecure":"N",
 "isselectioncolumn":"N",
 "issyncdatabase":"N",
 "istoolbarbutton":"N",
 "istranslated":"N",
 "isupdateable":"N",
 "mandatorylogic":null,
 "readonlylogic":null,
 "seqno":0,
 "updated":"2000-01-02T00:00:00",
 "updatedby":0,
 "valuemax":null,
 "valuemin":null,
 "version":1,
 "vformat":null}, "children" : []},{"tablename" : "ad_column", "data" : {"ad_column_id":10212,
 "columnname":"AD_Org_ID",
 "name":"Organisation",
 "ad_chart_id":null,
 "ad_client_id":0,
 "ad_element_id":113,
 "ad_infowindow_id":null,
 "ad_org_id":0,
 "ad_process_id":null,
 "ad_reference_id":19,
 "ad_reference_value_id":null,
 "ad_table_id":633,
 "ad_val_rule_id":104,
 "callout":null,
 "columnsql":null,
 "created":"2003-12-11T20:24:41",
 "createdby":0,
 "defaultvalue":null,
 "description":"Organisational entity within client",
 "entitytype":"Web",
 "fieldlength":22,
 "formatpattern":null,
 "help":"An organisation is a unit of your client or legal entity - examples are store, department. You can share data between organisations.",
 "infofactoryclass":null,
 "isactive":"Y",
 "isallowcopy":"N",
 "isallowlogging":"Y",
 "isalwaysupdateable":"N",
 "isautocomplete":"N",
 "isencrypted":"N",
 "isidentifier":"N",
 "isincludeints":"N",
 "iskey":"N",
 "ismandatory":"Y",
 "isparent":"N",
 "issecure":"N",
 "isselectioncolumn":"N",
 "issyncdatabase":"N",
 "istoolbarbutton":"N",
 "istranslated":"N",
 "isupdateable":"N",
 "mandatorylogic":null,
 "readonlylogic":null,
 "seqno":0,
 "updated":"2000-01-02T00:00:00",
 "updatedby":0,
 "valuemax":null,
 "valuemin":null,
 "version":1,
 "vformat":null}, "children" : []},{"tablename" : "ad_column", "data" : {"ad_column_id":10213,
 "columnname":"W_ClickCount_ID",
 "name":"Click Count",
 "ad_chart_id":null,
 "ad_client_id":0,
 "ad_element_id":2008,
 "ad_infowindow_id":null,
 "ad_org_id":0,
 "ad_process_id":null,
 "ad_reference_id":19,
 "ad_reference_value_id":null,
 "ad_table_id":633,
 "ad_val_rule_id":null,
 "callout":null,
 "columnsql":null,
 "created":"2003-12-11T20:24:41",
 "createdby":0,
 "defaultvalue":null,
 "description":"Web Click Management",
 "entitytype":"Web",
 "fieldlength":22,
 "formatpattern":null,
 "help":"Web Click Management",
 "infofactoryclass":null,
 "isactive":"Y",
 "isallowcopy":"Y",
 "isallowlogging":"Y",
 "isalwaysupdateable":"N",
 "isautocomplete":"N",
 "isencrypted":"N",
 "isidentifier":"N",
 "isincludeints":"N",
 "iskey":"N",
 "ismandatory":"N",
 "isparent":"N",
 "issecure":"N",
 "isselectioncolumn":"N",
 "issyncdatabase":"N",
 "istoolbarbutton":"N",
 "istranslated":"N",
 "isupdateable":"N",
 "mandatorylogic":null,
 "readonlylogic":null,
 "seqno":0,
 "updated":"2000-01-02T00:00:00",
 "updatedby":0,
 "valuemax":null,
 "valuemin":null,
 "version":1,
 "vformat":null}, "children" : []},{"tablename" : "ad_column", "data" : {"ad_column_id":10214,
 "columnname":"Remote_Addr",
 "name":"Remote Addr",
 "ad_chart_id":null,
 "ad_client_id":0,
 "ad_element_id":1430,
 "ad_infowindow_id":null,
 "ad_org_id":0,
 "ad_process_id":null,
 "ad_reference_id":10,
 "ad_reference_value_id":null,
 "ad_table_id":633,
 "ad_val_rule_id":null,
 "callout":null,
 "columnsql":null,
 "created":"2003-12-11T20:24:41",
 "createdby":0,
 "defaultvalue":null,
 "description":"Remote Address",
 "entitytype":"Web",
 "fieldlength":60,
 "formatpattern":null,
 "help":"The Remote Address indicates an alternative or external address.",
 "infofactoryclass":null,
 "isactive":"Y",
 "isallowcopy":"Y",
 "isallowlogging":"Y",
 "isalwaysupdateable":"N",
 "isautocomplete":"N",
 "isencrypted":"N",
 "isidentifier":"N",
 "isincludeints":"N",
 "iskey":"N",
 "ismandatory":"N",
 "isparent":"N",
 "issecure":"N",
 "isselectioncolumn":"N",
 "issyncdatabase":"N",
 "istoolbarbutton":"N",
 "istranslated":"N",
 "isupdateable":"N",
 "mandatorylogic":null,
 "readonlylogic":null,
 "seqno":0,
 "updated":"2000-01-02T00:00:00",
 "updatedby":0,
 "valuemax":null,
 "valuemin":null,
 "version":1,
 "vformat":null}, "children" : []}]},
 {"tablename" : "ad_table", "data" : {"ad_table_id":634,
 "tablename":"RV_Click_Month",
 "name":"Click Month",
 "accesslevel":"3",
 "ad_client_id":0,
 "ad_org_id":0,
 "ad_val_rule_id":null,
 "ad_window_id":null,
 "copycolumnsfromtable":null,
 "created":"2003-12-11T20:24:40",
 "createdby":0,
 "description":"Click by Month",
 "entitytype":"Web",
 "help":null,
 "importtable":null,
 "isactive":"Y",
 "iscentrallymaintained":"Y",
 "ischangelog":"N",
 "isdeleteable":"N",
 "ishighvolume":"N",
 "issecurityenabled":"N",
 "istscapable":"N",
 "isview":"Y",
 "loadseq":150,
 "po_window_id":null,
 "replicationtype":"L",
 "sqlstatement":null,
 "updated":"2006-01-22T14:55:40",
 "updatedby":100}, "children" : [{"tablename" : "ad_column", "data" : {"ad_column_id":10215,
 "columnname":"Description",
 "name":"Description",
 "ad_chart_id":null,
 "ad_client_id":0,
 "ad_element_id":275,
 "ad_infowindow_id":null,
 "ad_org_id":0,
 "ad_process_id":null,
 "ad_reference_id":10,
 "ad_reference_value_id":null,
 "ad_table_id":634,
 "ad_val_rule_id":null,
 "callout":null,
 "columnsql":null,
 "created":"2003-12-11T20:24:41",
 "createdby":0,
 "defaultvalue":null,
 "description":"Optional short description of the record",
 "entitytype":"Web",
 "fieldlength":255,
 "formatpattern":null,
 "help":"A description is limited to 255 characters.",
 "infofactoryclass":null,
 "isactive":"Y",
 "isallowcopy":"Y",
 "isallowlogging":"Y",
 "isalwaysupdateable":"N",
 "isautocomplete":"N",
 "isencrypted":"N",
 "isidentifier":"N",
 "isincludeints":"N",
 "iskey":"N",
 "ismandatory":"N",
 "isparent":"N",
 "issecure":"N",
 "isselectioncolumn":"Y",
 "issyncdatabase":"N",
 "istoolbarbutton":"N",
 "istranslated":"N",
 "isupdateable":"N",
 "mandatorylogic":null,
 "readonlylogic":null,
 "seqno":0,
 "updated":"2000-01-02T00:00:00",
 "updatedby":0,
 "valuemax":null,
 "valuemin":null,
 "version":1,
 "vformat":null}, "children" : []},{"tablename" : "ad_column", "data" : {"ad_column_id":10216,
 "columnname":"C_BPartner_ID",
 "name":"Business Partner ",
 "ad_chart_id":null,
 "ad_client_id":0,
 "ad_element_id":187,
 "ad_infowindow_id":null,
 "ad_org_id":0,
 "ad_process_id":null,
 "ad_reference_id":30,
 "ad_reference_value_id":null,
 "ad_table_id":634,
 "ad_val_rule_id":null,
 "callout":null,
 "columnsql":null,
 "created":"2003-12-11T20:24:41",
 "createdby":0,
 "defaultvalue":null,
 "description":"Identifies a Business Partner",
 "entitytype":"Web",
 "fieldlength":22,
 "formatpattern":null,
 "help":"A Business Partner is anyone with whom you transact.  This can include Vendor, Customer, Employee or Salesperson",
 "infofactoryclass":null,
 "isactive":"Y",
 "isallowcopy":"Y",
 "isallowlogging":"Y",
 "isalwaysupdateable":"N",
 "isautocomplete":"N",
 "isencrypted":"N",
 "isidentifier":"N",
 "isincludeints":"N",
 "iskey":"N",
 "ismandatory":"N",
 "isparent":"N",
 "issecure":"N",
 "isselectioncolumn":"N",
 "issyncdatabase":"N",
 "istoolbarbutton":"N",
 "istranslated":"N",
 "isupdateable":"N",
 "mandatorylogic":null,
 "readonlylogic":null,
 "seqno":0,
 "updated":"2000-01-02T00:00:00",
 "updatedby":0,
 "valuemax":null,
 "valuemin":null,
 "version":1,
 "vformat":null}, "children" : []},{"tablename" : "ad_column", "data" : {"ad_column_id":10217,
 "columnname":"Counter",
 "name":"Counter",
 "ad_chart_id":null,
 "ad_client_id":0,
 "ad_element_id":1997,
 "ad_infowindow_id":null,
 "ad_org_id":0,
 "ad_process_id":null,
 "ad_reference_id":11,
 "ad_reference_value_id":null,
 "ad_table_id":634,
 "ad_val_rule_id":null,
 "callout":null,
 "columnsql":null,
 "created":"2003-12-11T20:24:41",
 "createdby":0,
 "defaultvalue":null,
 "description":"Count Value",
 "entitytype":"Web",
 "fieldlength":22,
 "formatpattern":null,
 "help":"Number counter",
 "infofactoryclass":null,
 "isactive":"Y",
 "isallowcopy":"Y",
 "isallowlogging":"Y",
 "isalwaysupdateable":"N",
 "isautocomplete":"N",
 "isencrypted":"N",
 "isidentifier":"N",
 "isincludeints":"N",
 "iskey":"N",
 "ismandatory":"N",
 "isparent":"N",
 "issecure":"N",
 "isselectioncolumn":"N",
 "issyncdatabase":"N",
 "istoolbarbutton":"N",
 "istranslated":"N",
 "isupdateable":"N",
 "mandatorylogic":null,
 "readonlylogic":null,
 "seqno":0,
 "updated":"2000-01-02T00:00:00",
 "updatedby":0,
 "valuemax":null,
 "valuemin":null,
 "version":1,
 "vformat":null}, "children" : []},{"tablename" : "ad_column", "data" : {"ad_column_id":10218,
 "columnname":"AD_Org_ID",
 "name":"Organisation",
 "ad_chart_id":null,
 "ad_client_id":0,
 "ad_element_id":113,
 "ad_infowindow_id":null,
 "ad_org_id":0,
 "ad_process_id":null,
 "ad_reference_id":19,
 "ad_reference_value_id":null,
 "ad_table_id":634,
 "ad_val_rule_id":104,
 "callout":null,
 "columnsql":null,
 "created":"2003-12-11T20:24:41",
 "createdby":0,
 "defaultvalue":null,
 "description":"Organisational entity within client",
 "entitytype":"Web",
 "fieldlength":22,
 "formatpattern":null,
 "help":"An organisation is a unit of your client or legal entity - examples are store, department. You can share data between organisations.",
 "infofactoryclass":null,
 "isactive":"Y",
 "isallowcopy":"N",
 "isallowlogging":"Y",
 "isalwaysupdateable":"N",
 "isautocomplete":"N",
 "isencrypted":"N",
 "isidentifier":"N",
 "isincludeints":"N",
 "iskey":"N",
 "ismandatory":"Y",
 "isparent":"N",
 "issecure":"N",
 "isselectioncolumn":"N",
 "issyncdatabase":"N",
 "istoolbarbutton":"N",
 "istranslated":"N",
 "isupdateable":"N",
 "mandatorylogic":null,
 "readonlylogic":null,
 "seqno":0,
 "updated":"2000-01-02T00:00:00",
 "updatedby":0,
 "valuemax":null,
 "valuemin":null,
 "version":1,
 "vformat":null}, "children" : []},{"tablename" : "ad_column", "data" : {"ad_column_id":10219,
 "columnname":"TargetURL",
 "name":"Target URL",
 "ad_chart_id":null,
 "ad_client_id":0,
 "ad_element_id":2005,
 "ad_infowindow_id":null,
 "ad_org_id":0,
 "ad_process_id":null,
 "ad_reference_id":40,
 "ad_reference_value_id":null,
 "ad_table_id":634,
 "ad_val_rule_id":null,
 "callout":null,
 "columnsql":null,
 "created":"2003-12-11T20:24:41",
 "createdby":0,
 "defaultvalue":null,
 "description":"URL for the Target",
 "entitytype":"Web",
 "fieldlength":120,
 "formatpattern":null,
 "help":"URL of the Target Site",
 "infofactoryclass":null,
 "isactive":"Y",
 "isallowcopy":"Y",
 "isallowlogging":"Y",
 "isalwaysupdateable":"N",
 "isautocomplete":"N",
 "isencrypted":"N",
 "isidentifier":"N",
 "isincludeints":"N",
 "iskey":"N",
 "ismandatory":"Y",
 "isparent":"N",
 "issecure":"N",
 "isselectioncolumn":"N",
 "issyncdatabase":"N",
 "istoolbarbutton":"N",
 "istranslated":"N",
 "isupdateable":"N",
 "mandatorylogic":null,
 "readonlylogic":null,
 "seqno":0,
 "updated":"2000-01-02T00:00:00",
 "updatedby":0,
 "valuemax":null,
 "valuemin":null,
 "version":1,
 "vformat":null}, "children" : []},{"tablename" : "ad_column", "data" : {"ad_column_id":10220,
 "columnname":"AD_Client_ID",
 "name":"Client",
 "ad_chart_id":null,
 "ad_client_id":0,
 "ad_element_id":102,
 "ad_infowindow_id":null,
 "ad_org_id":0,
 "ad_process_id":null,
 "ad_reference_id":19,
 "ad_reference_value_id":null,
 "ad_table_id":634,
 "ad_val_rule_id":129,
 "callout":null,
 "columnsql":null,
 "created":"2003-12-11T20:24:41",
 "createdby":0,
 "defaultvalue":null,
 "description":"Client/Tenant for this installation.",
 "entitytype":"Web",
 "fieldlength":22,
 "formatpattern":null,
 "help":"A Client is a company or a legal entity. You cannot share data between Clients. Tenant is a synonym for Client.",
 "infofactoryclass":null,
 "isactive":"Y",
 "isallowcopy":"N",
 "isallowlogging":"Y",
 "isalwaysupdateable":"N",
 "isautocomplete":"N",
 "isencrypted":"N",
 "isidentifier":"N",
 "isincludeints":"N",
 "iskey":"N",
 "ismandatory":"Y",
 "isparent":"N",
 "issecure":"N",
 "isselectioncolumn":"N",
 "issyncdatabase":"N",
 "istoolbarbutton":"N",
 "istranslated":"N",
 "isupdateable":"N",
 "mandatorylogic":null,
 "readonlylogic":null,
 "seqno":0,
 "updated":"2000-01-02T00:00:00",
 "updatedby":0,
 "valuemax":null,
 "valuemin":null,
 "version":1,
 "vformat":null}, "children" : []},{"tablename" : "ad_column", "data" : {"ad_column_id":10221,
 "columnname":"Created",
 "name":"Created",
 "ad_chart_id":null,
 "ad_client_id":0,
 "ad_element_id":245,
 "ad_infowindow_id":null,
 "ad_org_id":0,
 "ad_process_id":null,
 "ad_reference_id":16,
 "ad_reference_value_id":null,
 "ad_table_id":634,
 "ad_val_rule_id":null,
 "callout":null,
 "columnsql":null,
 "created":"2003-12-11T20:24:41",
 "createdby":0,
 "defaultvalue":null,
 "description":"Date this record was created",
 "entitytype":"Web",
 "fieldlength":7,
 "formatpattern":null,
 "help":"The Created field indicates the date that this record was created.",
 "infofactoryclass":null,
 "isactive":"Y",
 "isallowcopy":"N",
 "isallowlogging":"Y",
 "isalwaysupdateable":"N",
 "isautocomplete":"N",
 "isencrypted":"N",
 "isidentifier":"N",
 "isincludeints":"N",
 "iskey":"N",
 "ismandatory":"N",
 "isparent":"N",
 "issecure":"N",
 "isselectioncolumn":"N",
 "issyncdatabase":"N",
 "istoolbarbutton":"N",
 "istranslated":"N",
 "isupdateable":"N",
 "mandatorylogic":null,
 "readonlylogic":null,
 "seqno":0,
 "updated":"2000-01-02T00:00:00",
 "updatedby":0,
 "valuemax":null,
 "valuemin":null,
 "version":1,
 "vformat":null}, "children" : []},{"tablename" : "ad_column", "data" : {"ad_column_id":10222,
 "columnname":"Name",
 "name":"Name",
 "ad_chart_id":null,
 "ad_client_id":0,
 "ad_element_id":469,
 "ad_infowindow_id":null,
 "ad_org_id":0,
 "ad_process_id":null,
 "ad_reference_id":10,
 "ad_reference_value_id":null,
 "ad_table_id":634,
 "ad_val_rule_id":null,
 "callout":null,
 "columnsql":null,
 "created":"2003-12-11T20:24:41",
 "createdby":0,
 "defaultvalue":null,
 "description":"Alphanumeric identifier of the entity",
 "entitytype":"Web",
 "fieldlength":60,
 "formatpattern":null,
 "help":"The name of an entity (record) is used as an default search option in addition to the search key. The name is up to 60 characters in length.",
 "infofactoryclass":null,
 "isactive":"Y",
 "isallowcopy":"Y",
 "isallowlogging":"Y",
 "isalwaysupdateable":"N",
 "isautocomplete":"N",
 "isencrypted":"N",
 "isidentifier":"N",
 "isincludeints":"N",
 "iskey":"N",
 "ismandatory":"Y",
 "isparent":"N",
 "issecure":"N",
 "isselectioncolumn":"Y",
 "issyncdatabase":"N",
 "istoolbarbutton":"N",
 "istranslated":"N",
 "isupdateable":"N",
 "mandatorylogic":null,
 "readonlylogic":null,
 "seqno":0,
 "updated":"2000-01-02T00:00:00",
 "updatedby":0,
 "valuemax":null,
 "valuemin":null,
 "version":1,
 "vformat":null}, "children" : []}]}]