[{"tablename" : "a_asset_spread", "data" : {"a_asset_spread_id":50000,
 "a_asset_spread_type":"QS",
 "ad_client_id":0,
 "ad_org_id":0,
 "a_period_1":0,
 "a_period_10":0,
 "a_period_11":0,
 "a_period_12":0.25,
 "a_period_13":0,
 "a_period_14":0,
 "a_period_2":0,
 "a_period_3":0.25,
 "a_period_4":0,
 "a_period_5":0,
 "a_period_6":0.25,
 "a_period_7":0,
 "a_period_8":0,
 "a_period_9":0.25,
 "created":"2008-05-30T17:06:11",
 "createdby":100,
 "description":"Quarterly Spread",
 "isactive":"Y",
 "updated":"2008-05-30T17:06:11",
 "updatedby":100}, "children" : []},
 {"tablename" : "a_asset_spread", "data" : {"a_asset_spread_id":50001,
 "a_asset_spread_type":"MS",
 "ad_client_id":0,
 "ad_org_id":0,
 "a_period_1":0.08333,
 "a_period_10":0.08333,
 "a_period_11":0.08333,
 "a_period_12":0.08334,
 "a_period_13":0,
 "a_period_14":0,
 "a_period_2":0.08333,
 "a_period_3":0.08334,
 "a_period_4":0.08333,
 "a_period_5":0.08333,
 "a_period_6":0.08334,
 "a_period_7":0.08333,
 "a_period_8":0.08333,
 "a_period_9":0.08334,
 "created":"2008-05-30T17:06:12",
 "createdby":100,
 "description":"Monthly Spread",
 "isactive":"Y",
 "updated":"2008-05-30T17:06:12",
 "updatedby":100}, "children" : []}]