[{"tablename" : "ad_alertrule", "data" : {"ad_alertrule_id":100,
 "name":"Space Info",
 "ad_alert_id":100,
 "ad_client_id":0,
 "ad_org_id":0,
 "ad_table_id":null,
 "created":"2004-09-04T00:14:57",
 "createdby":0,
 "errormsg":null,
 "fromclause":"DBA_Free_Space",
 "isactive":"N",
 "isvalid":"Y",
 "otherclause":"GROUP BY Tablespace_Name",
 "postprocessing":null,
 "preprocessing":null,
 "selectclause":"Tablespace_Name, \nCOUNT (*) AS Pieces, \nSUM (bytes)/1024/1024 Free_MB, \nMAX (bytes)/1024 Largest_kB, \nROUND(MAX (bytes) / SUM (bytes),2) * 100 Ratio,\nSUM (blocks) Free_Blocks,\nMAX (blocks) Largest_Blocks,\nROUND(SQRT (MAX (blocks) / SUM (blocks)) * (100 / SQRT (SQRT (COUNT (blocks)))),2) Fragmentation_Index",
 "updated":"2009-09-29T15:42:58",
 "updatedby":100,
 "whereclause":null}, "children" : []}]