[{"tablename" : "ad_client", "data" : {"ad_client_id":0,
 "name":"System",
 "ad_language":"en_US",
 "ad_org_id":0,
 "autoarchive":"N",
 "created":"2006-08-10T20:22:41",
 "createdby":0,
 "description":"System Client",
 "dmshost":null,
 "dmspassword":null,
 "dmsport":null,
 "dmsuser":null,
 "dmsworkspace":null,
 "documentdir":null,
 "emailtest":null,
 "isactive":"Y",
 "iscostimmediate":"N",
 "iserrorshowdialog":"N",
 "ismultilingualdocument":"Y",
 "ispostimmediate":"N",
 "isserveremail":"N",
 "issmtpauthorization":"N",
 "issmtptls":"N",
 "isusebetafunctions":"Y",
 "iswarningshowdialog":"N",
 "mmpolicy":"F",
 "modelvalidationclasses":null,
 "postautoconsolelims":"N",
 "requestemail":"jtt.admin@ttc.com",
 "requestfolder":"request",
 "requestuser":"you",
 "requestuserpw":"yourpwd",
 "smtphost":"mta.glb.corp.ttc",
 "smtpport":25,
 "storagearchive":"1",
 "storageattachment":"1",
 "storageimage":null,
 "storearchiveonfilesystem":"N",
 "storeattachmentsonfilesystem":"N",
 "unixarchivepath":"/opt/archives",
 "unixattachmentpath":"/opt/attachments",
 "updated":"2024-06-13T12:07:02",
 "updatedby":100,
 "value":"SYSTEM",
 "windowsarchivepath":null,
 "windowsattachmentpath":null}, "children" : []}]