[{"tablename" : "ad_process_access", "data" : {"ad_client_id":0,
 "ad_org_id":0,
 "ad_process_id":113,
 "ad_role_id":0,
 "created":"2024-06-03T10:55:36.337237",
 "createdby":0,
 "isactive":"Y",
 "isreadwrite":"Y",
 "updated":"2024-06-03T10:55:36.337237",
 "updatedby":0}, "children" : []},
 {"tablename" : "ad_process_access", "data" : {"ad_client_id":0,
 "ad_org_id":0,
 "ad_process_id":113,
 "ad_role_id":50001,
 "created":"2011-09-01T10:52:49.642939",
 "createdby":0,
 "isactive":"Y",
 "isreadwrite":"Y",
 "updated":"2011-09-01T10:52:49.642939",
 "updatedby":0}, "children" : []},
 {"tablename" : "ad_process_access", "data" : {"ad_client_id":0,
 "ad_org_id":0,
 "ad_process_id":113,
 "ad_role_id":50002,
 "created":"2011-09-01T10:52:49.642939",
 "createdby":0,
 "isactive":"Y",
 "isreadwrite":"Y",
 "updated":"2011-09-01T10:52:49.642939",
 "updatedby":0}, "children" : []},
 {"tablename" : "ad_process_access", "data" : {"ad_client_id":0,
 "ad_org_id":0,
 "ad_process_id":114,
 "ad_role_id":0,
 "created":"2024-06-03T10:55:36.337237",
 "createdby":0,
 "isactive":"Y",
 "isreadwrite":"Y",
 "updated":"2024-06-03T10:55:36.337237",
 "updatedby":0}, "children" : []},
 {"tablename" : "ad_process_access", "data" : {"ad_client_id":0,
 "ad_org_id":0,
 "ad_process_id":114,
 "ad_role_id":50001,
 "created":"2011-09-01T10:52:49.642939",
 "createdby":0,
 "isactive":"Y",
 "isreadwrite":"Y",
 "updated":"2011-09-01T10:52:49.642939",
 "updatedby":0}, "children" : []},
 {"tablename" : "ad_process_access", "data" : {"ad_client_id":0,
 "ad_org_id":0,
 "ad_process_id":114,
 "ad_role_id":50002,
 "created":"2011-09-01T10:52:49.642939",
 "createdby":0,
 "isactive":"Y",
 "isreadwrite":"Y",
 "updated":"2011-09-01T10:52:49.642939",
 "updatedby":0}, "children" : []},
 {"tablename" : "ad_process_access", "data" : {"ad_client_id":0,
 "ad_org_id":0,
 "ad_process_id":135,
 "ad_role_id":0,
 "created":"2024-06-03T10:55:36.337237",
 "createdby":0,
 "isactive":"Y",
 "isreadwrite":"Y",
 "updated":"2024-06-03T10:55:36.337237",
 "updatedby":0}, "children" : []},
 {"tablename" : "ad_process_access", "data" : {"ad_client_id":0,
 "ad_org_id":0,
 "ad_process_id":135,
 "ad_role_id":50001,
 "created":"2011-09-01T10:52:49.642939",
 "createdby":0,
 "isactive":"Y",
 "isreadwrite":"Y",
 "updated":"2011-09-01T10:52:49.642939",
 "updatedby":0}, "children" : []},
 {"tablename" : "ad_process_access", "data" : {"ad_client_id":0,
 "ad_org_id":0,
 "ad_process_id":135,
 "ad_role_id":50002,
 "created":"2011-09-01T10:52:49.642939",
 "createdby":0,
 "isactive":"Y",
 "isreadwrite":"Y",
 "updated":"2011-09-01T10:52:49.642939",
 "updatedby":0}, "children" : []},
 {"tablename" : "ad_process_access", "data" : {"ad_client_id":0,
 "ad_org_id":0,
 "ad_process_id":172,
 "ad_role_id":0,
 "created":"2024-06-03T10:55:36.337237",
 "createdby":0,
 "isactive":"Y",
 "isreadwrite":"Y",
 "updated":"2024-06-03T10:55:36.337237",
 "updatedby":0}, "children" : []},
 {"tablename" : "ad_process_access", "data" : {"ad_client_id":0,
 "ad_org_id":0,
 "ad_process_id":172,
 "ad_role_id":50001,
 "created":"2011-09-01T10:52:49.642939",
 "createdby":0,
 "isactive":"Y",
 "isreadwrite":"Y",
 "updated":"2011-09-01T10:52:49.642939",
 "updatedby":0}, "children" : []},
 {"tablename" : "ad_process_access", "data" : {"ad_client_id":0,
 "ad_org_id":0,
 "ad_process_id":172,
 "ad_role_id":50002,
 "created":"2011-09-01T10:52:49.642939",
 "createdby":0,
 "isactive":"Y",
 "isreadwrite":"Y",
 "updated":"2011-09-01T10:52:49.642939",
 "updatedby":0}, "children" : []},
 {"tablename" : "ad_process_access", "data" : {"ad_client_id":0,
 "ad_org_id":0,
 "ad_process_id":173,
 "ad_role_id":0,
 "created":"2024-06-03T10:55:36.337237",
 "createdby":0,
 "isactive":"Y",
 "isreadwrite":"Y",
 "updated":"2024-06-03T10:55:36.337237",
 "updatedby":0}, "children" : []},
 {"tablename" : "ad_process_access", "data" : {"ad_client_id":0,
 "ad_org_id":0,
 "ad_process_id":173,
 "ad_role_id":50001,
 "created":"2011-09-01T10:52:49.642939",
 "createdby":0,
 "isactive":"Y",
 "isreadwrite":"Y",
 "updated":"2011-09-01T10:52:49.642939",
 "updatedby":0}, "children" : []},
 {"tablename" : "ad_process_access", "data" : {"ad_client_id":0,
 "ad_org_id":0,
 "ad_process_id":173,
 "ad_role_id":50002,
 "created":"2011-09-01T10:52:49.642939",
 "createdby":0,
 "isactive":"Y",
 "isreadwrite":"Y",
 "updated":"2011-09-01T10:52:49.642939",
 "updatedby":0}, "children" : []},
 {"tablename" : "ad_process_access", "data" : {"ad_client_id":0,
 "ad_org_id":0,
 "ad_process_id":174,
 "ad_role_id":0,
 "created":"2024-06-03T10:55:36.337237",
 "createdby":0,
 "isactive":"Y",
 "isreadwrite":"Y",
 "updated":"2024-06-03T10:55:36.337237",
 "updatedby":0}, "children" : []},
 {"tablename" : "ad_process_access", "data" : {"ad_client_id":0,
 "ad_org_id":0,
 "ad_process_id":174,
 "ad_role_id":50001,
 "created":"2011-09-01T10:52:49.642939",
 "createdby":0,
 "isactive":"Y",
 "isreadwrite":"Y",
 "updated":"2011-09-01T10:52:49.642939",
 "updatedby":0}, "children" : []},
 {"tablename" : "ad_process_access", "data" : {"ad_client_id":0,
 "ad_org_id":0,
 "ad_process_id":174,
 "ad_role_id":50002,
 "created":"2011-09-01T10:52:49.642939",
 "createdby":0,
 "isactive":"Y",
 "isreadwrite":"Y",
 "updated":"2011-09-01T10:52:49.642939",
 "updatedby":0}, "children" : []},
 {"tablename" : "ad_process_access", "data" : {"ad_client_id":0,
 "ad_org_id":0,
 "ad_process_id":179,
 "ad_role_id":0,
 "created":"2024-06-03T10:55:36.337237",
 "createdby":0,
 "isactive":"Y",
 "isreadwrite":"Y",
 "updated":"2024-06-03T10:55:36.337237",
 "updatedby":0}, "children" : []},
 {"tablename" : "ad_process_access", "data" : {"ad_client_id":0,
 "ad_org_id":0,
 "ad_process_id":179,
 "ad_role_id":50001,
 "created":"2011-09-01T10:52:49.642939",
 "createdby":0,
 "isactive":"Y",
 "isreadwrite":"Y",
 "updated":"2011-09-01T10:52:49.642939",
 "updatedby":0}, "children" : []},
 {"tablename" : "ad_process_access", "data" : {"ad_client_id":0,
 "ad_org_id":0,
 "ad_process_id":179,
 "ad_role_id":50002,
 "created":"2011-09-01T10:52:49.642939",
 "createdby":0,
 "isactive":"Y",
 "isreadwrite":"Y",
 "updated":"2011-09-01T10:52:49.642939",
 "updatedby":0}, "children" : []},
 {"tablename" : "ad_process_access", "data" : {"ad_client_id":0,
 "ad_org_id":0,
 "ad_process_id":181,
 "ad_role_id":0,
 "created":"2024-06-03T10:55:36.337237",
 "createdby":0,
 "isactive":"Y",
 "isreadwrite":"Y",
 "updated":"2024-06-03T10:55:36.337237",
 "updatedby":0}, "children" : []},
 {"tablename" : "ad_process_access", "data" : {"ad_client_id":0,
 "ad_org_id":0,
 "ad_process_id":181,
 "ad_role_id":50001,
 "created":"2011-09-01T10:52:49.642939",
 "createdby":0,
 "isactive":"Y",
 "isreadwrite":"Y",
 "updated":"2011-09-01T10:52:49.642939",
 "updatedby":0}, "children" : []},
 {"tablename" : "ad_process_access", "data" : {"ad_client_id":0,
 "ad_org_id":0,
 "ad_process_id":181,
 "ad_role_id":50002,
 "created":"2011-09-01T10:52:49.642939",
 "createdby":0,
 "isactive":"Y",
 "isreadwrite":"Y",
 "updated":"2011-09-01T10:52:49.642939",
 "updatedby":0}, "children" : []},
 {"tablename" : "ad_process_access", "data" : {"ad_client_id":0,
 "ad_org_id":0,
 "ad_process_id":185,
 "ad_role_id":50001,
 "created":"2011-09-01T10:52:49.642939",
 "createdby":0,
 "isactive":"Y",
 "isreadwrite":"Y",
 "updated":"2011-09-01T10:52:49.642939",
 "updatedby":0}, "children" : []},
 {"tablename" : "ad_process_access", "data" : {"ad_client_id":0,
 "ad_org_id":0,
 "ad_process_id":185,
 "ad_role_id":50002,
 "created":"2011-09-01T10:52:49.642939",
 "createdby":0,
 "isactive":"Y",
 "isreadwrite":"Y",
 "updated":"2011-09-01T10:52:49.642939",
 "updatedby":0}, "children" : []},
 {"tablename" : "ad_process_access", "data" : {"ad_client_id":0,
 "ad_org_id":0,
 "ad_process_id":189,
 "ad_role_id":0,
 "created":"2024-06-03T10:55:36.337237",
 "createdby":0,
 "isactive":"Y",
 "isreadwrite":"Y",
 "updated":"2024-06-03T10:55:36.337237",
 "updatedby":0}, "children" : []},
 {"tablename" : "ad_process_access", "data" : {"ad_client_id":0,
 "ad_org_id":0,
 "ad_process_id":189,
 "ad_role_id":50001,
 "created":"2011-09-01T10:52:49.642939",
 "createdby":0,
 "isactive":"Y",
 "isreadwrite":"Y",
 "updated":"2011-09-01T10:52:49.642939",
 "updatedby":0}, "children" : []},
 {"tablename" : "ad_process_access", "data" : {"ad_client_id":0,
 "ad_org_id":0,
 "ad_process_id":189,
 "ad_role_id":50002,
 "created":"2011-09-01T10:52:49.642939",
 "createdby":0,
 "isactive":"Y",
 "isreadwrite":"Y",
 "updated":"2011-09-01T10:52:49.642939",
 "updatedby":0}, "children" : []},
 {"tablename" : "ad_process_access", "data" : {"ad_client_id":0,
 "ad_org_id":0,
 "ad_process_id":190,
 "ad_role_id":0,
 "created":"2024-06-03T10:55:36.337237",
 "createdby":0,
 "isactive":"Y",
 "isreadwrite":"Y",
 "updated":"2024-06-03T10:55:36.337237",
 "updatedby":0}, "children" : []},
 {"tablename" : "ad_process_access", "data" : {"ad_client_id":0,
 "ad_org_id":0,
 "ad_process_id":190,
 "ad_role_id":50001,
 "created":"2011-09-01T10:52:49.642939",
 "createdby":0,
 "isactive":"Y",
 "isreadwrite":"Y",
 "updated":"2011-09-01T10:52:49.642939",
 "updatedby":0}, "children" : []},
 {"tablename" : "ad_process_access", "data" : {"ad_client_id":0,
 "ad_org_id":0,
 "ad_process_id":190,
 "ad_role_id":50002,
 "created":"2011-09-01T10:52:49.642939",
 "createdby":0,
 "isactive":"Y",
 "isreadwrite":"Y",
 "updated":"2011-09-01T10:52:49.642939",
 "updatedby":0}, "children" : []},
 {"tablename" : "ad_process_access", "data" : {"ad_client_id":0,
 "ad_org_id":0,
 "ad_process_id":191,
 "ad_role_id":0,
 "created":"2024-06-03T10:55:36.337237",
 "createdby":0,
 "isactive":"Y",
 "isreadwrite":"Y",
 "updated":"2024-06-03T10:55:36.337237",
 "updatedby":0}, "children" : []},
 {"tablename" : "ad_process_access", "data" : {"ad_client_id":0,
 "ad_org_id":0,
 "ad_process_id":191,
 "ad_role_id":50001,
 "created":"2011-09-01T10:52:49.642939",
 "createdby":0,
 "isactive":"Y",
 "isreadwrite":"Y",
 "updated":"2011-09-01T10:52:49.642939",
 "updatedby":0}, "children" : []},
 {"tablename" : "ad_process_access", "data" : {"ad_client_id":0,
 "ad_org_id":0,
 "ad_process_id":191,
 "ad_role_id":50002,
 "created":"2011-09-01T10:52:49.642939",
 "createdby":0,
 "isactive":"Y",
 "isreadwrite":"Y",
 "updated":"2011-09-01T10:52:49.642939",
 "updatedby":0}, "children" : []},
 {"tablename" : "ad_process_access", "data" : {"ad_client_id":0,
 "ad_org_id":0,
 "ad_process_id":192,
 "ad_role_id":0,
 "created":"2024-06-03T10:55:36.337237",
 "createdby":0,
 "isactive":"Y",
 "isreadwrite":"Y",
 "updated":"2024-06-03T10:55:36.337237",
 "updatedby":0}, "children" : []},
 {"tablename" : "ad_process_access", "data" : {"ad_client_id":0,
 "ad_org_id":0,
 "ad_process_id":192,
 "ad_role_id":50001,
 "created":"2011-09-01T10:52:49.642939",
 "createdby":0,
 "isactive":"Y",
 "isreadwrite":"Y",
 "updated":"2011-09-01T10:52:49.642939",
 "updatedby":0}, "children" : []},
 {"tablename" : "ad_process_access", "data" : {"ad_client_id":0,
 "ad_org_id":0,
 "ad_process_id":192,
 "ad_role_id":50002,
 "created":"2011-09-01T10:52:49.642939",
 "createdby":0,
 "isactive":"Y",
 "isreadwrite":"Y",
 "updated":"2011-09-01T10:52:49.642939",
 "updatedby":0}, "children" : []},
 {"tablename" : "ad_process_access", "data" : {"ad_client_id":0,
 "ad_org_id":0,
 "ad_process_id":205,
 "ad_role_id":0,
 "created":"2024-06-03T10:55:36.337237",
 "createdby":0,
 "isactive":"Y",
 "isreadwrite":"Y",
 "updated":"2024-06-03T10:55:36.337237",
 "updatedby":0}, "children" : []},
 {"tablename" : "ad_process_access", "data" : {"ad_client_id":0,
 "ad_org_id":0,
 "ad_process_id":205,
 "ad_role_id":50001,
 "created":"2011-09-01T10:52:49.642939",
 "createdby":0,
 "isactive":"Y",
 "isreadwrite":"Y",
 "updated":"2011-09-01T10:52:49.642939",
 "updatedby":0}, "children" : []},
 {"tablename" : "ad_process_access", "data" : {"ad_client_id":0,
 "ad_org_id":0,
 "ad_process_id":205,
 "ad_role_id":50002,
 "created":"2011-09-01T10:52:49.642939",
 "createdby":0,
 "isactive":"Y",
 "isreadwrite":"Y",
 "updated":"2011-09-01T10:52:49.642939",
 "updatedby":0}, "children" : []},
 {"tablename" : "ad_process_access", "data" : {"ad_client_id":0,
 "ad_org_id":0,
 "ad_process_id":208,
 "ad_role_id":0,
 "created":"2024-06-03T10:55:36.337237",
 "createdby":0,
 "isactive":"Y",
 "isreadwrite":"Y",
 "updated":"2024-06-03T10:55:36.337237",
 "updatedby":0}, "children" : []},
 {"tablename" : "ad_process_access", "data" : {"ad_client_id":0,
 "ad_org_id":0,
 "ad_process_id":208,
 "ad_role_id":50001,
 "created":"2011-09-01T10:52:49.642939",
 "createdby":0,
 "isactive":"Y",
 "isreadwrite":"Y",
 "updated":"2011-09-01T10:52:49.642939",
 "updatedby":0}, "children" : []},
 {"tablename" : "ad_process_access", "data" : {"ad_client_id":0,
 "ad_org_id":0,
 "ad_process_id":208,
 "ad_role_id":50002,
 "created":"2011-09-01T10:52:49.642939",
 "createdby":0,
 "isactive":"Y",
 "isreadwrite":"Y",
 "updated":"2011-09-01T10:52:49.642939",
 "updatedby":0}, "children" : []},
 {"tablename" : "ad_process_access", "data" : {"ad_client_id":0,
 "ad_org_id":0,
 "ad_process_id":233,
 "ad_role_id":0,
 "created":"2024-06-03T10:55:36.337237",
 "createdby":0,
 "isactive":"Y",
 "isreadwrite":"Y",
 "updated":"2024-06-03T10:55:36.337237",
 "updatedby":0}, "children" : []},
 {"tablename" : "ad_process_access", "data" : {"ad_client_id":0,
 "ad_org_id":0,
 "ad_process_id":233,
 "ad_role_id":50001,
 "created":"2011-09-01T10:52:49.642939",
 "createdby":0,
 "isactive":"Y",
 "isreadwrite":"Y",
 "updated":"2011-09-01T10:52:49.642939",
 "updatedby":0}, "children" : []},
 {"tablename" : "ad_process_access", "data" : {"ad_client_id":0,
 "ad_org_id":0,
 "ad_process_id":233,
 "ad_role_id":50002,
 "created":"2011-09-01T10:52:49.642939",
 "createdby":0,
 "isactive":"Y",
 "isreadwrite":"Y",
 "updated":"2011-09-01T10:52:49.642939",
 "updatedby":0}, "children" : []},
 {"tablename" : "ad_process_access", "data" : {"ad_client_id":0,
 "ad_org_id":0,
 "ad_process_id":235,
 "ad_role_id":0,
 "created":"2024-06-03T10:55:36.337237",
 "createdby":0,
 "isactive":"Y",
 "isreadwrite":"Y",
 "updated":"2024-06-03T10:55:36.337237",
 "updatedby":0}, "children" : []},
 {"tablename" : "ad_process_access", "data" : {"ad_client_id":0,
 "ad_org_id":0,
 "ad_process_id":235,
 "ad_role_id":50001,
 "created":"2011-09-01T10:52:49.642939",
 "createdby":0,
 "isactive":"Y",
 "isreadwrite":"Y",
 "updated":"2011-09-01T10:52:49.642939",
 "updatedby":0}, "children" : []},
 {"tablename" : "ad_process_access", "data" : {"ad_client_id":0,
 "ad_org_id":0,
 "ad_process_id":235,
 "ad_role_id":50002,
 "created":"2011-09-01T10:52:49.642939",
 "createdby":0,
 "isactive":"Y",
 "isreadwrite":"Y",
 "updated":"2011-09-01T10:52:49.642939",
 "updatedby":0}, "children" : []},
 {"tablename" : "ad_process_access", "data" : {"ad_client_id":0,
 "ad_org_id":0,
 "ad_process_id":241,
 "ad_role_id":0,
 "created":"2024-06-03T10:55:36.337237",
 "createdby":0,
 "isactive":"Y",
 "isreadwrite":"Y",
 "updated":"2024-06-03T10:55:36.337237",
 "updatedby":0}, "children" : []},
 {"tablename" : "ad_process_access", "data" : {"ad_client_id":0,
 "ad_org_id":0,
 "ad_process_id":241,
 "ad_role_id":50001,
 "created":"2011-09-01T10:52:49.642939",
 "createdby":0,
 "isactive":"Y",
 "isreadwrite":"Y",
 "updated":"2011-09-01T10:52:49.642939",
 "updatedby":0}, "children" : []},
 {"tablename" : "ad_process_access", "data" : {"ad_client_id":0,
 "ad_org_id":0,
 "ad_process_id":241,
 "ad_role_id":50002,
 "created":"2011-09-01T10:52:49.642939",
 "createdby":0,
 "isactive":"Y",
 "isreadwrite":"Y",
 "updated":"2011-09-01T10:52:49.642939",
 "updatedby":0}, "children" : []},
 {"tablename" : "ad_process_access", "data" : {"ad_client_id":0,
 "ad_org_id":0,
 "ad_process_id":248,
 "ad_role_id":0,
 "created":"2024-06-03T10:55:36.337237",
 "createdby":0,
 "isactive":"Y",
 "isreadwrite":"Y",
 "updated":"2024-06-03T10:55:36.337237",
 "updatedby":0}, "children" : []},
 {"tablename" : "ad_process_access", "data" : {"ad_client_id":0,
 "ad_org_id":0,
 "ad_process_id":248,
 "ad_role_id":50001,
 "created":"2011-09-01T10:52:49.642939",
 "createdby":0,
 "isactive":"Y",
 "isreadwrite":"Y",
 "updated":"2011-09-01T10:52:49.642939",
 "updatedby":0}, "children" : []},
 {"tablename" : "ad_process_access", "data" : {"ad_client_id":0,
 "ad_org_id":0,
 "ad_process_id":248,
 "ad_role_id":50002,
 "created":"2011-09-01T10:52:49.642939",
 "createdby":0,
 "isactive":"Y",
 "isreadwrite":"Y",
 "updated":"2011-09-01T10:52:49.642939",
 "updatedby":0}, "children" : []},
 {"tablename" : "ad_process_access", "data" : {"ad_client_id":0,
 "ad_org_id":0,
 "ad_process_id":249,
 "ad_role_id":0,
 "created":"2024-06-03T10:55:36.337237",
 "createdby":0,
 "isactive":"Y",
 "isreadwrite":"Y",
 "updated":"2024-06-03T10:55:36.337237",
 "updatedby":0}, "children" : []},
 {"tablename" : "ad_process_access", "data" : {"ad_client_id":0,
 "ad_org_id":0,
 "ad_process_id":249,
 "ad_role_id":50001,
 "created":"2011-09-01T10:52:49.642939",
 "createdby":0,
 "isactive":"Y",
 "isreadwrite":"Y",
 "updated":"2011-09-01T10:52:49.642939",
 "updatedby":0}, "children" : []},
 {"tablename" : "ad_process_access", "data" : {"ad_client_id":0,
 "ad_org_id":0,
 "ad_process_id":249,
 "ad_role_id":50002,
 "created":"2011-09-01T10:52:49.642939",
 "createdby":0,
 "isactive":"Y",
 "isreadwrite":"Y",
 "updated":"2011-09-01T10:52:49.642939",
 "updatedby":0}, "children" : []},
 {"tablename" : "ad_process_access", "data" : {"ad_client_id":0,
 "ad_org_id":0,
 "ad_process_id":250,
 "ad_role_id":0,
 "created":"2024-06-03T10:55:36.337237",
 "createdby":0,
 "isactive":"Y",
 "isreadwrite":"Y",
 "updated":"2024-06-03T10:55:36.337237",
 "updatedby":0}, "children" : []},
 {"tablename" : "ad_process_access", "data" : {"ad_client_id":0,
 "ad_org_id":0,
 "ad_process_id":250,
 "ad_role_id":50001,
 "created":"2011-09-01T10:52:49.642939",
 "createdby":0,
 "isactive":"Y",
 "isreadwrite":"Y",
 "updated":"2011-09-01T10:52:49.642939",
 "updatedby":0}, "children" : []},
 {"tablename" : "ad_process_access", "data" : {"ad_client_id":0,
 "ad_org_id":0,
 "ad_process_id":250,
 "ad_role_id":50002,
 "created":"2011-09-01T10:52:49.642939",
 "createdby":0,
 "isactive":"Y",
 "isreadwrite":"Y",
 "updated":"2011-09-01T10:52:49.642939",
 "updatedby":0}, "children" : []},
 {"tablename" : "ad_process_access", "data" : {"ad_client_id":0,
 "ad_org_id":0,
 "ad_process_id":258,
 "ad_role_id":0,
 "created":"2024-06-03T10:55:36.337237",
 "createdby":0,
 "isactive":"Y",
 "isreadwrite":"Y",
 "updated":"2024-06-03T10:55:36.337237",
 "updatedby":0}, "children" : []},
 {"tablename" : "ad_process_access", "data" : {"ad_client_id":0,
 "ad_org_id":0,
 "ad_process_id":258,
 "ad_role_id":50001,
 "created":"2011-09-01T10:52:49.642939",
 "createdby":0,
 "isactive":"Y",
 "isreadwrite":"Y",
 "updated":"2011-09-01T10:52:49.642939",
 "updatedby":0}, "children" : []},
 {"tablename" : "ad_process_access", "data" : {"ad_client_id":0,
 "ad_org_id":0,
 "ad_process_id":258,
 "ad_role_id":50002,
 "created":"2011-09-01T10:52:49.642939",
 "createdby":0,
 "isactive":"Y",
 "isreadwrite":"Y",
 "updated":"2011-09-01T10:52:49.642939",
 "updatedby":0}, "children" : []},
 {"tablename" : "ad_process_access", "data" : {"ad_client_id":0,
 "ad_org_id":0,
 "ad_process_id":278,
 "ad_role_id":50001,
 "created":"2011-09-01T10:52:49.642939",
 "createdby":0,
 "isactive":"Y",
 "isreadwrite":"Y",
 "updated":"2011-09-01T10:52:49.642939",
 "updatedby":0}, "children" : []},
 {"tablename" : "ad_process_access", "data" : {"ad_client_id":0,
 "ad_org_id":0,
 "ad_process_id":278,
 "ad_role_id":50002,
 "created":"2011-09-01T10:52:49.642939",
 "createdby":0,
 "isactive":"Y",
 "isreadwrite":"Y",
 "updated":"2011-09-01T10:52:49.642939",
 "updatedby":0}, "children" : []},
 {"tablename" : "ad_process_access", "data" : {"ad_client_id":0,
 "ad_org_id":0,
 "ad_process_id":279,
 "ad_role_id":50001,
 "created":"2011-09-01T10:52:49.642939",
 "createdby":0,
 "isactive":"Y",
 "isreadwrite":"Y",
 "updated":"2011-09-01T10:52:49.642939",
 "updatedby":0}, "children" : []},
 {"tablename" : "ad_process_access", "data" : {"ad_client_id":0,
 "ad_org_id":0,
 "ad_process_id":279,
 "ad_role_id":50002,
 "created":"2011-09-01T10:52:49.642939",
 "createdby":0,
 "isactive":"Y",
 "isreadwrite":"Y",
 "updated":"2011-09-01T10:52:49.642939",
 "updatedby":0}, "children" : []},
 {"tablename" : "ad_process_access", "data" : {"ad_client_id":0,
 "ad_org_id":0,
 "ad_process_id":287,
 "ad_role_id":0,
 "created":"2024-06-03T10:55:36.337237",
 "createdby":0,
 "isactive":"Y",
 "isreadwrite":"Y",
 "updated":"2024-06-03T10:55:36.337237",
 "updatedby":0}, "children" : []},
 {"tablename" : "ad_process_access", "data" : {"ad_client_id":0,
 "ad_org_id":0,
 "ad_process_id":287,
 "ad_role_id":50001,
 "created":"2011-09-01T10:52:49.642939",
 "createdby":0,
 "isactive":"Y",
 "isreadwrite":"Y",
 "updated":"2011-09-01T10:52:49.642939",
 "updatedby":0}, "children" : []},
 {"tablename" : "ad_process_access", "data" : {"ad_client_id":0,
 "ad_org_id":0,
 "ad_process_id":287,
 "ad_role_id":50002,
 "created":"2011-09-01T10:52:49.642939",
 "createdby":0,
 "isactive":"Y",
 "isreadwrite":"Y",
 "updated":"2011-09-01T10:52:49.642939",
 "updatedby":0}, "children" : []},
 {"tablename" : "ad_process_access", "data" : {"ad_client_id":0,
 "ad_org_id":0,
 "ad_process_id":288,
 "ad_role_id":0,
 "created":"2024-06-03T10:55:36.337237",
 "createdby":0,
 "isactive":"Y",
 "isreadwrite":"Y",
 "updated":"2024-06-03T10:55:36.337237",
 "updatedby":0}, "children" : []},
 {"tablename" : "ad_process_access", "data" : {"ad_client_id":0,
 "ad_org_id":0,
 "ad_process_id":288,
 "ad_role_id":50001,
 "created":"2011-09-01T10:52:49.642939",
 "createdby":0,
 "isactive":"Y",
 "isreadwrite":"Y",
 "updated":"2011-09-01T10:52:49.642939",
 "updatedby":0}, "children" : []},
 {"tablename" : "ad_process_access", "data" : {"ad_client_id":0,
 "ad_org_id":0,
 "ad_process_id":288,
 "ad_role_id":50002,
 "created":"2011-09-01T10:52:49.642939",
 "createdby":0,
 "isactive":"Y",
 "isreadwrite":"Y",
 "updated":"2011-09-01T10:52:49.642939",
 "updatedby":0}, "children" : []},
 {"tablename" : "ad_process_access", "data" : {"ad_client_id":0,
 "ad_org_id":0,
 "ad_process_id":295,
 "ad_role_id":0,
 "created":"2024-06-03T10:55:36.337237",
 "createdby":0,
 "isactive":"Y",
 "isreadwrite":"Y",
 "updated":"2024-06-03T10:55:36.337237",
 "updatedby":0}, "children" : []},
 {"tablename" : "ad_process_access", "data" : {"ad_client_id":0,
 "ad_org_id":0,
 "ad_process_id":295,
 "ad_role_id":50001,
 "created":"2011-09-01T10:52:49.642939",
 "createdby":0,
 "isactive":"Y",
 "isreadwrite":"Y",
 "updated":"2011-09-01T10:52:49.642939",
 "updatedby":0}, "children" : []},
 {"tablename" : "ad_process_access", "data" : {"ad_client_id":0,
 "ad_org_id":0,
 "ad_process_id":295,
 "ad_role_id":50002,
 "created":"2011-09-01T10:52:49.642939",
 "createdby":0,
 "isactive":"Y",
 "isreadwrite":"Y",
 "updated":"2011-09-01T10:52:49.642939",
 "updatedby":0}, "children" : []},
 {"tablename" : "ad_process_access", "data" : {"ad_client_id":0,
 "ad_org_id":0,
 "ad_process_id":304,
 "ad_role_id":0,
 "created":"2024-06-03T10:55:36.337237",
 "createdby":0,
 "isactive":"Y",
 "isreadwrite":"Y",
 "updated":"2024-06-03T10:55:36.337237",
 "updatedby":0}, "children" : []},
 {"tablename" : "ad_process_access", "data" : {"ad_client_id":0,
 "ad_org_id":0,
 "ad_process_id":304,
 "ad_role_id":50001,
 "created":"2011-09-01T10:52:49.642939",
 "createdby":0,
 "isactive":"Y",
 "isreadwrite":"Y",
 "updated":"2011-09-01T10:52:49.642939",
 "updatedby":0}, "children" : []},
 {"tablename" : "ad_process_access", "data" : {"ad_client_id":0,
 "ad_org_id":0,
 "ad_process_id":304,
 "ad_role_id":50002,
 "created":"2011-09-01T10:52:49.642939",
 "createdby":0,
 "isactive":"Y",
 "isreadwrite":"Y",
 "updated":"2011-09-01T10:52:49.642939",
 "updatedby":0}, "children" : []},
 {"tablename" : "ad_process_access", "data" : {"ad_client_id":0,
 "ad_org_id":0,
 "ad_process_id":305,
 "ad_role_id":0,
 "created":"2024-06-03T10:55:36.337237",
 "createdby":0,
 "isactive":"Y",
 "isreadwrite":"Y",
 "updated":"2024-06-03T10:55:36.337237",
 "updatedby":0}, "children" : []},
 {"tablename" : "ad_process_access", "data" : {"ad_client_id":0,
 "ad_org_id":0,
 "ad_process_id":305,
 "ad_role_id":50001,
 "created":"2011-09-01T10:52:49.642939",
 "createdby":0,
 "isactive":"Y",
 "isreadwrite":"Y",
 "updated":"2011-09-01T10:52:49.642939",
 "updatedby":0}, "children" : []},
 {"tablename" : "ad_process_access", "data" : {"ad_client_id":0,
 "ad_org_id":0,
 "ad_process_id":305,
 "ad_role_id":50002,
 "created":"2011-09-01T10:52:49.642939",
 "createdby":0,
 "isactive":"Y",
 "isreadwrite":"Y",
 "updated":"2011-09-01T10:52:49.642939",
 "updatedby":0}, "children" : []},
 {"tablename" : "ad_process_access", "data" : {"ad_client_id":0,
 "ad_org_id":0,
 "ad_process_id":306,
 "ad_role_id":0,
 "created":"2024-06-03T10:55:36.337237",
 "createdby":0,
 "isactive":"Y",
 "isreadwrite":"Y",
 "updated":"2024-06-03T10:55:36.337237",
 "updatedby":0}, "children" : []},
 {"tablename" : "ad_process_access", "data" : {"ad_client_id":0,
 "ad_org_id":0,
 "ad_process_id":306,
 "ad_role_id":50001,
 "created":"2011-09-01T10:52:49.642939",
 "createdby":0,
 "isactive":"Y",
 "isreadwrite":"Y",
 "updated":"2011-09-01T10:52:49.642939",
 "updatedby":0}, "children" : []},
 {"tablename" : "ad_process_access", "data" : {"ad_client_id":0,
 "ad_org_id":0,
 "ad_process_id":306,
 "ad_role_id":50002,
 "created":"2011-09-01T10:52:49.642939",
 "createdby":0,
 "isactive":"Y",
 "isreadwrite":"Y",
 "updated":"2011-09-01T10:52:49.642939",
 "updatedby":0}, "children" : []},
 {"tablename" : "ad_process_access", "data" : {"ad_client_id":0,
 "ad_org_id":0,
 "ad_process_id":307,
 "ad_role_id":0,
 "created":"2024-06-03T10:55:36.337237",
 "createdby":0,
 "isactive":"Y",
 "isreadwrite":"Y",
 "updated":"2024-06-03T10:55:36.337237",
 "updatedby":0}, "children" : []},
 {"tablename" : "ad_process_access", "data" : {"ad_client_id":0,
 "ad_org_id":0,
 "ad_process_id":307,
 "ad_role_id":50001,
 "created":"2011-09-01T10:52:49.642939",
 "createdby":0,
 "isactive":"Y",
 "isreadwrite":"Y",
 "updated":"2011-09-01T10:52:49.642939",
 "updatedby":0}, "children" : []},
 {"tablename" : "ad_process_access", "data" : {"ad_client_id":0,
 "ad_org_id":0,
 "ad_process_id":307,
 "ad_role_id":50002,
 "created":"2011-09-01T10:52:49.642939",
 "createdby":0,
 "isactive":"Y",
 "isreadwrite":"Y",
 "updated":"2011-09-01T10:52:49.642939",
 "updatedby":0}, "children" : []},
 {"tablename" : "ad_process_access", "data" : {"ad_client_id":0,
 "ad_org_id":0,
 "ad_process_id":308,
 "ad_role_id":0,
 "created":"2024-06-03T10:55:36.337237",
 "createdby":0,
 "isactive":"Y",
 "isreadwrite":"Y",
 "updated":"2024-06-03T10:55:36.337237",
 "updatedby":0}, "children" : []},
 {"tablename" : "ad_process_access", "data" : {"ad_client_id":0,
 "ad_org_id":0,
 "ad_process_id":308,
 "ad_role_id":50001,
 "created":"2011-09-01T10:52:49.642939",
 "createdby":0,
 "isactive":"Y",
 "isreadwrite":"Y",
 "updated":"2011-09-01T10:52:49.642939",
 "updatedby":0}, "children" : []},
 {"tablename" : "ad_process_access", "data" : {"ad_client_id":0,
 "ad_org_id":0,
 "ad_process_id":308,
 "ad_role_id":50002,
 "created":"2011-09-01T10:52:49.642939",
 "createdby":0,
 "isactive":"Y",
 "isreadwrite":"Y",
 "updated":"2011-09-01T10:52:49.642939",
 "updatedby":0}, "children" : []},
 {"tablename" : "ad_process_access", "data" : {"ad_client_id":0,
 "ad_org_id":0,
 "ad_process_id":327,
 "ad_role_id":0,
 "created":"2024-06-03T10:55:36.337237",
 "createdby":0,
 "isactive":"Y",
 "isreadwrite":"Y",
 "updated":"2024-06-03T10:55:36.337237",
 "updatedby":0}, "children" : []},
 {"tablename" : "ad_process_access", "data" : {"ad_client_id":0,
 "ad_org_id":0,
 "ad_process_id":327,
 "ad_role_id":50001,
 "created":"2011-09-01T10:52:49.642939",
 "createdby":0,
 "isactive":"Y",
 "isreadwrite":"Y",
 "updated":"2011-09-01T10:52:49.642939",
 "updatedby":0}, "children" : []},
 {"tablename" : "ad_process_access", "data" : {"ad_client_id":0,
 "ad_org_id":0,
 "ad_process_id":327,
 "ad_role_id":50002,
 "created":"2011-09-01T10:52:49.642939",
 "createdby":0,
 "isactive":"Y",
 "isreadwrite":"Y",
 "updated":"2011-09-01T10:52:49.642939",
 "updatedby":0}, "children" : []},
 {"tablename" : "ad_process_access", "data" : {"ad_client_id":0,
 "ad_org_id":0,
 "ad_process_id":328,
 "ad_role_id":0,
 "created":"2024-06-03T10:55:36.337237",
 "createdby":0,
 "isactive":"Y",
 "isreadwrite":"Y",
 "updated":"2024-06-03T10:55:36.337237",
 "updatedby":0}, "children" : []},
 {"tablename" : "ad_process_access", "data" : {"ad_client_id":0,
 "ad_org_id":0,
 "ad_process_id":328,
 "ad_role_id":50001,
 "created":"2011-09-01T10:52:49.642939",
 "createdby":0,
 "isactive":"Y",
 "isreadwrite":"Y",
 "updated":"2011-09-01T10:52:49.642939",
 "updatedby":0}, "children" : []},
 {"tablename" : "ad_process_access", "data" : {"ad_client_id":0,
 "ad_org_id":0,
 "ad_process_id":328,
 "ad_role_id":50002,
 "created":"2011-09-01T10:52:49.642939",
 "createdby":0,
 "isactive":"Y",
 "isreadwrite":"Y",
 "updated":"2011-09-01T10:52:49.642939",
 "updatedby":0}, "children" : []},
 {"tablename" : "ad_process_access", "data" : {"ad_client_id":0,
 "ad_org_id":0,
 "ad_process_id":339,
 "ad_role_id":0,
 "created":"2024-06-03T10:55:36.337237",
 "createdby":0,
 "isactive":"Y",
 "isreadwrite":"Y",
 "updated":"2024-06-03T10:55:36.337237",
 "updatedby":0}, "children" : []},
 {"tablename" : "ad_process_access", "data" : {"ad_client_id":0,
 "ad_org_id":0,
 "ad_process_id":339,
 "ad_role_id":50001,
 "created":"2011-09-01T10:52:49.642939",
 "createdby":0,
 "isactive":"Y",
 "isreadwrite":"Y",
 "updated":"2011-09-01T10:52:49.642939",
 "updatedby":0}, "children" : []},
 {"tablename" : "ad_process_access", "data" : {"ad_client_id":0,
 "ad_org_id":0,
 "ad_process_id":339,
 "ad_role_id":50002,
 "created":"2011-09-01T10:52:49.642939",
 "createdby":0,
 "isactive":"Y",
 "isreadwrite":"Y",
 "updated":"2011-09-01T10:52:49.642939",
 "updatedby":0}, "children" : []},
 {"tablename" : "ad_process_access", "data" : {"ad_client_id":0,
 "ad_org_id":0,
 "ad_process_id":342,
 "ad_role_id":0,
 "created":"2024-06-03T10:55:36.337237",
 "createdby":0,
 "isactive":"Y",
 "isreadwrite":"Y",
 "updated":"2024-06-03T10:55:36.337237",
 "updatedby":0}, "children" : []},
 {"tablename" : "ad_process_access", "data" : {"ad_client_id":0,
 "ad_org_id":0,
 "ad_process_id":342,
 "ad_role_id":50001,
 "created":"2011-09-01T10:52:49.642939",
 "createdby":0,
 "isactive":"Y",
 "isreadwrite":"Y",
 "updated":"2011-09-01T10:52:49.642939",
 "updatedby":0}, "children" : []},
 {"tablename" : "ad_process_access", "data" : {"ad_client_id":0,
 "ad_org_id":0,
 "ad_process_id":342,
 "ad_role_id":50002,
 "created":"2011-09-01T10:52:49.642939",
 "createdby":0,
 "isactive":"Y",
 "isreadwrite":"Y",
 "updated":"2011-09-01T10:52:49.642939",
 "updatedby":0}, "children" : []},
 {"tablename" : "ad_process_access", "data" : {"ad_client_id":0,
 "ad_org_id":0,
 "ad_process_id":344,
 "ad_role_id":0,
 "created":"2024-06-03T10:55:36.337237",
 "createdby":0,
 "isactive":"Y",
 "isreadwrite":"Y",
 "updated":"2024-06-03T10:55:36.337237",
 "updatedby":0}, "children" : []},
 {"tablename" : "ad_process_access", "data" : {"ad_client_id":0,
 "ad_org_id":0,
 "ad_process_id":344,
 "ad_role_id":50001,
 "created":"2011-09-01T10:52:49.642939",
 "createdby":0,
 "isactive":"Y",
 "isreadwrite":"Y",
 "updated":"2011-09-01T10:52:49.642939",
 "updatedby":0}, "children" : []},
 {"tablename" : "ad_process_access", "data" : {"ad_client_id":0,
 "ad_org_id":0,
 "ad_process_id":344,
 "ad_role_id":50002,
 "created":"2011-09-01T10:52:49.642939",
 "createdby":0,
 "isactive":"Y",
 "isreadwrite":"Y",
 "updated":"2011-09-01T10:52:49.642939",
 "updatedby":0}, "children" : []},
 {"tablename" : "ad_process_access", "data" : {"ad_client_id":0,
 "ad_org_id":0,
 "ad_process_id":347,
 "ad_role_id":0,
 "created":"2024-06-03T10:55:36.337237",
 "createdby":0,
 "isactive":"Y",
 "isreadwrite":"Y",
 "updated":"2024-06-03T10:55:36.337237",
 "updatedby":0}, "children" : []},
 {"tablename" : "ad_process_access", "data" : {"ad_client_id":0,
 "ad_org_id":0,
 "ad_process_id":347,
 "ad_role_id":50001,
 "created":"2011-09-01T10:52:49.642939",
 "createdby":0,
 "isactive":"Y",
 "isreadwrite":"Y",
 "updated":"2011-09-01T10:52:49.642939",
 "updatedby":0}, "children" : []},
 {"tablename" : "ad_process_access", "data" : {"ad_client_id":0,
 "ad_org_id":0,
 "ad_process_id":347,
 "ad_role_id":50002,
 "created":"2011-09-01T10:52:49.642939",
 "createdby":0,
 "isactive":"Y",
 "isreadwrite":"Y",
 "updated":"2011-09-01T10:52:49.642939",
 "updatedby":0}, "children" : []},
 {"tablename" : "ad_process_access", "data" : {"ad_client_id":0,
 "ad_org_id":0,
 "ad_process_id":348,
 "ad_role_id":0,
 "created":"2024-06-03T10:55:36.337237",
 "createdby":0,
 "isactive":"Y",
 "isreadwrite":"Y",
 "updated":"2024-06-03T10:55:36.337237",
 "updatedby":0}, "children" : []},
 {"tablename" : "ad_process_access", "data" : {"ad_client_id":0,
 "ad_org_id":0,
 "ad_process_id":348,
 "ad_role_id":50001,
 "created":"2011-09-01T10:52:49.642939",
 "createdby":0,
 "isactive":"Y",
 "isreadwrite":"Y",
 "updated":"2011-09-01T10:52:49.642939",
 "updatedby":0}, "children" : []},
 {"tablename" : "ad_process_access", "data" : {"ad_client_id":0,
 "ad_org_id":0,
 "ad_process_id":348,
 "ad_role_id":50002,
 "created":"2011-09-01T10:52:49.642939",
 "createdby":0,
 "isactive":"Y",
 "isreadwrite":"Y",
 "updated":"2011-09-01T10:52:49.642939",
 "updatedby":0}, "children" : []},
 {"tablename" : "ad_process_access", "data" : {"ad_client_id":0,
 "ad_org_id":0,
 "ad_process_id":349,
 "ad_role_id":0,
 "created":"2024-06-03T10:55:36.337237",
 "createdby":0,
 "isactive":"Y",
 "isreadwrite":"Y",
 "updated":"2024-06-03T10:55:36.337237",
 "updatedby":0}, "children" : []},
 {"tablename" : "ad_process_access", "data" : {"ad_client_id":0,
 "ad_org_id":0,
 "ad_process_id":349,
 "ad_role_id":50001,
 "created":"2011-09-01T10:52:49.642939",
 "createdby":0,
 "isactive":"Y",
 "isreadwrite":"Y",
 "updated":"2011-09-01T10:52:49.642939",
 "updatedby":0}, "children" : []},
 {"tablename" : "ad_process_access", "data" : {"ad_client_id":0,
 "ad_org_id":0,
 "ad_process_id":349,
 "ad_role_id":50002,
 "created":"2011-09-01T10:52:49.642939",
 "createdby":0,
 "isactive":"Y",
 "isreadwrite":"Y",
 "updated":"2011-09-01T10:52:49.642939",
 "updatedby":0}, "children" : []},
 {"tablename" : "ad_process_access", "data" : {"ad_client_id":0,
 "ad_org_id":0,
 "ad_process_id":352,
 "ad_role_id":0,
 "created":"2024-06-03T10:55:36.337237",
 "createdby":0,
 "isactive":"Y",
 "isreadwrite":"Y",
 "updated":"2024-06-03T10:55:36.337237",
 "updatedby":0}, "children" : []},
 {"tablename" : "ad_process_access", "data" : {"ad_client_id":0,
 "ad_org_id":0,
 "ad_process_id":352,
 "ad_role_id":50001,
 "created":"2011-09-01T10:52:49.642939",
 "createdby":0,
 "isactive":"Y",
 "isreadwrite":"Y",
 "updated":"2011-09-01T10:52:49.642939",
 "updatedby":0}, "children" : []},
 {"tablename" : "ad_process_access", "data" : {"ad_client_id":0,
 "ad_org_id":0,
 "ad_process_id":352,
 "ad_role_id":50002,
 "created":"2011-09-01T10:52:49.642939",
 "createdby":0,
 "isactive":"Y",
 "isreadwrite":"Y",
 "updated":"2011-09-01T10:52:49.642939",
 "updatedby":0}, "children" : []},
 {"tablename" : "ad_process_access", "data" : {"ad_client_id":0,
 "ad_org_id":0,
 "ad_process_id":50002,
 "ad_role_id":0,
 "created":"2024-06-03T10:55:36.337237",
 "createdby":0,
 "isactive":"Y",
 "isreadwrite":"Y",
 "updated":"2024-06-03T10:55:36.337237",
 "updatedby":0}, "children" : []},
 {"tablename" : "ad_process_access", "data" : {"ad_client_id":0,
 "ad_org_id":0,
 "ad_process_id":50002,
 "ad_role_id":50001,
 "created":"2011-09-01T10:52:49.642939",
 "createdby":0,
 "isactive":"Y",
 "isreadwrite":"Y",
 "updated":"2011-09-01T10:52:49.642939",
 "updatedby":0}, "children" : []},
 {"tablename" : "ad_process_access", "data" : {"ad_client_id":0,
 "ad_org_id":0,
 "ad_process_id":50002,
 "ad_role_id":50002,
 "created":"2011-09-01T10:52:49.642939",
 "createdby":0,
 "isactive":"Y",
 "isreadwrite":"Y",
 "updated":"2011-09-01T10:52:49.642939",
 "updatedby":0}, "children" : []},
 {"tablename" : "ad_process_access", "data" : {"ad_client_id":0,
 "ad_org_id":0,
 "ad_process_id":50004,
 "ad_role_id":0,
 "created":"2024-06-03T10:55:36.337237",
 "createdby":0,
 "isactive":"Y",
 "isreadwrite":"Y",
 "updated":"2024-06-03T10:55:36.337237",
 "updatedby":0}, "children" : []},
 {"tablename" : "ad_process_access", "data" : {"ad_client_id":0,
 "ad_org_id":0,
 "ad_process_id":50004,
 "ad_role_id":50001,
 "created":"2011-09-01T10:52:49.642939",
 "createdby":0,
 "isactive":"Y",
 "isreadwrite":"Y",
 "updated":"2011-09-01T10:52:49.642939",
 "updatedby":0}, "children" : []},
 {"tablename" : "ad_process_access", "data" : {"ad_client_id":0,
 "ad_org_id":0,
 "ad_process_id":50004,
 "ad_role_id":50002,
 "created":"2011-09-01T10:52:49.642939",
 "createdby":0,
 "isactive":"Y",
 "isreadwrite":"Y",
 "updated":"2011-09-01T10:52:49.642939",
 "updatedby":0}, "children" : []},
 {"tablename" : "ad_process_access", "data" : {"ad_client_id":0,
 "ad_org_id":0,
 "ad_process_id":50006,
 "ad_role_id":0,
 "created":"2024-06-03T10:55:36.337237",
 "createdby":0,
 "isactive":"Y",
 "isreadwrite":"Y",
 "updated":"2024-06-03T10:55:36.337237",
 "updatedby":0}, "children" : []},
 {"tablename" : "ad_process_access", "data" : {"ad_client_id":0,
 "ad_org_id":0,
 "ad_process_id":50006,
 "ad_role_id":50001,
 "created":"2011-09-01T10:52:49.642939",
 "createdby":0,
 "isactive":"Y",
 "isreadwrite":"Y",
 "updated":"2011-09-01T10:52:49.642939",
 "updatedby":0}, "children" : []},
 {"tablename" : "ad_process_access", "data" : {"ad_client_id":0,
 "ad_org_id":0,
 "ad_process_id":50006,
 "ad_role_id":50002,
 "created":"2011-09-01T10:52:49.642939",
 "createdby":0,
 "isactive":"Y",
 "isreadwrite":"Y",
 "updated":"2011-09-01T10:52:49.642939",
 "updatedby":0}, "children" : []},
 {"tablename" : "ad_process_access", "data" : {"ad_client_id":0,
 "ad_org_id":0,
 "ad_process_id":50008,
 "ad_role_id":0,
 "created":"2024-06-03T10:55:36.337237",
 "createdby":0,
 "isactive":"Y",
 "isreadwrite":"Y",
 "updated":"2024-06-03T10:55:36.337237",
 "updatedby":0}, "children" : []},
 {"tablename" : "ad_process_access", "data" : {"ad_client_id":0,
 "ad_org_id":0,
 "ad_process_id":50008,
 "ad_role_id":50001,
 "created":"2011-09-01T10:52:49.642939",
 "createdby":0,
 "isactive":"Y",
 "isreadwrite":"Y",
 "updated":"2011-09-01T10:52:49.642939",
 "updatedby":0}, "children" : []},
 {"tablename" : "ad_process_access", "data" : {"ad_client_id":0,
 "ad_org_id":0,
 "ad_process_id":50008,
 "ad_role_id":50002,
 "created":"2011-09-01T10:52:49.642939",
 "createdby":0,
 "isactive":"Y",
 "isreadwrite":"Y",
 "updated":"2011-09-01T10:52:49.642939",
 "updatedby":0}, "children" : []},
 {"tablename" : "ad_process_access", "data" : {"ad_client_id":0,
 "ad_org_id":0,
 "ad_process_id":50010,
 "ad_role_id":0,
 "created":"2024-06-03T10:55:36.337237",
 "createdby":0,
 "isactive":"Y",
 "isreadwrite":"Y",
 "updated":"2024-06-03T10:55:36.337237",
 "updatedby":0}, "children" : []},
 {"tablename" : "ad_process_access", "data" : {"ad_client_id":0,
 "ad_org_id":0,
 "ad_process_id":50010,
 "ad_role_id":50001,
 "created":"2011-09-01T10:52:49.642939",
 "createdby":0,
 "isactive":"Y",
 "isreadwrite":"Y",
 "updated":"2011-09-01T10:52:49.642939",
 "updatedby":0}, "children" : []},
 {"tablename" : "ad_process_access", "data" : {"ad_client_id":0,
 "ad_org_id":0,
 "ad_process_id":50010,
 "ad_role_id":50002,
 "created":"2011-09-01T10:52:49.642939",
 "createdby":0,
 "isactive":"Y",
 "isreadwrite":"Y",
 "updated":"2011-09-01T10:52:49.642939",
 "updatedby":0}, "children" : []},
 {"tablename" : "ad_process_access", "data" : {"ad_client_id":0,
 "ad_org_id":0,
 "ad_process_id":50011,
 "ad_role_id":0,
 "created":"2024-06-03T10:55:36.337237",
 "createdby":0,
 "isactive":"Y",
 "isreadwrite":"Y",
 "updated":"2024-06-03T10:55:36.337237",
 "updatedby":0}, "children" : []},
 {"tablename" : "ad_process_access", "data" : {"ad_client_id":0,
 "ad_org_id":0,
 "ad_process_id":50011,
 "ad_role_id":50001,
 "created":"2011-09-01T10:52:49.642939",
 "createdby":0,
 "isactive":"Y",
 "isreadwrite":"Y",
 "updated":"2011-09-01T10:52:49.642939",
 "updatedby":0}, "children" : []},
 {"tablename" : "ad_process_access", "data" : {"ad_client_id":0,
 "ad_org_id":0,
 "ad_process_id":50011,
 "ad_role_id":50002,
 "created":"2011-09-01T10:52:49.642939",
 "createdby":0,
 "isactive":"Y",
 "isreadwrite":"Y",
 "updated":"2011-09-01T10:52:49.642939",
 "updatedby":0}, "children" : []},
 {"tablename" : "ad_process_access", "data" : {"ad_client_id":0,
 "ad_org_id":0,
 "ad_process_id":53065,
 "ad_role_id":50001,
 "created":"2011-09-01T10:52:49.642939",
 "createdby":0,
 "isactive":"Y",
 "isreadwrite":"Y",
 "updated":"2011-09-01T10:52:49.642939",
 "updatedby":0}, "children" : []},
 {"tablename" : "ad_process_access", "data" : {"ad_client_id":0,
 "ad_org_id":0,
 "ad_process_id":53065,
 "ad_role_id":50002,
 "created":"2011-09-01T10:52:49.642939",
 "createdby":0,
 "isactive":"Y",
 "isreadwrite":"Y",
 "updated":"2011-09-01T10:52:49.642939",
 "updatedby":0}, "children" : []},
 {"tablename" : "ad_process_access", "data" : {"ad_client_id":0,
 "ad_org_id":0,
 "ad_process_id":53067,
 "ad_role_id":50001,
 "created":"2011-09-01T10:52:49.642939",
 "createdby":0,
 "isactive":"Y",
 "isreadwrite":"Y",
 "updated":"2011-09-01T10:52:49.642939",
 "updatedby":0}, "children" : []},
 {"tablename" : "ad_process_access", "data" : {"ad_client_id":0,
 "ad_org_id":0,
 "ad_process_id":53067,
 "ad_role_id":50002,
 "created":"2011-09-01T10:52:49.642939",
 "createdby":0,
 "isactive":"Y",
 "isreadwrite":"Y",
 "updated":"2011-09-01T10:52:49.642939",
 "updatedby":0}, "children" : []},
 {"tablename" : "ad_process_access", "data" : {"ad_client_id":0,
 "ad_org_id":0,
 "ad_process_id":53069,
 "ad_role_id":50001,
 "created":"2011-09-01T10:52:49.642939",
 "createdby":0,
 "isactive":"Y",
 "isreadwrite":"Y",
 "updated":"2011-09-01T10:52:49.642939",
 "updatedby":0}, "children" : []},
 {"tablename" : "ad_process_access", "data" : {"ad_client_id":0,
 "ad_org_id":0,
 "ad_process_id":53069,
 "ad_role_id":50002,
 "created":"2011-09-01T10:52:49.642939",
 "createdby":0,
 "isactive":"Y",
 "isreadwrite":"Y",
 "updated":"2011-09-01T10:52:49.642939",
 "updatedby":0}, "children" : []},
 {"tablename" : "ad_process_access", "data" : {"ad_client_id":0,
 "ad_org_id":0,
 "ad_process_id":53070,
 "ad_role_id":50001,
 "created":"2011-09-01T10:52:49.642939",
 "createdby":0,
 "isactive":"Y",
 "isreadwrite":"Y",
 "updated":"2011-09-01T10:52:49.642939",
 "updatedby":0}, "children" : []},
 {"tablename" : "ad_process_access", "data" : {"ad_client_id":0,
 "ad_org_id":0,
 "ad_process_id":53070,
 "ad_role_id":50002,
 "created":"2011-09-01T10:52:49.642939",
 "createdby":0,
 "isactive":"Y",
 "isreadwrite":"Y",
 "updated":"2011-09-01T10:52:49.642939",
 "updatedby":0}, "children" : []},
 {"tablename" : "ad_process_access", "data" : {"ad_client_id":0,
 "ad_org_id":0,
 "ad_process_id":53095,
 "ad_role_id":0,
 "created":"2024-06-03T10:55:36.337237",
 "createdby":0,
 "isactive":"Y",
 "isreadwrite":"Y",
 "updated":"2024-06-03T10:55:36.337237",
 "updatedby":0}, "children" : []},
 {"tablename" : "ad_process_access", "data" : {"ad_client_id":0,
 "ad_org_id":0,
 "ad_process_id":53095,
 "ad_role_id":50001,
 "created":"2011-09-01T10:52:49.642939",
 "createdby":0,
 "isactive":"Y",
 "isreadwrite":"Y",
 "updated":"2011-09-01T10:52:49.642939",
 "updatedby":0}, "children" : []},
 {"tablename" : "ad_process_access", "data" : {"ad_client_id":0,
 "ad_org_id":0,
 "ad_process_id":53095,
 "ad_role_id":50002,
 "created":"2011-09-01T10:52:49.642939",
 "createdby":0,
 "isactive":"Y",
 "isreadwrite":"Y",
 "updated":"2011-09-01T10:52:49.642939",
 "updatedby":0}, "children" : []},
 {"tablename" : "ad_process_access", "data" : {"ad_client_id":0,
 "ad_org_id":0,
 "ad_process_id":53097,
 "ad_role_id":0,
 "created":"2024-06-03T10:55:36.337237",
 "createdby":0,
 "isactive":"Y",
 "isreadwrite":"Y",
 "updated":"2024-06-03T10:55:36.337237",
 "updatedby":0}, "children" : []},
 {"tablename" : "ad_process_access", "data" : {"ad_client_id":0,
 "ad_org_id":0,
 "ad_process_id":53097,
 "ad_role_id":50001,
 "created":"2011-09-01T10:52:49.642939",
 "createdby":0,
 "isactive":"Y",
 "isreadwrite":"Y",
 "updated":"2011-09-01T10:52:49.642939",
 "updatedby":0}, "children" : []},
 {"tablename" : "ad_process_access", "data" : {"ad_client_id":0,
 "ad_org_id":0,
 "ad_process_id":53097,
 "ad_role_id":50002,
 "created":"2011-09-01T10:52:49.642939",
 "createdby":0,
 "isactive":"Y",
 "isreadwrite":"Y",
 "updated":"2011-09-01T10:52:49.642939",
 "updatedby":0}, "children" : []},
 {"tablename" : "ad_process_access", "data" : {"ad_client_id":0,
 "ad_org_id":0,
 "ad_process_id":53099,
 "ad_role_id":0,
 "created":"2024-06-03T10:55:36.337237",
 "createdby":0,
 "isactive":"Y",
 "isreadwrite":"Y",
 "updated":"2024-06-03T10:55:36.337237",
 "updatedby":0}, "children" : []},
 {"tablename" : "ad_process_access", "data" : {"ad_client_id":0,
 "ad_org_id":0,
 "ad_process_id":53099,
 "ad_role_id":50001,
 "created":"2011-09-01T10:52:49.642939",
 "createdby":0,
 "isactive":"Y",
 "isreadwrite":"Y",
 "updated":"2011-09-01T10:52:49.642939",
 "updatedby":0}, "children" : []},
 {"tablename" : "ad_process_access", "data" : {"ad_client_id":0,
 "ad_org_id":0,
 "ad_process_id":53099,
 "ad_role_id":50002,
 "created":"2011-09-01T10:52:49.642939",
 "createdby":0,
 "isactive":"Y",
 "isreadwrite":"Y",
 "updated":"2011-09-01T10:52:49.642939",
 "updatedby":0}, "children" : []},
 {"tablename" : "ad_process_access", "data" : {"ad_client_id":0,
 "ad_org_id":0,
 "ad_process_id":53101,
 "ad_role_id":0,
 "created":"2024-06-03T10:55:36.337237",
 "createdby":0,
 "isactive":"Y",
 "isreadwrite":"Y",
 "updated":"2024-06-03T10:55:36.337237",
 "updatedby":0}, "children" : []},
 {"tablename" : "ad_process_access", "data" : {"ad_client_id":0,
 "ad_org_id":0,
 "ad_process_id":53101,
 "ad_role_id":50001,
 "created":"2011-09-01T10:52:49.642939",
 "createdby":0,
 "isactive":"Y",
 "isreadwrite":"Y",
 "updated":"2011-09-01T10:52:49.642939",
 "updatedby":0}, "children" : []},
 {"tablename" : "ad_process_access", "data" : {"ad_client_id":0,
 "ad_org_id":0,
 "ad_process_id":53101,
 "ad_role_id":50002,
 "created":"2011-09-01T10:52:49.642939",
 "createdby":0,
 "isactive":"Y",
 "isreadwrite":"Y",
 "updated":"2011-09-01T10:52:49.642939",
 "updatedby":0}, "children" : []},
 {"tablename" : "ad_process_access", "data" : {"ad_client_id":0,
 "ad_org_id":0,
 "ad_process_id":53103,
 "ad_role_id":0,
 "created":"2024-06-03T10:55:36.337237",
 "createdby":0,
 "isactive":"Y",
 "isreadwrite":"Y",
 "updated":"2024-06-03T10:55:36.337237",
 "updatedby":0}, "children" : []},
 {"tablename" : "ad_process_access", "data" : {"ad_client_id":0,
 "ad_org_id":0,
 "ad_process_id":53103,
 "ad_role_id":50001,
 "created":"2011-09-01T10:52:49.642939",
 "createdby":0,
 "isactive":"Y",
 "isreadwrite":"Y",
 "updated":"2011-09-01T10:52:49.642939",
 "updatedby":0}, "children" : []},
 {"tablename" : "ad_process_access", "data" : {"ad_client_id":0,
 "ad_org_id":0,
 "ad_process_id":53103,
 "ad_role_id":50002,
 "created":"2011-09-01T10:52:49.642939",
 "createdby":0,
 "isactive":"Y",
 "isreadwrite":"Y",
 "updated":"2011-09-01T10:52:49.642939",
 "updatedby":0}, "children" : []},
 {"tablename" : "ad_process_access", "data" : {"ad_client_id":0,
 "ad_org_id":0,
 "ad_process_id":53105,
 "ad_role_id":0,
 "created":"2024-06-03T10:55:36.337237",
 "createdby":0,
 "isactive":"Y",
 "isreadwrite":"Y",
 "updated":"2024-06-03T10:55:36.337237",
 "updatedby":0}, "children" : []},
 {"tablename" : "ad_process_access", "data" : {"ad_client_id":0,
 "ad_org_id":0,
 "ad_process_id":53105,
 "ad_role_id":50001,
 "created":"2011-09-01T10:52:49.642939",
 "createdby":0,
 "isactive":"Y",
 "isreadwrite":"Y",
 "updated":"2011-09-01T10:52:49.642939",
 "updatedby":0}, "children" : []},
 {"tablename" : "ad_process_access", "data" : {"ad_client_id":0,
 "ad_org_id":0,
 "ad_process_id":53105,
 "ad_role_id":50002,
 "created":"2011-09-01T10:52:49.642939",
 "createdby":0,
 "isactive":"Y",
 "isreadwrite":"Y",
 "updated":"2011-09-01T10:52:49.642939",
 "updatedby":0}, "children" : []},
 {"tablename" : "ad_process_access", "data" : {"ad_client_id":0,
 "ad_org_id":0,
 "ad_process_id":53107,
 "ad_role_id":0,
 "created":"2024-06-03T10:55:36.337237",
 "createdby":0,
 "isactive":"Y",
 "isreadwrite":"Y",
 "updated":"2024-06-03T10:55:36.337237",
 "updatedby":0}, "children" : []},
 {"tablename" : "ad_process_access", "data" : {"ad_client_id":0,
 "ad_org_id":0,
 "ad_process_id":53107,
 "ad_role_id":50001,
 "created":"2011-09-01T10:52:49.642939",
 "createdby":0,
 "isactive":"Y",
 "isreadwrite":"Y",
 "updated":"2011-09-01T10:52:49.642939",
 "updatedby":0}, "children" : []},
 {"tablename" : "ad_process_access", "data" : {"ad_client_id":0,
 "ad_org_id":0,
 "ad_process_id":53107,
 "ad_role_id":50002,
 "created":"2011-09-01T10:52:49.642939",
 "createdby":0,
 "isactive":"Y",
 "isreadwrite":"Y",
 "updated":"2011-09-01T10:52:49.642939",
 "updatedby":0}, "children" : []},
 {"tablename" : "ad_process_access", "data" : {"ad_client_id":0,
 "ad_org_id":0,
 "ad_process_id":53109,
 "ad_role_id":0,
 "created":"2024-06-03T10:55:36.337237",
 "createdby":0,
 "isactive":"Y",
 "isreadwrite":"Y",
 "updated":"2024-06-03T10:55:36.337237",
 "updatedby":0}, "children" : []},
 {"tablename" : "ad_process_access", "data" : {"ad_client_id":0,
 "ad_org_id":0,
 "ad_process_id":53109,
 "ad_role_id":50001,
 "created":"2011-09-01T10:52:49.642939",
 "createdby":0,
 "isactive":"Y",
 "isreadwrite":"Y",
 "updated":"2011-09-01T10:52:49.642939",
 "updatedby":0}, "children" : []},
 {"tablename" : "ad_process_access", "data" : {"ad_client_id":0,
 "ad_org_id":0,
 "ad_process_id":53109,
 "ad_role_id":50002,
 "created":"2011-09-01T10:52:49.642939",
 "createdby":0,
 "isactive":"Y",
 "isreadwrite":"Y",
 "updated":"2011-09-01T10:52:49.642939",
 "updatedby":0}, "children" : []},
 {"tablename" : "ad_process_access", "data" : {"ad_client_id":0,
 "ad_org_id":0,
 "ad_process_id":53113,
 "ad_role_id":0,
 "created":"2024-06-03T10:55:36.337237",
 "createdby":0,
 "isactive":"Y",
 "isreadwrite":"Y",
 "updated":"2024-06-03T10:55:36.337237",
 "updatedby":0}, "children" : []},
 {"tablename" : "ad_process_access", "data" : {"ad_client_id":0,
 "ad_org_id":0,
 "ad_process_id":53113,
 "ad_role_id":50001,
 "created":"2011-09-01T10:52:49.642939",
 "createdby":0,
 "isactive":"Y",
 "isreadwrite":"Y",
 "updated":"2011-09-01T10:52:49.642939",
 "updatedby":0}, "children" : []},
 {"tablename" : "ad_process_access", "data" : {"ad_client_id":0,
 "ad_org_id":0,
 "ad_process_id":53113,
 "ad_role_id":50002,
 "created":"2011-09-01T10:52:49.642939",
 "createdby":0,
 "isactive":"Y",
 "isreadwrite":"Y",
 "updated":"2011-09-01T10:52:49.642939",
 "updatedby":0}, "children" : []},
 {"tablename" : "ad_process_access", "data" : {"ad_client_id":0,
 "ad_org_id":0,
 "ad_process_id":53115,
 "ad_role_id":0,
 "created":"2024-06-03T10:55:36.337237",
 "createdby":0,
 "isactive":"Y",
 "isreadwrite":"Y",
 "updated":"2024-06-03T10:55:36.337237",
 "updatedby":0}, "children" : []},
 {"tablename" : "ad_process_access", "data" : {"ad_client_id":0,
 "ad_org_id":0,
 "ad_process_id":53115,
 "ad_role_id":50001,
 "created":"2011-09-01T10:52:49.642939",
 "createdby":0,
 "isactive":"Y",
 "isreadwrite":"Y",
 "updated":"2011-09-01T10:52:49.642939",
 "updatedby":0}, "children" : []},
 {"tablename" : "ad_process_access", "data" : {"ad_client_id":0,
 "ad_org_id":0,
 "ad_process_id":53115,
 "ad_role_id":50002,
 "created":"2011-09-01T10:52:49.642939",
 "createdby":0,
 "isactive":"Y",
 "isreadwrite":"Y",
 "updated":"2011-09-01T10:52:49.642939",
 "updatedby":0}, "children" : []},
 {"tablename" : "ad_process_access", "data" : {"ad_client_id":0,
 "ad_org_id":0,
 "ad_process_id":53117,
 "ad_role_id":0,
 "created":"2024-06-03T10:55:36.337237",
 "createdby":0,
 "isactive":"Y",
 "isreadwrite":"Y",
 "updated":"2024-06-03T10:55:36.337237",
 "updatedby":0}, "children" : []},
 {"tablename" : "ad_process_access", "data" : {"ad_client_id":0,
 "ad_org_id":0,
 "ad_process_id":53117,
 "ad_role_id":50001,
 "created":"2011-09-01T10:52:49.642939",
 "createdby":0,
 "isactive":"Y",
 "isreadwrite":"Y",
 "updated":"2011-09-01T10:52:49.642939",
 "updatedby":0}, "children" : []},
 {"tablename" : "ad_process_access", "data" : {"ad_client_id":0,
 "ad_org_id":0,
 "ad_process_id":53117,
 "ad_role_id":50002,
 "created":"2011-09-01T10:52:49.642939",
 "createdby":0,
 "isactive":"Y",
 "isreadwrite":"Y",
 "updated":"2011-09-01T10:52:49.642939",
 "updatedby":0}, "children" : []},
 {"tablename" : "ad_process_access", "data" : {"ad_client_id":0,
 "ad_org_id":0,
 "ad_process_id":53119,
 "ad_role_id":0,
 "created":"2024-06-03T10:55:36.337237",
 "createdby":0,
 "isactive":"Y",
 "isreadwrite":"Y",
 "updated":"2024-06-03T10:55:36.337237",
 "updatedby":0}, "children" : []},
 {"tablename" : "ad_process_access", "data" : {"ad_client_id":0,
 "ad_org_id":0,
 "ad_process_id":53119,
 "ad_role_id":50001,
 "created":"2011-09-01T10:52:49.642939",
 "createdby":0,
 "isactive":"Y",
 "isreadwrite":"Y",
 "updated":"2011-09-01T10:52:49.642939",
 "updatedby":0}, "children" : []},
 {"tablename" : "ad_process_access", "data" : {"ad_client_id":0,
 "ad_org_id":0,
 "ad_process_id":53119,
 "ad_role_id":50002,
 "created":"2011-09-01T10:52:49.642939",
 "createdby":0,
 "isactive":"Y",
 "isreadwrite":"Y",
 "updated":"2011-09-01T10:52:49.642939",
 "updatedby":0}, "children" : []},
 {"tablename" : "ad_process_access", "data" : {"ad_client_id":0,
 "ad_org_id":0,
 "ad_process_id":53121,
 "ad_role_id":0,
 "created":"2024-06-03T10:55:36.337237",
 "createdby":0,
 "isactive":"Y",
 "isreadwrite":"Y",
 "updated":"2024-06-03T10:55:36.337237",
 "updatedby":0}, "children" : []},
 {"tablename" : "ad_process_access", "data" : {"ad_client_id":0,
 "ad_org_id":0,
 "ad_process_id":53121,
 "ad_role_id":50001,
 "created":"2011-09-01T10:52:49.642939",
 "createdby":0,
 "isactive":"Y",
 "isreadwrite":"Y",
 "updated":"2011-09-01T10:52:49.642939",
 "updatedby":0}, "children" : []},
 {"tablename" : "ad_process_access", "data" : {"ad_client_id":0,
 "ad_org_id":0,
 "ad_process_id":53121,
 "ad_role_id":50002,
 "created":"2011-09-01T10:52:49.642939",
 "createdby":0,
 "isactive":"Y",
 "isreadwrite":"Y",
 "updated":"2011-09-01T10:52:49.642939",
 "updatedby":0}, "children" : []},
 {"tablename" : "ad_process_access", "data" : {"ad_client_id":0,
 "ad_org_id":0,
 "ad_process_id":53125,
 "ad_role_id":0,
 "created":"2024-06-03T10:55:36.337237",
 "createdby":0,
 "isactive":"Y",
 "isreadwrite":"Y",
 "updated":"2024-06-03T10:55:36.337237",
 "updatedby":0}, "children" : []},
 {"tablename" : "ad_process_access", "data" : {"ad_client_id":0,
 "ad_org_id":0,
 "ad_process_id":53125,
 "ad_role_id":50001,
 "created":"2011-09-01T10:52:49.642939",
 "createdby":0,
 "isactive":"Y",
 "isreadwrite":"Y",
 "updated":"2011-09-01T10:52:49.642939",
 "updatedby":0}, "children" : []},
 {"tablename" : "ad_process_access", "data" : {"ad_client_id":0,
 "ad_org_id":0,
 "ad_process_id":53125,
 "ad_role_id":50002,
 "created":"2011-09-01T10:52:49.642939",
 "createdby":0,
 "isactive":"Y",
 "isreadwrite":"Y",
 "updated":"2011-09-01T10:52:49.642939",
 "updatedby":0}, "children" : []},
 {"tablename" : "ad_process_access", "data" : {"ad_client_id":0,
 "ad_org_id":0,
 "ad_process_id":53127,
 "ad_role_id":0,
 "created":"2024-06-03T10:55:36.337237",
 "createdby":0,
 "isactive":"Y",
 "isreadwrite":"Y",
 "updated":"2024-06-03T10:55:36.337237",
 "updatedby":0}, "children" : []},
 {"tablename" : "ad_process_access", "data" : {"ad_client_id":0,
 "ad_org_id":0,
 "ad_process_id":53127,
 "ad_role_id":50001,
 "created":"2011-09-01T10:52:49.642939",
 "createdby":0,
 "isactive":"Y",
 "isreadwrite":"Y",
 "updated":"2011-09-01T10:52:49.642939",
 "updatedby":0}, "children" : []},
 {"tablename" : "ad_process_access", "data" : {"ad_client_id":0,
 "ad_org_id":0,
 "ad_process_id":53127,
 "ad_role_id":50002,
 "created":"2011-09-01T10:52:49.642939",
 "createdby":0,
 "isactive":"Y",
 "isreadwrite":"Y",
 "updated":"2011-09-01T10:52:49.642939",
 "updatedby":0}, "children" : []},
 {"tablename" : "ad_process_access", "data" : {"ad_client_id":0,
 "ad_org_id":0,
 "ad_process_id":53129,
 "ad_role_id":0,
 "created":"2024-06-03T10:55:36.337237",
 "createdby":0,
 "isactive":"Y",
 "isreadwrite":"Y",
 "updated":"2024-06-03T10:55:36.337237",
 "updatedby":0}, "children" : []},
 {"tablename" : "ad_process_access", "data" : {"ad_client_id":0,
 "ad_org_id":0,
 "ad_process_id":53129,
 "ad_role_id":50001,
 "created":"2011-09-01T10:52:49.642939",
 "createdby":0,
 "isactive":"Y",
 "isreadwrite":"Y",
 "updated":"2011-09-01T10:52:49.642939",
 "updatedby":0}, "children" : []},
 {"tablename" : "ad_process_access", "data" : {"ad_client_id":0,
 "ad_org_id":0,
 "ad_process_id":53129,
 "ad_role_id":50002,
 "created":"2011-09-01T10:52:49.642939",
 "createdby":0,
 "isactive":"Y",
 "isreadwrite":"Y",
 "updated":"2011-09-01T10:52:49.642939",
 "updatedby":0}, "children" : []},
 {"tablename" : "ad_process_access", "data" : {"ad_client_id":0,
 "ad_org_id":0,
 "ad_process_id":53131,
 "ad_role_id":0,
 "created":"2024-06-03T10:55:36.337237",
 "createdby":0,
 "isactive":"Y",
 "isreadwrite":"Y",
 "updated":"2024-06-03T10:55:36.337237",
 "updatedby":0}, "children" : []},
 {"tablename" : "ad_process_access", "data" : {"ad_client_id":0,
 "ad_org_id":0,
 "ad_process_id":53131,
 "ad_role_id":50001,
 "created":"2011-09-01T10:52:49.642939",
 "createdby":0,
 "isactive":"Y",
 "isreadwrite":"Y",
 "updated":"2011-09-01T10:52:49.642939",
 "updatedby":0}, "children" : []},
 {"tablename" : "ad_process_access", "data" : {"ad_client_id":0,
 "ad_org_id":0,
 "ad_process_id":53131,
 "ad_role_id":50002,
 "created":"2011-09-01T10:52:49.642939",
 "createdby":0,
 "isactive":"Y",
 "isreadwrite":"Y",
 "updated":"2011-09-01T10:52:49.642939",
 "updatedby":0}, "children" : []},
 {"tablename" : "ad_process_access", "data" : {"ad_client_id":0,
 "ad_org_id":0,
 "ad_process_id":53135,
 "ad_role_id":0,
 "created":"2024-06-03T10:55:36.337237",
 "createdby":0,
 "isactive":"Y",
 "isreadwrite":"Y",
 "updated":"2024-06-03T10:55:36.337237",
 "updatedby":0}, "children" : []},
 {"tablename" : "ad_process_access", "data" : {"ad_client_id":0,
 "ad_org_id":0,
 "ad_process_id":53135,
 "ad_role_id":50001,
 "created":"2011-09-01T10:52:49.642939",
 "createdby":0,
 "isactive":"Y",
 "isreadwrite":"Y",
 "updated":"2011-09-01T10:52:49.642939",
 "updatedby":0}, "children" : []},
 {"tablename" : "ad_process_access", "data" : {"ad_client_id":0,
 "ad_org_id":0,
 "ad_process_id":53135,
 "ad_role_id":50002,
 "created":"2011-09-01T10:52:49.642939",
 "createdby":0,
 "isactive":"Y",
 "isreadwrite":"Y",
 "updated":"2011-09-01T10:52:49.642939",
 "updatedby":0}, "children" : []},
 {"tablename" : "ad_process_access", "data" : {"ad_client_id":0,
 "ad_org_id":0,
 "ad_process_id":53154,
 "ad_role_id":0,
 "created":"2024-06-03T10:55:36.337237",
 "createdby":0,
 "isactive":"Y",
 "isreadwrite":"Y",
 "updated":"2024-06-03T10:55:36.337237",
 "updatedby":0}, "children" : []},
 {"tablename" : "ad_process_access", "data" : {"ad_client_id":0,
 "ad_org_id":0,
 "ad_process_id":53154,
 "ad_role_id":50001,
 "created":"2011-09-01T10:52:49.642939",
 "createdby":0,
 "isactive":"Y",
 "isreadwrite":"Y",
 "updated":"2011-09-01T10:52:49.642939",
 "updatedby":0}, "children" : []},
 {"tablename" : "ad_process_access", "data" : {"ad_client_id":0,
 "ad_org_id":0,
 "ad_process_id":53154,
 "ad_role_id":50002,
 "created":"2011-09-01T10:52:49.642939",
 "createdby":0,
 "isactive":"Y",
 "isreadwrite":"Y",
 "updated":"2011-09-01T10:52:49.642939",
 "updatedby":0}, "children" : []},
 {"tablename" : "ad_process_access", "data" : {"ad_client_id":0,
 "ad_org_id":0,
 "ad_process_id":53155,
 "ad_role_id":0,
 "created":"2024-06-03T10:55:36.337237",
 "createdby":0,
 "isactive":"Y",
 "isreadwrite":"Y",
 "updated":"2024-06-03T10:55:36.337237",
 "updatedby":0}, "children" : []},
 {"tablename" : "ad_process_access", "data" : {"ad_client_id":0,
 "ad_org_id":0,
 "ad_process_id":53155,
 "ad_role_id":50001,
 "created":"2011-09-01T10:52:49.642939",
 "createdby":0,
 "isactive":"Y",
 "isreadwrite":"Y",
 "updated":"2011-09-01T10:52:49.642939",
 "updatedby":0}, "children" : []},
 {"tablename" : "ad_process_access", "data" : {"ad_client_id":0,
 "ad_org_id":0,
 "ad_process_id":53155,
 "ad_role_id":50002,
 "created":"2011-09-01T10:52:49.642939",
 "createdby":0,
 "isactive":"Y",
 "isreadwrite":"Y",
 "updated":"2011-09-01T10:52:49.642939",
 "updatedby":0}, "children" : []},
 {"tablename" : "ad_process_access", "data" : {"ad_client_id":0,
 "ad_org_id":0,
 "ad_process_id":53156,
 "ad_role_id":0,
 "created":"2024-06-03T10:55:36.337237",
 "createdby":0,
 "isactive":"Y",
 "isreadwrite":"Y",
 "updated":"2024-06-03T10:55:36.337237",
 "updatedby":0}, "children" : []},
 {"tablename" : "ad_process_access", "data" : {"ad_client_id":0,
 "ad_org_id":0,
 "ad_process_id":53156,
 "ad_role_id":50001,
 "created":"2011-09-01T10:52:49.642939",
 "createdby":0,
 "isactive":"Y",
 "isreadwrite":"Y",
 "updated":"2011-09-01T10:52:49.642939",
 "updatedby":0}, "children" : []},
 {"tablename" : "ad_process_access", "data" : {"ad_client_id":0,
 "ad_org_id":0,
 "ad_process_id":53156,
 "ad_role_id":50002,
 "created":"2011-09-01T10:52:49.642939",
 "createdby":0,
 "isactive":"Y",
 "isreadwrite":"Y",
 "updated":"2011-09-01T10:52:49.642939",
 "updatedby":0}, "children" : []},
 {"tablename" : "ad_process_access", "data" : {"ad_client_id":0,
 "ad_org_id":0,
 "ad_process_id":53161,
 "ad_role_id":0,
 "created":"2024-06-03T10:55:36.337237",
 "createdby":0,
 "isactive":"Y",
 "isreadwrite":"Y",
 "updated":"2024-06-03T10:55:36.337237",
 "updatedby":0}, "children" : []},
 {"tablename" : "ad_process_access", "data" : {"ad_client_id":0,
 "ad_org_id":0,
 "ad_process_id":53161,
 "ad_role_id":50001,
 "created":"2011-09-01T10:52:49.642939",
 "createdby":0,
 "isactive":"Y",
 "isreadwrite":"Y",
 "updated":"2011-09-01T10:52:49.642939",
 "updatedby":0}, "children" : []},
 {"tablename" : "ad_process_access", "data" : {"ad_client_id":0,
 "ad_org_id":0,
 "ad_process_id":53161,
 "ad_role_id":50002,
 "created":"2011-09-01T10:52:49.642939",
 "createdby":0,
 "isactive":"Y",
 "isreadwrite":"Y",
 "updated":"2011-09-01T10:52:49.642939",
 "updatedby":0}, "children" : []},
 {"tablename" : "ad_process_access", "data" : {"ad_client_id":0,
 "ad_org_id":0,
 "ad_process_id":53172,
 "ad_role_id":50001,
 "created":"2011-09-01T10:52:49.642939",
 "createdby":0,
 "isactive":"Y",
 "isreadwrite":"Y",
 "updated":"2011-09-01T10:52:49.642939",
 "updatedby":0}, "children" : []},
 {"tablename" : "ad_process_access", "data" : {"ad_client_id":0,
 "ad_org_id":0,
 "ad_process_id":53172,
 "ad_role_id":50002,
 "created":"2011-09-01T10:52:49.642939",
 "createdby":0,
 "isactive":"Y",
 "isreadwrite":"Y",
 "updated":"2011-09-01T10:52:49.642939",
 "updatedby":0}, "children" : []},
 {"tablename" : "ad_process_access", "data" : {"ad_client_id":0,
 "ad_org_id":0,
 "ad_process_id":53173,
 "ad_role_id":50001,
 "created":"2011-09-01T10:52:49.642939",
 "createdby":0,
 "isactive":"Y",
 "isreadwrite":"Y",
 "updated":"2011-09-01T10:52:49.642939",
 "updatedby":0}, "children" : []},
 {"tablename" : "ad_process_access", "data" : {"ad_client_id":0,
 "ad_org_id":0,
 "ad_process_id":53173,
 "ad_role_id":50002,
 "created":"2011-09-01T10:52:49.642939",
 "createdby":0,
 "isactive":"Y",
 "isreadwrite":"Y",
 "updated":"2011-09-01T10:52:49.642939",
 "updatedby":0}, "children" : []},
 {"tablename" : "ad_process_access", "data" : {"ad_client_id":0,
 "ad_org_id":0,
 "ad_process_id":53174,
 "ad_role_id":50001,
 "created":"2011-09-01T10:52:49.642939",
 "createdby":0,
 "isactive":"Y",
 "isreadwrite":"Y",
 "updated":"2011-09-01T10:52:49.642939",
 "updatedby":0}, "children" : []},
 {"tablename" : "ad_process_access", "data" : {"ad_client_id":0,
 "ad_org_id":0,
 "ad_process_id":53174,
 "ad_role_id":50002,
 "created":"2011-09-01T10:52:49.642939",
 "createdby":0,
 "isactive":"Y",
 "isreadwrite":"Y",
 "updated":"2011-09-01T10:52:49.642939",
 "updatedby":0}, "children" : []},
 {"tablename" : "ad_process_access", "data" : {"ad_client_id":0,
 "ad_org_id":0,
 "ad_process_id":53175,
 "ad_role_id":50001,
 "created":"2011-09-01T10:52:49.642939",
 "createdby":0,
 "isactive":"Y",
 "isreadwrite":"Y",
 "updated":"2011-09-01T10:52:49.642939",
 "updatedby":0}, "children" : []},
 {"tablename" : "ad_process_access", "data" : {"ad_client_id":0,
 "ad_org_id":0,
 "ad_process_id":53175,
 "ad_role_id":50002,
 "created":"2011-09-01T10:52:49.642939",
 "createdby":0,
 "isactive":"Y",
 "isreadwrite":"Y",
 "updated":"2011-09-01T10:52:49.642939",
 "updatedby":0}, "children" : []},
 {"tablename" : "ad_process_access", "data" : {"ad_client_id":0,
 "ad_org_id":0,
 "ad_process_id":53179,
 "ad_role_id":0,
 "created":"2024-06-03T10:55:36.337237",
 "createdby":0,
 "isactive":"Y",
 "isreadwrite":"Y",
 "updated":"2024-06-03T10:55:36.337237",
 "updatedby":0}, "children" : []},
 {"tablename" : "ad_process_access", "data" : {"ad_client_id":0,
 "ad_org_id":0,
 "ad_process_id":53179,
 "ad_role_id":50001,
 "created":"2011-09-01T10:52:49.642939",
 "createdby":0,
 "isactive":"Y",
 "isreadwrite":"Y",
 "updated":"2011-09-01T10:52:49.642939",
 "updatedby":0}, "children" : []},
 {"tablename" : "ad_process_access", "data" : {"ad_client_id":0,
 "ad_org_id":0,
 "ad_process_id":53179,
 "ad_role_id":50002,
 "created":"2011-09-01T10:52:49.642939",
 "createdby":0,
 "isactive":"Y",
 "isreadwrite":"Y",
 "updated":"2011-09-01T10:52:49.642939",
 "updatedby":0}, "children" : []},
 {"tablename" : "ad_process_access", "data" : {"ad_client_id":0,
 "ad_org_id":0,
 "ad_process_id":53259,
 "ad_role_id":0,
 "created":"2024-06-03T10:55:36.337237",
 "createdby":0,
 "isactive":"Y",
 "isreadwrite":"Y",
 "updated":"2024-06-03T10:55:36.337237",
 "updatedby":0}, "children" : []},
 {"tablename" : "ad_process_access", "data" : {"ad_client_id":0,
 "ad_org_id":0,
 "ad_process_id":53259,
 "ad_role_id":50001,
 "created":"2011-09-01T10:52:49.642939",
 "createdby":0,
 "isactive":"Y",
 "isreadwrite":"Y",
 "updated":"2011-09-01T10:52:49.642939",
 "updatedby":0}, "children" : []},
 {"tablename" : "ad_process_access", "data" : {"ad_client_id":0,
 "ad_org_id":0,
 "ad_process_id":53259,
 "ad_role_id":50002,
 "created":"2011-09-01T10:52:49.642939",
 "createdby":0,
 "isactive":"Y",
 "isreadwrite":"Y",
 "updated":"2011-09-01T10:52:49.642939",
 "updatedby":0}, "children" : []},
 {"tablename" : "ad_process_access", "data" : {"ad_client_id":0,
 "ad_org_id":0,
 "ad_process_id":53288,
 "ad_role_id":0,
 "created":"2024-06-03T10:55:36.337237",
 "createdby":0,
 "isactive":"Y",
 "isreadwrite":"Y",
 "updated":"2024-06-03T10:55:36.337237",
 "updatedby":0}, "children" : []},
 {"tablename" : "ad_process_access", "data" : {"ad_client_id":0,
 "ad_org_id":0,
 "ad_process_id":53304,
 "ad_role_id":0,
 "created":"2024-06-03T10:55:36.337237",
 "createdby":0,
 "isactive":"Y",
 "isreadwrite":"Y",
 "updated":"2024-06-03T10:55:36.337237",
 "updatedby":0}, "children" : []},
 {"tablename" : "ad_process_access", "data" : {"ad_client_id":0,
 "ad_org_id":0,
 "ad_process_id":53315,
 "ad_role_id":0,
 "created":"2024-06-03T10:55:36.337237",
 "createdby":0,
 "isactive":"Y",
 "isreadwrite":"Y",
 "updated":"2024-06-03T10:55:36.337237",
 "updatedby":0}, "children" : []},
 {"tablename" : "ad_process_access", "data" : {"ad_client_id":0,
 "ad_org_id":0,
 "ad_process_id":53870,
 "ad_role_id":0,
 "created":"2024-06-03T10:55:36.337237",
 "createdby":0,
 "isactive":"Y",
 "isreadwrite":"Y",
 "updated":"2024-06-03T10:55:36.337237",
 "updatedby":0}, "children" : []},
 {"tablename" : "ad_process_access", "data" : {"ad_client_id":0,
 "ad_org_id":0,
 "ad_process_id":53902,
 "ad_role_id":0,
 "created":"2024-06-03T10:55:36.337237",
 "createdby":0,
 "isactive":"Y",
 "isreadwrite":"Y",
 "updated":"2024-06-03T10:55:36.337237",
 "updatedby":0}, "children" : []},
 {"tablename" : "ad_process_access", "data" : {"ad_client_id":0,
 "ad_org_id":0,
 "ad_process_id":53903,
 "ad_role_id":0,
 "created":"2024-06-03T10:55:36.337237",
 "createdby":0,
 "isactive":"Y",
 "isreadwrite":"Y",
 "updated":"2024-06-03T10:55:36.337237",
 "updatedby":0}, "children" : []},
 {"tablename" : "ad_process_access", "data" : {"ad_client_id":0,
 "ad_org_id":0,
 "ad_process_id":53937,
 "ad_role_id":0,
 "created":"2024-06-03T10:55:36.337237",
 "createdby":0,
 "isactive":"Y",
 "isreadwrite":"Y",
 "updated":"2024-06-03T10:55:36.337237",
 "updatedby":0}, "children" : []},
 {"tablename" : "ad_process_access", "data" : {"ad_client_id":0,
 "ad_org_id":0,
 "ad_process_id":100093,
 "ad_role_id":0,
 "created":"2024-06-03T10:55:36.337237",
 "createdby":0,
 "isactive":"Y",
 "isreadwrite":"Y",
 "updated":"2024-06-03T10:55:36.337237",
 "updatedby":0}, "children" : []},
 {"tablename" : "ad_process_access", "data" : {"ad_client_id":0,
 "ad_org_id":0,
 "ad_process_id":400001,
 "ad_role_id":0,
 "created":"2024-06-03T10:55:36.337237",
 "createdby":0,
 "isactive":"Y",
 "isreadwrite":"Y",
 "updated":"2024-06-03T10:55:36.337237",
 "updatedby":0}, "children" : []}]