[{"tablename" : "ad_system", "data" : {"ad_system_id":0,
 "name":"?",
 "ad_client_id":0,
 "ad_org_id":0,
 "created":"2006-08-10T20:22:41",
 "createdby":100,
 "customprefix":null,
 "dbaddress":"jdbc:postgresql://postgres:5432/ampere?encoding=unicode",
 "dbinstance":null,
 "description":null,
 "encryptionkey":null,
 "idrangeend":null,
 "idrangestart":null,
 "info":"?",
 "isactive":"Y",
 "isallowstatistics":"Y",
 "isautoerrorreport":"Y",
 "isfailonbuilddiffer":"N",
 "isfailonmissingmodelvalidator":"N",
 "isjustmigrated":"N",
 "lastbuildinfo":"ADempiere",
 "lastmigrationscriptapplied":"823_IDEMPIERE-178.sql",
 "noprocessors":12,
 "oldname":null,
 "password":"?",
 "processing":null,
 "profileinfo":"AAT Coach |GardenWorld|SYSTEM|",
 "record_id":null,
 "releaseno":"Adaxa1.7.0",
 "replicationtype":"L",
 "statisticsinfo":"C3U908B834P2832I202L217M29",
 "summary":null,
 "supportemail":null,
 "supportexpdate":null,
 "supportunits":15,
 "systemstatus":"E",
 "updated":"2024-06-21T09:18:12",
 "updatedby":0,
 "username":"?",
 "version":"2017-10-31"}, "children" : []}]