[{"tablename" : "ad_tree_favorite_node", "data" : {"ad_tree_favorite_node_id":1000000,
 "ad_client_id":0,
 "ad_menu_id":null,
 "ad_org_id":0,
 "ad_tree_favorite_id":1000000,
 "created":"2023-06-01T15:27:19",
 "createdby":100,
 "isactive":"Y",
 "iscollapsible":"N",
 "issummary":"Y",
 "nodename":"Most used AD",
 "parent_id":null,
 "seqno":0,
 "updated":"2023-06-01T15:27:19",
 "updatedby":100}, "children" : []},
 {"tablename" : "ad_tree_favorite_node", "data" : {"ad_tree_favorite_node_id":1000001,
 "ad_client_id":0,
 "ad_menu_id":138,
 "ad_org_id":0,
 "ad_tree_favorite_id":1000000,
 "created":"2023-06-01T15:27:49",
 "createdby":100,
 "isactive":"Y",
 "iscollapsible":"N",
 "issummary":"N",
 "nodename":null,
 "parent_id":1000000,
 "seqno":0,
 "updated":"2023-06-01T15:27:49",
 "updatedby":100}, "children" : []},
 {"tablename" : "ad_tree_favorite_node", "data" : {"ad_tree_favorite_node_id":1000002,
 "ad_client_id":0,
 "ad_menu_id":141,
 "ad_org_id":0,
 "ad_tree_favorite_id":1000000,
 "created":"2023-06-01T15:27:53",
 "createdby":100,
 "isactive":"Y",
 "iscollapsible":"N",
 "issummary":"N",
 "nodename":null,
 "parent_id":1000000,
 "seqno":0,
 "updated":"2023-06-01T15:27:53",
 "updatedby":100}, "children" : []},
 {"tablename" : "ad_tree_favorite_node", "data" : {"ad_tree_favorite_node_id":1000003,
 "ad_client_id":0,
 "ad_menu_id":589,
 "ad_org_id":0,
 "ad_tree_favorite_id":1000000,
 "created":"2023-06-01T15:27:56",
 "createdby":100,
 "isactive":"Y",
 "iscollapsible":"N",
 "issummary":"N",
 "nodename":null,
 "parent_id":1000000,
 "seqno":0,
 "updated":"2023-06-01T15:27:56",
 "updatedby":100}, "children" : []},
 {"tablename" : "ad_tree_favorite_node", "data" : {"ad_tree_favorite_node_id":1000004,
 "ad_client_id":0,
 "ad_menu_id":139,
 "ad_org_id":0,
 "ad_tree_favorite_id":1000000,
 "created":"2023-06-01T15:28:10",
 "createdby":100,
 "isactive":"Y",
 "iscollapsible":"N",
 "issummary":"N",
 "nodename":null,
 "parent_id":1000000,
 "seqno":0,
 "updated":"2023-06-01T15:28:10",
 "updatedby":100}, "children" : []},
 {"tablename" : "ad_tree_favorite_node", "data" : {"ad_tree_favorite_node_id":1000005,
 "ad_client_id":0,
 "ad_menu_id":null,
 "ad_org_id":0,
 "ad_tree_favorite_id":1000000,
 "created":"2023-06-01T17:24:51",
 "createdby":100,
 "isactive":"Y",
 "iscollapsible":"N",
 "issummary":"Y",
 "nodename":"Setup",
 "parent_id":null,
 "seqno":0,
 "updated":"2023-06-01T17:24:51",
 "updatedby":100}, "children" : []},
 {"tablename" : "ad_tree_favorite_node", "data" : {"ad_tree_favorite_node_id":1000006,
 "ad_client_id":0,
 "ad_menu_id":461,
 "ad_org_id":0,
 "ad_tree_favorite_id":1000000,
 "created":"2023-06-01T17:44:26",
 "createdby":100,
 "isactive":"Y",
 "iscollapsible":"N",
 "issummary":"N",
 "nodename":null,
 "parent_id":1000005,
 "seqno":0,
 "updated":"2023-06-01T17:44:26",
 "updatedby":100}, "children" : []},
 {"tablename" : "ad_tree_favorite_node", "data" : {"ad_tree_favorite_node_id":1000007,
 "ad_client_id":0,
 "ad_menu_id":53202,
 "ad_org_id":0,
 "ad_tree_favorite_id":1000000,
 "created":"2023-06-01T17:44:56",
 "createdby":100,
 "isactive":"Y",
 "iscollapsible":"N",
 "issummary":"N",
 "nodename":null,
 "parent_id":1000005,
 "seqno":0,
 "updated":"2023-06-01T17:44:56",
 "updatedby":100}, "children" : []},
 {"tablename" : "ad_tree_favorite_node", "data" : {"ad_tree_favorite_node_id":1000044,
 "ad_client_id":0,
 "ad_menu_id":144,
 "ad_org_id":0,
 "ad_tree_favorite_id":1000000,
 "created":"2024-01-24T12:11:54",
 "createdby":100,
 "isactive":"Y",
 "iscollapsible":"N",
 "issummary":"N",
 "nodename":null,
 "parent_id":1000000,
 "seqno":0,
 "updated":"2024-01-24T12:11:54",
 "updatedby":100}, "children" : []},
 {"tablename" : "ad_tree_favorite_node", "data" : {"ad_tree_favorite_node_id":1000045,
 "ad_client_id":0,
 "ad_menu_id":495,
 "ad_org_id":0,
 "ad_tree_favorite_id":1000000,
 "created":"2024-01-24T12:12:18",
 "createdby":100,
 "isactive":"Y",
 "iscollapsible":"N",
 "issummary":"N",
 "nodename":null,
 "parent_id":1000000,
 "seqno":0,
 "updated":"2024-01-24T12:12:18",
 "updatedby":100}, "children" : []},
 {"tablename" : "ad_tree_favorite_node", "data" : {"ad_tree_favorite_node_id":1000129,
 "ad_client_id":0,
 "ad_menu_id":null,
 "ad_org_id":0,
 "ad_tree_favorite_id":1000000,
 "created":"2024-04-15T13:00:19",
 "createdby":100,
 "isactive":"Y",
 "iscollapsible":"N",
 "issummary":"Y",
 "nodename":"Import Format",
 "parent_id":null,
 "seqno":0,
 "updated":"2024-04-15T13:00:19",
 "updatedby":100}, "children" : []},
 {"tablename" : "ad_tree_favorite_node", "data" : {"ad_tree_favorite_node_id":1000130,
 "ad_client_id":0,
 "ad_menu_id":222,
 "ad_org_id":0,
 "ad_tree_favorite_id":1000000,
 "created":"2024-04-15T13:00:35",
 "createdby":100,
 "isactive":"Y",
 "iscollapsible":"N",
 "issummary":"N",
 "nodename":null,
 "parent_id":1000129,
 "seqno":0,
 "updated":"2024-04-15T13:00:35",
 "updatedby":100}, "children" : []},
 {"tablename" : "ad_tree_favorite_node", "data" : {"ad_tree_favorite_node_id":1000136,
 "ad_client_id":0,
 "ad_menu_id":1000004,
 "ad_org_id":0,
 "ad_tree_favorite_id":1000000,
 "created":"2024-04-24T13:30:12",
 "createdby":100,
 "isactive":"Y",
 "iscollapsible":"N",
 "issummary":"N",
 "nodename":null,
 "parent_id":1000000,
 "seqno":0,
 "updated":"2024-04-24T13:30:12",
 "updatedby":100}, "children" : []}]