[{"tablename" : "ad_workflow", "data" : {"ad_workflow_id":115,
 "name":"Process_Requisition",
 "accesslevel":"1",
 "ad_client_id":0,
 "ad_org_id":0,
 "ad_table_id":702,
 "author":"Adempiere",
 "cost":0,
 "created":"2004-03-20T17:08:31",
 "createdby":0,
 "description":"(Standard Process_Requisition)",
 "documentno":null,
 "docvaluelogic":null,
 "duration":1,
 "durationlimit":1,
 "durationunit":"D",
 "entitytype":"Quote-to-Invoice",
 "help":null,
 "isactive":"Y",
 "isbetafunctionality":"N",
 "isdefault":"N",
 "isvalid":"Y",
 "movingtime":null,
 "overlapunits":null,
 "priority":0,
 "processtype":null,
 "publishstatus":"T",
 "qtybatchsize":1,
 "queuingtime":null,
 "setuptime":null,
 "s_resource_id":null,
 "unitscycles":null,
 "updated":"2005-11-21T11:40:01",
 "updatedby":100,
 "validateworkflow":"N",
 "validfrom":null,
 "validto":null,
 "value":"Process_Requisition",
 "version":0,
 "waitingtime":0,
 "workflowtype":"P",
 "workingtime":0,
 "yield":null}, "children" : []},
 {"tablename" : "ad_workflow", "data" : {"ad_workflow_id":116,
 "name":"Process_Order",
 "accesslevel":"1",
 "ad_client_id":0,
 "ad_org_id":0,
 "ad_table_id":259,
 "author":"Adempiere, Inc.",
 "cost":0,
 "created":"2004-05-03T19:32:12",
 "createdby":0,
 "description":"(Standard Process Order)",
 "documentno":null,
 "docvaluelogic":null,
 "duration":1,
 "durationlimit":null,
 "durationunit":"D",
 "entitytype":"Quote-to-Invoice",
 "help":null,
 "isactive":"Y",
 "isbetafunctionality":"N",
 "isdefault":"N",
 "isvalid":"Y",
 "movingtime":null,
 "overlapunits":null,
 "priority":null,
 "processtype":null,
 "publishstatus":"R",
 "qtybatchsize":1,
 "queuingtime":null,
 "setuptime":null,
 "s_resource_id":null,
 "unitscycles":null,
 "updated":"2000-01-02T00:00:00",
 "updatedby":0,
 "validateworkflow":null,
 "validfrom":null,
 "validto":null,
 "value":"Process_Order",
 "version":0,
 "waitingtime":0,
 "workflowtype":"P",
 "workingtime":0,
 "yield":null}, "children" : []},
 {"tablename" : "ad_workflow", "data" : {"ad_workflow_id":117,
 "name":"Process_Shipment",
 "accesslevel":"1",
 "ad_client_id":0,
 "ad_org_id":0,
 "ad_table_id":319,
 "author":"Adempiere, Inc.",
 "cost":0,
 "created":"2004-05-03T22:14:12",
 "createdby":0,
 "description":"(Standard Process Shipment)",
 "documentno":null,
 "docvaluelogic":null,
 "duration":1,
 "durationlimit":0,
 "durationunit":"D",
 "entitytype":"Quote-to-Invoice",
 "help":null,
 "isactive":"Y",
 "isbetafunctionality":"N",
 "isdefault":"N",
 "isvalid":"Y",
 "movingtime":null,
 "overlapunits":null,
 "priority":0,
 "processtype":null,
 "publishstatus":"R",
 "qtybatchsize":1,
 "queuingtime":null,
 "setuptime":null,
 "s_resource_id":null,
 "unitscycles":null,
 "updated":"2008-01-24T18:37:14",
 "updatedby":0,
 "validateworkflow":null,
 "validfrom":null,
 "validto":null,
 "value":"Process_Shipment",
 "version":0,
 "waitingtime":0,
 "workflowtype":"P",
 "workingtime":0,
 "yield":null}, "children" : []},
 {"tablename" : "ad_workflow", "data" : {"ad_workflow_id":118,
 "name":"Process_Invoice",
 "accesslevel":"1",
 "ad_client_id":0,
 "ad_org_id":0,
 "ad_table_id":318,
 "author":"Adempiere, Inc.",
 "cost":0,
 "created":"2004-05-03T22:28:25",
 "createdby":0,
 "description":"(Standard Process Onvoice)",
 "documentno":null,
 "docvaluelogic":null,
 "duration":1,
 "durationlimit":null,
 "durationunit":"D",
 "entitytype":"Quote-to-Invoice",
 "help":null,
 "isactive":"Y",
 "isbetafunctionality":"N",
 "isdefault":"N",
 "isvalid":"Y",
 "movingtime":null,
 "overlapunits":null,
 "priority":null,
 "processtype":null,
 "publishstatus":"R",
 "qtybatchsize":1,
 "queuingtime":null,
 "setuptime":null,
 "s_resource_id":null,
 "unitscycles":null,
 "updated":"2000-01-02T00:00:00",
 "updatedby":0,
 "validateworkflow":null,
 "validfrom":null,
 "validto":null,
 "value":"Process_Invoice",
 "version":0,
 "waitingtime":0,
 "workflowtype":"P",
 "workingtime":0,
 "yield":null}, "children" : []},
 {"tablename" : "ad_workflow", "data" : {"ad_workflow_id":120,
 "name":"Process_Payment",
 "accesslevel":"1",
 "ad_client_id":0,
 "ad_org_id":0,
 "ad_table_id":335,
 "author":"Adempiere, Inc.",
 "cost":0,
 "created":"2004-05-03T22:31:15",
 "createdby":0,
 "description":"(Standard Process Payment)",
 "documentno":null,
 "docvaluelogic":null,
 "duration":1,
 "durationlimit":null,
 "durationunit":"D",
 "entitytype":"Open Items",
 "help":null,
 "isactive":"Y",
 "isbetafunctionality":"N",
 "isdefault":"N",
 "isvalid":"Y",
 "movingtime":null,
 "overlapunits":null,
 "priority":null,
 "processtype":null,
 "publishstatus":"R",
 "qtybatchsize":1,
 "queuingtime":null,
 "setuptime":null,
 "s_resource_id":null,
 "unitscycles":null,
 "updated":"2000-01-02T00:00:00",
 "updatedby":0,
 "validateworkflow":null,
 "validfrom":null,
 "validto":null,
 "value":"Process_Payment",
 "version":0,
 "waitingtime":0,
 "workflowtype":"P",
 "workingtime":0,
 "yield":null}, "children" : []},
 {"tablename" : "ad_workflow", "data" : {"ad_workflow_id":121,
 "name":"Process_Journal",
 "accesslevel":"1",
 "ad_client_id":0,
 "ad_org_id":0,
 "ad_table_id":224,
 "author":"Adempiere, Inc.",
 "cost":0,
 "created":"2004-05-04T11:05:57",
 "createdby":0,
 "description":"(Standard Process Journal)",
 "documentno":null,
 "docvaluelogic":null,
 "duration":1,
 "durationlimit":null,
 "durationunit":"D",
 "entitytype":"Performance Analysis",
 "help":null,
 "isactive":"Y",
 "isbetafunctionality":"N",
 "isdefault":"N",
 "isvalid":"Y",
 "movingtime":null,
 "overlapunits":null,
 "priority":null,
 "processtype":null,
 "publishstatus":"R",
 "qtybatchsize":1,
 "queuingtime":null,
 "setuptime":null,
 "s_resource_id":null,
 "unitscycles":null,
 "updated":"2000-01-02T00:00:00",
 "updatedby":0,
 "validateworkflow":null,
 "validfrom":null,
 "validto":null,
 "value":"Process_Journal",
 "version":0,
 "waitingtime":0,
 "workflowtype":"P",
 "workingtime":0,
 "yield":null}, "children" : []},
 {"tablename" : "ad_workflow", "data" : {"ad_workflow_id":122,
 "name":"Process_JournalBatch",
 "accesslevel":"1",
 "ad_client_id":0,
 "ad_org_id":0,
 "ad_table_id":225,
 "author":"Adempiere, Inc.",
 "cost":0,
 "created":"2004-05-04T11:07:57",
 "createdby":0,
 "description":"(Standard Process Jornal Batch)",
 "documentno":null,
 "docvaluelogic":null,
 "duration":1,
 "durationlimit":null,
 "durationunit":"D",
 "entitytype":"Performance Analysis",
 "help":null,
 "isactive":"Y",
 "isbetafunctionality":"N",
 "isdefault":"N",
 "isvalid":"Y",
 "movingtime":null,
 "overlapunits":null,
 "priority":null,
 "processtype":null,
 "publishstatus":"R",
 "qtybatchsize":1,
 "queuingtime":null,
 "setuptime":null,
 "s_resource_id":null,
 "unitscycles":null,
 "updated":"2000-01-02T00:00:00",
 "updatedby":0,
 "validateworkflow":null,
 "validfrom":null,
 "validto":null,
 "value":"Process_JournalBatch",
 "version":0,
 "waitingtime":0,
 "workflowtype":"P",
 "workingtime":0,
 "yield":null}, "children" : []},
 {"tablename" : "ad_workflow", "data" : {"ad_workflow_id":123,
 "name":"Process_RMA",
 "accesslevel":"1",
 "ad_client_id":0,
 "ad_org_id":0,
 "ad_table_id":661,
 "author":"Adempiere, Inc.",
 "cost":0,
 "created":"2004-05-12T12:43:05",
 "createdby":0,
 "description":"(Standard Process_RMA)",
 "documentno":null,
 "docvaluelogic":null,
 "duration":1,
 "durationlimit":null,
 "durationunit":"D",
 "entitytype":"Returns",
 "help":null,
 "isactive":"Y",
 "isbetafunctionality":"N",
 "isdefault":"N",
 "isvalid":"Y",
 "movingtime":null,
 "overlapunits":null,
 "priority":null,
 "processtype":null,
 "publishstatus":"U",
 "qtybatchsize":1,
 "queuingtime":null,
 "setuptime":null,
 "s_resource_id":null,
 "unitscycles":null,
 "updated":"2000-01-02T00:00:00",
 "updatedby":0,
 "validateworkflow":null,
 "validfrom":null,
 "validto":null,
 "value":"Process_RMA",
 "version":0,
 "waitingtime":0,
 "workflowtype":"P",
 "workingtime":0,
 "yield":null}, "children" : []},
 {"tablename" : "ad_workflow", "data" : {"ad_workflow_id":124,
 "name":"Process_InOutConfirm",
 "accesslevel":"1",
 "ad_client_id":0,
 "ad_org_id":0,
 "ad_table_id":727,
 "author":"Adempiere, Inc.",
 "cost":0,
 "created":"2004-06-10T22:37:07",
 "createdby":0,
 "description":"(Standard Process Confirmation)",
 "documentno":null,
 "docvaluelogic":null,
 "duration":1,
 "durationlimit":null,
 "durationunit":"D",
 "entitytype":"Material Management",
 "help":null,
 "isactive":"Y",
 "isbetafunctionality":"N",
 "isdefault":"N",
 "isvalid":"Y",
 "movingtime":null,
 "overlapunits":null,
 "priority":null,
 "processtype":null,
 "publishstatus":"R",
 "qtybatchsize":1,
 "queuingtime":null,
 "setuptime":null,
 "s_resource_id":null,
 "unitscycles":null,
 "updated":"2000-01-02T00:00:00",
 "updatedby":0,
 "validateworkflow":null,
 "validfrom":null,
 "validto":null,
 "value":"Process_InOutConfirm",
 "version":0,
 "waitingtime":0,
 "workflowtype":"P",
 "workingtime":0,
 "yield":null}, "children" : []},
 {"tablename" : "ad_workflow", "data" : {"ad_workflow_id":125,
 "name":"Process_Allocation",
 "accesslevel":"1",
 "ad_client_id":0,
 "ad_org_id":0,
 "ad_table_id":735,
 "author":"Adempiere, Inc.",
 "cost":0,
 "created":"2004-06-10T22:40:36",
 "createdby":0,
 "description":"(Standard Process Allocation)",
 "documentno":null,
 "docvaluelogic":null,
 "duration":1,
 "durationlimit":null,
 "durationunit":"D",
 "entitytype":"Quote-to-Invoice",
 "help":null,
 "isactive":"Y",
 "isbetafunctionality":"N",
 "isdefault":"N",
 "isvalid":"Y",
 "movingtime":null,
 "overlapunits":null,
 "priority":null,
 "processtype":null,
 "publishstatus":"R",
 "qtybatchsize":1,
 "queuingtime":null,
 "setuptime":null,
 "s_resource_id":null,
 "unitscycles":null,
 "updated":"2000-01-02T00:00:00",
 "updatedby":0,
 "validateworkflow":null,
 "validfrom":null,
 "validto":null,
 "value":"Process_Allocation",
 "version":0,
 "waitingtime":0,
 "workflowtype":"P",
 "workingtime":0,
 "yield":null}, "children" : []},
 {"tablename" : "ad_workflow", "data" : {"ad_workflow_id":126,
 "name":"Process_TimeExpense",
 "accesslevel":"1",
 "ad_client_id":0,
 "ad_org_id":0,
 "ad_table_id":486,
 "author":"Adempiere, Inc.",
 "cost":0,
 "created":"2004-06-10T22:42:50",
 "createdby":0,
 "description":"(Standard Process Time Expense)",
 "documentno":null,
 "docvaluelogic":null,
 "duration":1,
 "durationlimit":null,
 "durationunit":"D",
 "entitytype":"Service",
 "help":null,
 "isactive":"Y",
 "isbetafunctionality":"N",
 "isdefault":"N",
 "isvalid":"Y",
 "movingtime":null,
 "overlapunits":null,
 "priority":null,
 "processtype":null,
 "publishstatus":"R",
 "qtybatchsize":1,
 "queuingtime":null,
 "setuptime":null,
 "s_resource_id":null,
 "unitscycles":null,
 "updated":"2000-01-02T00:00:00",
 "updatedby":0,
 "validateworkflow":null,
 "validfrom":null,
 "validto":null,
 "value":"Process_TimeExpense",
 "version":0,
 "waitingtime":0,
 "workflowtype":"P",
 "workingtime":0,
 "yield":null}, "children" : []},
 {"tablename" : "ad_workflow", "data" : {"ad_workflow_id":127,
 "name":"Process_Inventory",
 "accesslevel":"1",
 "ad_client_id":0,
 "ad_org_id":0,
 "ad_table_id":321,
 "author":"Adempiere, Inc.",
 "cost":0,
 "created":"2004-06-17T11:44:03",
 "createdby":0,
 "description":"(Standard Process Inventory)",
 "documentno":null,
 "docvaluelogic":null,
 "duration":1,
 "durationlimit":null,
 "durationunit":"D",
 "entitytype":"Material Management",
 "help":null,
 "isactive":"Y",
 "isbetafunctionality":"N",
 "isdefault":"N",
 "isvalid":"Y",
 "movingtime":null,
 "overlapunits":null,
 "priority":null,
 "processtype":null,
 "publishstatus":"R",
 "qtybatchsize":1,
 "queuingtime":null,
 "setuptime":null,
 "s_resource_id":null,
 "unitscycles":null,
 "updated":"2000-01-02T00:00:00",
 "updatedby":0,
 "validateworkflow":null,
 "validfrom":null,
 "validto":null,
 "value":"Process_Inventory",
 "version":0,
 "waitingtime":0,
 "workflowtype":"P",
 "workingtime":0,
 "yield":null}, "children" : []},
 {"tablename" : "ad_workflow", "data" : {"ad_workflow_id":128,
 "name":"Process_Movement",
 "accesslevel":"1",
 "ad_client_id":0,
 "ad_org_id":0,
 "ad_table_id":323,
 "author":"Adempiere, Inc.",
 "cost":0,
 "created":"2004-06-17T11:45:33",
 "createdby":0,
 "description":"(Standard Process Movement)",
 "documentno":null,
 "docvaluelogic":null,
 "duration":1,
 "durationlimit":0,
 "durationunit":"D",
 "entitytype":"Material Management",
 "help":null,
 "isactive":"Y",
 "isbetafunctionality":"N",
 "isdefault":"N",
 "isvalid":"Y",
 "movingtime":null,
 "overlapunits":null,
 "priority":0,
 "processtype":null,
 "publishstatus":"R",
 "qtybatchsize":1,
 "queuingtime":null,
 "setuptime":null,
 "s_resource_id":null,
 "unitscycles":null,
 "updated":"2008-01-24T18:34:39",
 "updatedby":0,
 "validateworkflow":null,
 "validfrom":null,
 "validto":null,
 "value":"Process_Movement",
 "version":0,
 "waitingtime":0,
 "workflowtype":"P",
 "workingtime":0,
 "yield":null}, "children" : []},
 {"tablename" : "ad_workflow", "data" : {"ad_workflow_id":129,
 "name":"Process_MovementConfirm",
 "accesslevel":"1",
 "ad_client_id":0,
 "ad_org_id":0,
 "ad_table_id":738,
 "author":"Adempiere, Inc.",
 "cost":0,
 "created":"2004-06-17T11:46:48",
 "createdby":0,
 "description":"(Standard Process Movement Confirmation)",
 "documentno":null,
 "docvaluelogic":null,
 "duration":1,
 "durationlimit":null,
 "durationunit":"D",
 "entitytype":"Manufacturing Management",
 "help":null,
 "isactive":"Y",
 "isbetafunctionality":"N",
 "isdefault":"N",
 "isvalid":"Y",
 "movingtime":null,
 "overlapunits":null,
 "priority":null,
 "processtype":null,
 "publishstatus":"R",
 "qtybatchsize":1,
 "queuingtime":null,
 "setuptime":null,
 "s_resource_id":null,
 "unitscycles":null,
 "updated":"2000-01-02T00:00:00",
 "updatedby":0,
 "validateworkflow":null,
 "validfrom":null,
 "validto":null,
 "value":"Process_MovementConfirm",
 "version":0,
 "waitingtime":0,
 "workflowtype":"P",
 "workingtime":0,
 "yield":null}, "children" : []},
 {"tablename" : "ad_workflow", "data" : {"ad_workflow_id":130,
 "name":"Process_BankStatement",
 "accesslevel":"1",
 "ad_client_id":0,
 "ad_org_id":0,
 "ad_table_id":392,
 "author":"Adempiere, Inc.",
 "cost":0,
 "created":"2004-06-17T14:52:20",
 "createdby":0,
 "description":"(Standard Process Bank Statement)",
 "documentno":null,
 "docvaluelogic":null,
 "duration":1,
 "durationlimit":null,
 "durationunit":"D",
 "entitytype":"Open Items",
 "help":null,
 "isactive":"Y",
 "isbetafunctionality":"N",
 "isdefault":"N",
 "isvalid":"Y",
 "movingtime":null,
 "overlapunits":null,
 "priority":null,
 "processtype":null,
 "publishstatus":"R",
 "qtybatchsize":1,
 "queuingtime":null,
 "setuptime":null,
 "s_resource_id":null,
 "unitscycles":null,
 "updated":"2000-01-02T00:00:00",
 "updatedby":0,
 "validateworkflow":null,
 "validfrom":null,
 "validto":null,
 "value":"Process_BankStatement",
 "version":0,
 "waitingtime":0,
 "workflowtype":"P",
 "workingtime":0,
 "yield":null}, "children" : []},
 {"tablename" : "ad_workflow", "data" : {"ad_workflow_id":50034,
 "name":"Process_GAAS_AssetJournal",
 "accesslevel":"1",
 "ad_client_id":0,
 "ad_org_id":0,
 "ad_table_id":53575,
 "author":"Astidian Systems",
 "cost":0,
 "created":"2014-07-14T15:05:56",
 "createdby":100,
 "description":null,
 "documentno":"10000000",
 "docvaluelogic":null,
 "duration":0,
 "durationlimit":0,
 "durationunit":"D",
 "entitytype":"Asset Management",
 "help":null,
 "isactive":"Y",
 "isbetafunctionality":"N",
 "isdefault":"N",
 "isvalid":"Y",
 "movingtime":null,
 "overlapunits":null,
 "priority":0,
 "processtype":null,
 "publishstatus":"R",
 "qtybatchsize":1,
 "queuingtime":null,
 "setuptime":null,
 "s_resource_id":null,
 "unitscycles":null,
 "updated":"2016-04-11T16:36:12",
 "updatedby":0,
 "validateworkflow":null,
 "validfrom":null,
 "validto":null,
 "value":"Process_GAAS_AssetJournal",
 "version":0,
 "waitingtime":0,
 "workflowtype":"P",
 "workingtime":0,
 "yield":100}, "children" : []},
 {"tablename" : "ad_workflow", "data" : {"ad_workflow_id":50048,
 "name":"Process_Production",
 "accesslevel":"1",
 "ad_client_id":0,
 "ad_org_id":0,
 "ad_table_id":325,
 "author":"Adaxa",
 "cost":0,
 "created":"2015-09-25T17:23:48",
 "createdby":100,
 "description":null,
 "documentno":"10000000",
 "docvaluelogic":null,
 "duration":0,
 "durationlimit":0,
 "durationunit":"D",
 "entitytype":"Material Management",
 "help":null,
 "isactive":"Y",
 "isbetafunctionality":"N",
 "isdefault":"N",
 "isvalid":"Y",
 "movingtime":null,
 "overlapunits":null,
 "priority":0,
 "processtype":null,
 "publishstatus":"R",
 "qtybatchsize":null,
 "queuingtime":null,
 "setuptime":null,
 "s_resource_id":null,
 "unitscycles":null,
 "updated":"2016-04-12T09:50:44",
 "updatedby":0,
 "validateworkflow":"N",
 "validfrom":null,
 "validto":null,
 "value":"Process_Production",
 "version":0,
 "waitingtime":0,
 "workflowtype":"P",
 "workingtime":0,
 "yield":null}, "children" : []},
 {"tablename" : "ad_workflow", "data" : {"ad_workflow_id":50049,
 "name":"Process_ProductionBatch",
 "accesslevel":"1",
 "ad_client_id":0,
 "ad_org_id":0,
 "ad_table_id":54052,
 "author":"Adaxa",
 "cost":0,
 "created":"2016-02-09T11:57:09",
 "createdby":100,
 "description":"(Start Process Production Batch)",
 "documentno":"10000000",
 "docvaluelogic":null,
 "duration":0,
 "durationlimit":0,
 "durationunit":"D",
 "entitytype":"Material Management",
 "help":null,
 "isactive":"Y",
 "isbetafunctionality":"N",
 "isdefault":"N",
 "isvalid":"Y",
 "movingtime":null,
 "overlapunits":null,
 "priority":0,
 "processtype":null,
 "publishstatus":"R",
 "qtybatchsize":1,
 "queuingtime":null,
 "setuptime":null,
 "s_resource_id":null,
 "unitscycles":null,
 "updated":"2016-07-01T00:51:06",
 "updatedby":0,
 "validateworkflow":"N",
 "validfrom":null,
 "validto":null,
 "value":"Process_ProductionBatch",
 "version":0,
 "waitingtime":0,
 "workflowtype":"P",
 "workingtime":0,
 "yield":100}, "children" : []},
 {"tablename" : "ad_workflow", "data" : {"ad_workflow_id":50063,
 "name":"Process_Payment Selection",
 "accesslevel":"1",
 "ad_client_id":0,
 "ad_org_id":0,
 "ad_table_id":426,
 "author":"ADempiere",
 "cost":0,
 "created":"2018-05-26T15:02:34",
 "createdby":100,
 "description":"(Standard Process_Payment Selection)",
 "documentno":"10000000",
 "docvaluelogic":null,
 "duration":1,
 "durationlimit":null,
 "durationunit":"D",
 "entitytype":"D",
 "help":null,
 "isactive":"Y",
 "isbetafunctionality":"N",
 "isdefault":"N",
 "isvalid":"Y",
 "movingtime":null,
 "overlapunits":null,
 "priority":0,
 "processtype":null,
 "publishstatus":"T",
 "qtybatchsize":null,
 "queuingtime":null,
 "setuptime":null,
 "s_resource_id":null,
 "unitscycles":null,
 "updated":"2020-10-26T23:13:38",
 "updatedby":100,
 "validateworkflow":"N",
 "validfrom":null,
 "validto":null,
 "value":"Process_Payment Selection",
 "version":0,
 "waitingtime":0,
 "workflowtype":"P",
 "workingtime":0,
 "yield":null}, "children" : []}]