[{"tablename" : "pa_sla_criteria", "data" : {"pa_sla_criteria_id":101,
 "name":"Delivery Accuracy",
 "ad_client_id":0,
 "ad_org_id":0,
 "classname":"org.compiere.sla.DeliveryAccuracy",
 "created":"2004-07-07T20:16:05",
 "createdby":0,
 "description":"How accurate is the promise date?",
 "help":"The measure are the average days between promise date (PO/SO) and delivery date (Material receipt/shipment)\nIt is positive if before, negative if later. The lower the number, the better",
 "isactive":"Y",
 "ismanual":"N",
 "updated":"2000-01-02T00:00:00",
 "updatedby":0}, "children" : []}]