[{"tablename" : "ad_process", "data" : {"ad_process_id":108,
 "value":"C_AcctSchema_Default_Copy",
 "name":"Add or Copy Accounts",
 "accesslevel":"2",
 "ad_client_id":0,
 "ad_form_id":null,
 "ad_org_id":0,
 "ad_printformat_id":null,
 "ad_reportview_id":null,
 "ad_tableselection_id":null,
 "ad_workflow_id":null,
 "classname":"org.compiere.process.AcctSchemaDefaultCopy",
 "copyfromprocess":null,
 "created":"2000-02-04T12:10:11",
 "createdby":0,
 "description":"Add missing Accounts - or Copy&Overwrite Accounts (DANGEROUS!!)",
 "entitytype":"Accounting Rules",
 "help":"Either add missing accounts - or copy and overwrite all default accounts.  If you copy and overwrite the current default values, you may have to repeat previous updates (e.g. set the bank account asset accounts, ...).  If no Accounting Schema is selected all Accounting Schemas will be updated / inserted.",
 "isactive":"Y",
 "isbetafunctionality":"N",
 "isdirectprint":"N",
 "isreport":"N",
 "isserverprocess":"N",
 "jasperreport":null,
 "procedurename":null,
 "showhelp":"Y",
 "statistic_count":0,
 "statistic_seconds":0,
 "updated":"2005-08-22T14:11:49",
 "updatedby":100,
 "workflowvalue":null}, "children" : [{"tablename" : "ad_process_para", "data" : {"ad_process_para_id":664,
 "name":"Copy Overwrite",
 "ad_client_id":0,
 "ad_element_id":2824,
 "ad_org_id":0,
 "ad_process_id":108,
 "ad_reference_id":20,
 "ad_reference_value_id":null,
 "ad_val_rule_id":null,
 "columnname":"CopyOverwriteAcct",
 "created":"2005-08-22T14:15:10",
 "createdby":100,
 "defaultvalue":"N",
 "defaultvalue2":null,
 "description":"Copy and Overwrite Default Accounts (DANGEROUS!!)",
 "displaylogic":null,
 "entitytype":"Accounting Rules",
 "fieldlength":0,
 "help":null,
 "isactive":"Y",
 "iscentrallymaintained":"Y",
 "ismandatory":"Y",
 "isrange":"N",
 "readonlylogic":null,
 "seqno":20,
 "updated":"2005-08-22T18:32:45",
 "updatedby":100,
 "valuemax":null,
 "valuemin":null,
 "vformat":null}, "children" : []},{"tablename" : "ad_process_para", "data" : {"ad_process_para_id":669,
 "name":"Accounting Schema",
 "ad_client_id":0,
 "ad_element_id":181,
 "ad_org_id":0,
 "ad_process_id":108,
 "ad_reference_id":19,
 "ad_reference_value_id":null,
 "ad_val_rule_id":null,
 "columnname":"C_AcctSchema_ID",
 "created":"2005-08-22T18:32:37",
 "createdby":100,
 "defaultvalue":"@C_AcctSchema_ID@",
 "defaultvalue2":null,
 "description":"Rules for accounting",
 "displaylogic":null,
 "entitytype":"Accounting Rules",
 "fieldlength":0,
 "help":"An Accounting Schema defines the rules used in accounting such as costing method, currency and calendar",
 "isactive":"Y",
 "iscentrallymaintained":"Y",
 "ismandatory":"Y",
 "isrange":"N",
 "readonlylogic":null,
 "seqno":10,
 "updated":"2005-08-22T19:26:20",
 "updatedby":100,
 "valuemax":null,
 "valuemin":null,
 "vformat":null}, "children" : []}]},
 {"tablename" : "ad_process", "data" : {"ad_process_id":175,
 "value":"Fact_Acct_Reset",
 "name":"Resubmit Posting",
 "accesslevel":"3",
 "ad_client_id":0,
 "ad_form_id":null,
 "ad_org_id":0,
 "ad_printformat_id":null,
 "ad_reportview_id":null,
 "ad_tableselection_id":null,
 "ad_workflow_id":null,
 "classname":"org.compiere.process.FactAcctReset",
 "copyfromprocess":null,
 "created":"2001-12-02T11:45:57",
 "createdby":0,
 "description":"Resubmit posting of documents with posting errors or locked documents",
 "entitytype":"Accounting Rules",
 "help":"After resubmitting, the accounting engine will try to post the document again. You resubmit documents, if they are locked or when the document had posting errors - after fixing the cause (e.g. opening period).",
 "isactive":"Y",
 "isbetafunctionality":"N",
 "isdirectprint":"N",
 "isreport":"N",
 "isserverprocess":"N",
 "jasperreport":null,
 "procedurename":null,
 "showhelp":"Y",
 "statistic_count":0,
 "statistic_seconds":0,
 "updated":"2006-06-06T15:49:33",
 "updatedby":100,
 "workflowvalue":null}, "children" : [{"tablename" : "ad_process_para", "data" : {"ad_process_para_id":223,
 "name":"Client",
 "ad_client_id":0,
 "ad_element_id":null,
 "ad_org_id":0,
 "ad_process_id":175,
 "ad_reference_id":19,
 "ad_reference_value_id":null,
 "ad_val_rule_id":null,
 "columnname":"AD_Client_ID",
 "created":"2001-12-02T11:48:03",
 "createdby":0,
 "defaultvalue":null,
 "defaultvalue2":null,
 "description":"Client/Tenant for this installation.",
 "displaylogic":null,
 "entitytype":"Accounting Rules",
 "fieldlength":0,
 "help":"A Client is a company or a legal entity. You cannot share data between Clients. Tenant is a synonym for Client.",
 "isactive":"Y",
 "iscentrallymaintained":"Y",
 "ismandatory":"Y",
 "isrange":"N",
 "readonlylogic":null,
 "seqno":10,
 "updated":"2000-01-02T00:00:00",
 "updatedby":0,
 "valuemax":null,
 "valuemin":null,
 "vformat":null}, "children" : []},{"tablename" : "ad_process_para", "data" : {"ad_process_para_id":224,
 "name":"Table",
 "ad_client_id":0,
 "ad_element_id":126,
 "ad_org_id":0,
 "ad_process_id":175,
 "ad_reference_id":18,
 "ad_reference_value_id":206,
 "ad_val_rule_id":null,
 "columnname":"AD_Table_ID",
 "created":"2001-12-02T11:48:48",
 "createdby":0,
 "defaultvalue":null,
 "defaultvalue2":null,
 "description":"Database Table information",
 "displaylogic":null,
 "entitytype":"Accounting Rules",
 "fieldlength":0,
 "help":"The Database Table provides the information of the table definition",
 "isactive":"Y",
 "iscentrallymaintained":"Y",
 "ismandatory":"N",
 "isrange":"N",
 "readonlylogic":null,
 "seqno":20,
 "updated":"2000-01-02T00:00:00",
 "updatedby":0,
 "valuemax":null,
 "valuemin":null,
 "vformat":null}, "children" : []}]},
 {"tablename" : "ad_process", "data" : {"ad_process_id":176,
 "value":"Fact_Acct_Reset DELETE",
 "name":"Reset Accounting",
 "accesslevel":"2",
 "ad_client_id":0,
 "ad_form_id":null,
 "ad_org_id":0,
 "ad_printformat_id":null,
 "ad_reportview_id":null,
 "ad_tableselection_id":null,
 "ad_workflow_id":null,
 "classname":"org.compiere.process.FactAcctReset",
 "copyfromprocess":null,
 "created":"2001-12-02T12:08:42",
 "createdby":0,
 "description":"Reset Accounting Entries ** Stop Accounting Server before starting **",
 "entitytype":"Accounting Rules",
 "help":"Delete accounting records of documents to be re-created by the next run of the accounting engine.  This is a dramatic step and you want to do this ONLY after changes of the accounting structure (e.g. different default accounts, etc.) and if fixing via manual Journal entries is not sensible.",
 "isactive":"Y",
 "isbetafunctionality":"N",
 "isdirectprint":"N",
 "isreport":"N",
 "isserverprocess":"N",
 "jasperreport":null,
 "procedurename":null,
 "showhelp":"Y",
 "statistic_count":0,
 "statistic_seconds":0,
 "updated":"2005-04-24T22:55:18",
 "updatedby":100,
 "workflowvalue":null}, "children" : [{"tablename" : "ad_process_para", "data" : {"ad_process_para_id":225,
 "name":"Client",
 "ad_client_id":0,
 "ad_element_id":null,
 "ad_org_id":0,
 "ad_process_id":176,
 "ad_reference_id":19,
 "ad_reference_value_id":null,
 "ad_val_rule_id":null,
 "columnname":"AD_Client_ID",
 "created":"2001-12-02T12:19:14",
 "createdby":0,
 "defaultvalue":null,
 "defaultvalue2":null,
 "description":"Client/Tenant for this installation.",
 "displaylogic":null,
 "entitytype":"Accounting Rules",
 "fieldlength":0,
 "help":"A Client is a company or a legal entity. You cannot share data between Clients. Tenant is a synonym for Client.",
 "isactive":"Y",
 "iscentrallymaintained":"Y",
 "ismandatory":"Y",
 "isrange":"N",
 "readonlylogic":null,
 "seqno":10,
 "updated":"2000-01-02T00:00:00",
 "updatedby":0,
 "valuemax":null,
 "valuemin":null,
 "vformat":null}, "children" : []},{"tablename" : "ad_process_para", "data" : {"ad_process_para_id":226,
 "name":"Table",
 "ad_client_id":0,
 "ad_element_id":126,
 "ad_org_id":0,
 "ad_process_id":176,
 "ad_reference_id":18,
 "ad_reference_value_id":206,
 "ad_val_rule_id":null,
 "columnname":"AD_Table_ID",
 "created":"2001-12-02T12:23:22",
 "createdby":0,
 "defaultvalue":null,
 "defaultvalue2":null,
 "description":"Database Table information",
 "displaylogic":null,
 "entitytype":"Accounting Rules",
 "fieldlength":0,
 "help":"The Database Table provides the information of the table definition",
 "isactive":"Y",
 "iscentrallymaintained":"Y",
 "ismandatory":"N",
 "isrange":"N",
 "readonlylogic":null,
 "seqno":20,
 "updated":"2000-01-02T00:00:00",
 "updatedby":0,
 "valuemax":null,
 "valuemin":null,
 "vformat":null}, "children" : []},{"tablename" : "ad_process_para", "data" : {"ad_process_para_id":227,
 "name":"Delete existing Accounting Entries",
 "ad_client_id":0,
 "ad_element_id":null,
 "ad_org_id":0,
 "ad_process_id":176,
 "ad_reference_id":20,
 "ad_reference_value_id":null,
 "ad_val_rule_id":null,
 "columnname":"DeletePosting",
 "created":"2001-12-02T12:26:21",
 "createdby":0,
 "defaultvalue":null,
 "defaultvalue2":null,
 "description":"The selected accounting entries will be deleted!  DANGEROUS !!!",
 "displaylogic":null,
 "entitytype":"Accounting Rules",
 "fieldlength":0,
 "help":null,
 "isactive":"Y",
 "iscentrallymaintained":"N",
 "ismandatory":"Y",
 "isrange":"N",
 "readonlylogic":null,
 "seqno":30,
 "updated":"2005-08-29T13:28:47",
 "updatedby":100,
 "valuemax":null,
 "valuemin":null,
 "vformat":null}, "children" : []},{"tablename" : "ad_process_para", "data" : {"ad_process_para_id":53263,
 "name":"Account Date",
 "ad_client_id":0,
 "ad_element_id":263,
 "ad_org_id":0,
 "ad_process_id":176,
 "ad_reference_id":15,
 "ad_reference_value_id":null,
 "ad_val_rule_id":null,
 "columnname":"DateAcct",
 "created":"2008-12-17T11:49:54",
 "createdby":100,
 "defaultvalue":null,
 "defaultvalue2":null,
 "description":"Optional account date range",
 "displaylogic":"@DeletePosting@=Y",
 "entitytype":"Accounting Rules",
 "fieldlength":0,
 "help":"Only documents within this date range which are also in open periods will be reset.",
 "isactive":"Y",
 "iscentrallymaintained":"N",
 "ismandatory":"N",
 "isrange":"Y",
 "readonlylogic":null,
 "seqno":40,
 "updated":"2008-12-17T11:49:54",
 "updatedby":100,
 "valuemax":null,
 "valuemin":null,
 "vformat":null}, "children" : []}]},
 {"tablename" : "ad_process", "data" : {"ad_process_id":203,
 "value":"Balance_Update",
 "name":"Update Accounting Balance",
 "accesslevel":"3",
 "ad_client_id":0,
 "ad_form_id":null,
 "ad_org_id":0,
 "ad_printformat_id":null,
 "ad_reportview_id":null,
 "ad_tableselection_id":null,
 "ad_workflow_id":null,
 "classname":"org.compiere.report.FinBalance",
 "copyfromprocess":null,
 "created":"2003-02-09T14:49:07",
 "createdby":0,
 "description":"Update Daily Accounting Balances",
 "entitytype":"Accounting Rules",
 "help":"This process is run automatically",
 "isactive":"N",
 "isbetafunctionality":"N",
 "isdirectprint":"N",
 "isreport":"Y",
 "isserverprocess":"N",
 "jasperreport":null,
 "procedurename":null,
 "showhelp":"Y",
 "statistic_count":0,
 "statistic_seconds":0,
 "updated":"2008-07-15T01:27:48",
 "updatedby":100,
 "workflowvalue":null}, "children" : [{"tablename" : "ad_process_para", "data" : {"ad_process_para_id":283,
 "name":"Accounting Schema",
 "ad_client_id":0,
 "ad_element_id":181,
 "ad_org_id":0,
 "ad_process_id":203,
 "ad_reference_id":19,
 "ad_reference_value_id":null,
 "ad_val_rule_id":null,
 "columnname":"C_AcctSchema_ID",
 "created":"2003-02-09T14:53:59",
 "createdby":0,
 "defaultvalue":null,
 "defaultvalue2":null,
 "description":"Rules for accounting",
 "displaylogic":null,
 "entitytype":"Accounting Rules",
 "fieldlength":0,
 "help":"An Accounting Schema defines the rules used in accounting such as costing method, currency and calendar",
 "isactive":"N",
 "iscentrallymaintained":"Y",
 "ismandatory":"N",
 "isrange":"N",
 "readonlylogic":null,
 "seqno":10,
 "updated":"2008-07-15T01:27:48",
 "updatedby":100,
 "valuemax":null,
 "valuemin":null,
 "vformat":null}, "children" : []}]},
 {"tablename" : "ad_process", "data" : {"ad_process_id":233,
 "value":"C_DocumentType Verify",
 "name":"Verify Document Types",
 "accesslevel":"6",
 "ad_client_id":0,
 "ad_form_id":null,
 "ad_org_id":0,
 "ad_printformat_id":null,
 "ad_reportview_id":null,
 "ad_tableselection_id":null,
 "ad_workflow_id":null,
 "classname":"org.compiere.process.DocumentTypeVerify",
 "copyfromprocess":null,
 "created":"2003-10-11T00:14:52",
 "createdby":0,
 "description":"Verify Document Types and Period Controls",
 "entitytype":"Accounting Rules",
 "help":"Makes sure that there is a DocumentType for all Document Base Types<br>\nCreates missing Period Controls for Document Type (You may have to open them)",
 "isactive":"Y",
 "isbetafunctionality":"N",
 "isdirectprint":"N",
 "isreport":"N",
 "isserverprocess":"N",
 "jasperreport":null,
 "procedurename":null,
 "showhelp":"Y",
 "statistic_count":0,
 "statistic_seconds":0,
 "updated":"2006-03-14T17:46:19",
 "updatedby":100,
 "workflowvalue":null}, "children" : []},
 {"tablename" : "ad_process", "data" : {"ad_process_id":275,
 "value":"C_DocTypeCounter Validate",
 "name":"Validate Document Type",
 "accesslevel":"2",
 "ad_client_id":0,
 "ad_form_id":null,
 "ad_org_id":0,
 "ad_printformat_id":null,
 "ad_reportview_id":null,
 "ad_tableselection_id":null,
 "ad_workflow_id":null,
 "classname":"org.compiere.process.DocTypeCounterValidate",
 "copyfromprocess":null,
 "created":"2004-04-14T13:20:11",
 "createdby":0,
 "description":null,
 "entitytype":"Accounting Rules",
 "help":null,
 "isactive":"Y",
 "isbetafunctionality":"N",
 "isdirectprint":"N",
 "isreport":"N",
 "isserverprocess":"N",
 "jasperreport":null,
 "procedurename":null,
 "showhelp":"Y",
 "statistic_count":0,
 "statistic_seconds":0,
 "updated":"2000-01-02T00:00:00",
 "updatedby":0,
 "workflowvalue":null}, "children" : []},
 {"tablename" : "ad_process", "data" : {"ad_process_id":299,
 "value":"GL_Distribution_Verify",
 "name":"Verify",
 "accesslevel":"3",
 "ad_client_id":0,
 "ad_form_id":null,
 "ad_org_id":0,
 "ad_printformat_id":null,
 "ad_reportview_id":null,
 "ad_tableselection_id":null,
 "ad_workflow_id":null,
 "classname":"org.compiere.process.DistributionVerify",
 "copyfromprocess":null,
 "created":"2004-08-04T01:45:16",
 "createdby":0,
 "description":"Verify GL Distribution",
 "entitytype":"Accounting Rules",
 "help":null,
 "isactive":"Y",
 "isbetafunctionality":"N",
 "isdirectprint":"N",
 "isreport":"N",
 "isserverprocess":"N",
 "jasperreport":null,
 "procedurename":null,
 "showhelp":"Y",
 "statistic_count":0,
 "statistic_seconds":0,
 "updated":"2000-01-02T00:00:00",
 "updatedby":0,
 "workflowvalue":null}, "children" : []},
 {"tablename" : "ad_process", "data" : {"ad_process_id":336,
 "value":"C_TaxDeclaration Create",
 "name":"Create Tax Declaration",
 "accesslevel":"3",
 "ad_client_id":0,
 "ad_form_id":null,
 "ad_org_id":0,
 "ad_printformat_id":null,
 "ad_reportview_id":null,
 "ad_tableselection_id":null,
 "ad_workflow_id":null,
 "classname":"org.compiere.process.TaxDeclarationCreate",
 "copyfromprocess":null,
 "created":"2005-10-18T11:19:09",
 "createdby":100,
 "description":"Create Tax Declaration from Documents",
 "entitytype":"Accounting Rules",
 "help":null,
 "isactive":"Y",
 "isbetafunctionality":"N",
 "isdirectprint":"N",
 "isreport":"N",
 "isserverprocess":"N",
 "jasperreport":null,
 "procedurename":null,
 "showhelp":"Y",
 "statistic_count":0,
 "statistic_seconds":0,
 "updated":"2008-03-03T22:12:48",
 "updatedby":0,
 "workflowvalue":null}, "children" : [{"tablename" : "ad_process_para", "data" : {"ad_process_para_id":681,
 "name":"Delete old/existing records",
 "ad_client_id":0,
 "ad_element_id":1669,
 "ad_org_id":0,
 "ad_process_id":336,
 "ad_reference_id":20,
 "ad_reference_value_id":null,
 "ad_val_rule_id":null,
 "columnname":"DeleteOld",
 "created":"2005-10-18T16:13:41",
 "createdby":100,
 "defaultvalue":"N",
 "defaultvalue2":null,
 "description":"Otherwise records will be added",
 "displaylogic":null,
 "entitytype":"Accounting Rules",
 "fieldlength":0,
 "help":null,
 "isactive":"Y",
 "iscentrallymaintained":"Y",
 "ismandatory":"N",
 "isrange":"N",
 "readonlylogic":null,
 "seqno":10,
 "updated":"2008-03-03T22:12:49",
 "updatedby":0,
 "valuemax":null,
 "valuemin":null,
 "vformat":null}, "children" : []}]},
 {"tablename" : "ad_process", "data" : {"ad_process_id":338,
 "value":"C_AcctSchema_CopyAcct",
 "name":"Create GL/Default",
 "accesslevel":"2",
 "ad_client_id":0,
 "ad_form_id":null,
 "ad_org_id":0,
 "ad_printformat_id":null,
 "ad_reportview_id":null,
 "ad_tableselection_id":null,
 "ad_workflow_id":null,
 "classname":"org.compiere.process.AcctSchemaCopyAcct",
 "copyfromprocess":null,
 "created":"2005-10-25T13:20:19",
 "createdby":100,
 "description":"Copy matching account element values from existing Accounting Schema",
 "entitytype":"Accounting Rules",
 "help":"Create the GL and Default accounts for this accounting schema and copy matching account element values.",
 "isactive":"Y",
 "isbetafunctionality":"N",
 "isdirectprint":"N",
 "isreport":"N",
 "isserverprocess":"N",
 "jasperreport":null,
 "procedurename":null,
 "showhelp":"Y",
 "statistic_count":0,
 "statistic_seconds":0,
 "updated":"2005-10-25T13:20:19",
 "updatedby":100,
 "workflowvalue":null}, "children" : [{"tablename" : "ad_process_para", "data" : {"ad_process_para_id":696,
 "name":"Accounting Schema",
 "ad_client_id":0,
 "ad_element_id":181,
 "ad_org_id":0,
 "ad_process_id":338,
 "ad_reference_id":19,
 "ad_reference_value_id":null,
 "ad_val_rule_id":null,
 "columnname":"C_AcctSchema_ID",
 "created":"2005-10-25T13:21:00",
 "createdby":100,
 "defaultvalue":null,
 "defaultvalue2":null,
 "description":"Rules for accounting",
 "displaylogic":null,
 "entitytype":"Accounting Rules",
 "fieldlength":0,
 "help":"An Accounting Schema defines the rules used in accounting such as costing method, currency and calendar",
 "isactive":"Y",
 "iscentrallymaintained":"Y",
 "ismandatory":"Y",
 "isrange":"N",
 "readonlylogic":null,
 "seqno":10,
 "updated":"2005-10-25T13:26:45",
 "updatedby":100,
 "valuemax":null,
 "valuemin":null,
 "vformat":null}, "children" : []}]},
 {"tablename" : "ad_process", "data" : {"ad_process_id":53068,
 "value":"Sequence_No_Update",
 "name":"Update Sequence No",
 "accesslevel":"3",
 "ad_client_id":0,
 "ad_form_id":null,
 "ad_org_id":0,
 "ad_printformat_id":null,
 "ad_reportview_id":null,
 "ad_tableselection_id":null,
 "ad_workflow_id":null,
 "classname":"org.adempiere.process.UpdateSequenceNo",
 "copyfromprocess":null,
 "created":"2008-02-02T12:41:31",
 "createdby":100,
 "description":null,
 "entitytype":"Accounting Rules",
 "help":null,
 "isactive":"Y",
 "isbetafunctionality":"N",
 "isdirectprint":"N",
 "isreport":"N",
 "isserverprocess":"N",
 "jasperreport":null,
 "procedurename":null,
 "showhelp":"Y",
 "statistic_count":0,
 "statistic_seconds":0,
 "updated":"2008-02-02T12:41:31",
 "updatedby":100,
 "workflowvalue":null}, "children" : [{"tablename" : "ad_process_para", "data" : {"ad_process_para_id":53129,
 "name":"Year",
 "ad_client_id":0,
 "ad_element_id":636,
 "ad_org_id":0,
 "ad_process_id":53068,
 "ad_reference_id":10,
 "ad_reference_value_id":null,
 "ad_val_rule_id":null,
 "columnname":"CalendarYear",
 "created":"2008-02-02T12:42:52",
 "createdby":100,
 "defaultvalue":null,
 "defaultvalue2":null,
 "description":"Calendar Year",
 "displaylogic":null,
 "entitytype":"Accounting Rules",
 "fieldlength":4,
 "help":"The Year identifies the Calendar year",
 "isactive":"Y",
 "iscentrallymaintained":"Y",
 "ismandatory":"Y",
 "isrange":"N",
 "readonlylogic":null,
 "seqno":10,
 "updated":"2008-03-26T13:32:19.969",
 "updatedby":100,
 "valuemax":null,
 "valuemin":null,
 "vformat":null}, "children" : []}]},
 {"tablename" : "ad_process", "data" : {"ad_process_id":53072,
 "value":"C_Invoce Calculate Tax",
 "name":"C_Invoce Calculate Tax",
 "accesslevel":"3",
 "ad_client_id":0,
 "ad_form_id":null,
 "ad_org_id":0,
 "ad_printformat_id":null,
 "ad_reportview_id":null,
 "ad_tableselection_id":null,
 "ad_workflow_id":null,
 "classname":"org.eevolution.process.InvoiceCalculateTax",
 "copyfromprocess":null,
 "created":"2008-03-03T22:13:59",
 "createdby":0,
 "description":null,
 "entitytype":"Accounting Rules",
 "help":null,
 "isactive":"Y",
 "isbetafunctionality":"Y",
 "isdirectprint":"N",
 "isreport":"N",
 "isserverprocess":"N",
 "jasperreport":null,
 "procedurename":null,
 "showhelp":"Y",
 "statistic_count":0,
 "statistic_seconds":0,
 "updated":"2008-03-03T22:13:59",
 "updatedby":0,
 "workflowvalue":null}, "children" : [{"tablename" : "ad_process_para", "data" : {"ad_process_para_id":53134,
 "name":"Invoice",
 "ad_client_id":0,
 "ad_element_id":1008,
 "ad_org_id":0,
 "ad_process_id":53072,
 "ad_reference_id":30,
 "ad_reference_value_id":null,
 "ad_val_rule_id":null,
 "columnname":"C_Invoice_ID",
 "created":"2008-03-03T22:14:01",
 "createdby":0,
 "defaultvalue":null,
 "defaultvalue2":null,
 "description":"Invoice Identifier",
 "displaylogic":null,
 "entitytype":"Accounting Rules",
 "fieldlength":20,
 "help":"The Invoice Document.",
 "isactive":"Y",
 "iscentrallymaintained":"Y",
 "ismandatory":"N",
 "isrange":"N",
 "readonlylogic":null,
 "seqno":10,
 "updated":"2008-03-03T22:14:01",
 "updatedby":0,
 "valuemax":null,
 "valuemin":null,
 "vformat":null}, "children" : []}]},
 {"tablename" : "ad_process", "data" : {"ad_process_id":53187,
 "value":"Client_Acct_Processor",
 "name":"Client Accounting Processor",
 "accesslevel":"2",
 "ad_client_id":0,
 "ad_form_id":null,
 "ad_org_id":0,
 "ad_printformat_id":null,
 "ad_reportview_id":null,
 "ad_tableselection_id":null,
 "ad_workflow_id":null,
 "classname":"org.adempiere.process.ClientAcctProcessor",
 "copyfromprocess":null,
 "created":"2009-09-13T17:53:15",
 "createdby":100,
 "description":"Client Accounting Processor",
 "entitytype":"Accounting Rules",
 "help":"The client accounting processor allows a user to run the accounting processor in a client session.  The system configurator parameter CLIENT_ACCOUNTING must be enabled (configured as [I]mmediate or [Q]ueue).",
 "isactive":"Y",
 "isbetafunctionality":"N",
 "isdirectprint":"N",
 "isreport":"N",
 "isserverprocess":"N",
 "jasperreport":null,
 "procedurename":null,
 "showhelp":"Y",
 "statistic_count":2,
 "statistic_seconds":2,
 "updated":"2019-02-11T01:52:56",
 "updatedby":100,
 "workflowvalue":null}, "children" : [{"tablename" : "ad_process_para", "data" : {"ad_process_para_id":53345,
 "name":"Accounting Schema",
 "ad_client_id":0,
 "ad_element_id":181,
 "ad_org_id":0,
 "ad_process_id":53187,
 "ad_reference_id":19,
 "ad_reference_value_id":null,
 "ad_val_rule_id":null,
 "columnname":"C_AcctSchema_ID",
 "created":"2009-09-13T17:57:59",
 "createdby":100,
 "defaultvalue":null,
 "defaultvalue2":null,
 "description":"Rules for accounting",
 "displaylogic":null,
 "entitytype":"Accounting Rules",
 "fieldlength":10,
 "help":"An Accounting Schema defines the rules used in accounting such as costing method, currency and calendar",
 "isactive":"Y",
 "iscentrallymaintained":"Y",
 "ismandatory":"N",
 "isrange":"N",
 "readonlylogic":null,
 "seqno":10,
 "updated":"2009-09-15T18:19:54.210614",
 "updatedby":100,
 "valuemax":null,
 "valuemin":null,
 "vformat":null}, "children" : []},{"tablename" : "ad_process_para", "data" : {"ad_process_para_id":53346,
 "name":"Table",
 "ad_client_id":0,
 "ad_element_id":126,
 "ad_org_id":0,
 "ad_process_id":53187,
 "ad_reference_id":19,
 "ad_reference_value_id":null,
 "ad_val_rule_id":213,
 "columnname":"AD_Table_ID",
 "created":"2009-09-13T17:59:17",
 "createdby":100,
 "defaultvalue":null,
 "defaultvalue2":null,
 "description":"Database Table information",
 "displaylogic":null,
 "entitytype":"Accounting Rules",
 "fieldlength":10,
 "help":"The Database Table provides the information of the table definition",
 "isactive":"Y",
 "iscentrallymaintained":"Y",
 "ismandatory":"N",
 "isrange":"N",
 "readonlylogic":null,
 "seqno":20,
 "updated":"2009-09-13T18:18:05",
 "updatedby":100,
 "valuemax":null,
 "valuemin":null,
 "vformat":null}, "children" : []}]},
 {"tablename" : "ad_process", "data" : {"ad_process_id":53421,
 "value":"10000000",
 "name":"CopyFromDistribution",
 "accesslevel":"3",
 "ad_client_id":0,
 "ad_form_id":null,
 "ad_org_id":0,
 "ad_printformat_id":null,
 "ad_reportview_id":null,
 "ad_tableselection_id":null,
 "ad_workflow_id":null,
 "classname":"org.compiere.process.CopyFromDistribution",
 "copyfromprocess":"N",
 "created":"2013-07-26T14:10:55",
 "createdby":100,
 "description":null,
 "entitytype":"Accounting Rules",
 "help":null,
 "isactive":"Y",
 "isbetafunctionality":"N",
 "isdirectprint":"N",
 "isreport":"N",
 "isserverprocess":"N",
 "jasperreport":null,
 "procedurename":null,
 "showhelp":"Y",
 "statistic_count":0,
 "statistic_seconds":0,
 "updated":"2013-07-26T14:10:55",
 "updatedby":100,
 "workflowvalue":null}, "children" : [{"tablename" : "ad_process_para", "data" : {"ad_process_para_id":53931,
 "name":"GL Distribution",
 "ad_client_id":0,
 "ad_element_id":2469,
 "ad_org_id":0,
 "ad_process_id":53421,
 "ad_reference_id":30,
 "ad_reference_value_id":null,
 "ad_val_rule_id":null,
 "columnname":"GL_Distribution_ID",
 "created":"2013-07-26T14:12:26",
 "createdby":100,
 "defaultvalue":null,
 "defaultvalue2":null,
 "description":"General Ledger Distribution",
 "displaylogic":null,
 "entitytype":"Accounting Rules",
 "fieldlength":0,
 "help":"If the account combination criteria of the Distribution is met, the posting to the account combination is replaced by the account combinations of the distribution lines.  The distribution is prorated based on the ratio of the lines. The distribution must be valid to be used.",
 "isactive":"Y",
 "iscentrallymaintained":"Y",
 "ismandatory":"Y",
 "isrange":"N",
 "readonlylogic":null,
 "seqno":10,
 "updated":"2019-02-04T13:39:33.247367",
 "updatedby":100,
 "valuemax":null,
 "valuemin":null,
 "vformat":null}, "children" : []}]},
 {"tablename" : "ad_process", "data" : {"ad_process_id":53784,
 "value":"Create Currency Rate",
 "name":"Create Currency Rate",
 "accesslevel":"3",
 "ad_client_id":0,
 "ad_form_id":null,
 "ad_org_id":0,
 "ad_printformat_id":null,
 "ad_reportview_id":null,
 "ad_tableselection_id":null,
 "ad_workflow_id":null,
 "classname":"org.compiere.process.CreateCurrencyRate",
 "copyfromprocess":"N",
 "created":"2015-07-25T10:50:16",
 "createdby":0,
 "description":null,
 "entitytype":"Accounting Rules",
 "help":null,
 "isactive":"Y",
 "isbetafunctionality":"N",
 "isdirectprint":"N",
 "isreport":"N",
 "isserverprocess":"N",
 "jasperreport":null,
 "procedurename":null,
 "showhelp":"Y",
 "statistic_count":0,
 "statistic_seconds":0,
 "updated":"2015-07-25T10:50:16",
 "updatedby":0,
 "workflowvalue":null}, "children" : []}]