[{"tablename" : "ad_process", "data" : {"ad_process_id":189,
 "value":"PA_ReportColumnSet_Copy",
 "name":"Copy Columns",
 "accesslevel":"7",
 "ad_client_id":0,
 "ad_form_id":null,
 "ad_org_id":0,
 "ad_printformat_id":null,
 "ad_reportview_id":null,
 "ad_tableselection_id":null,
 "ad_workflow_id":null,
 "classname":"org.compiere.process.ReportColumnSet_Copy",
 "copyfromprocess":null,
 "created":"2002-09-02T21:22:49",
 "createdby":0,
 "description":"Copy Report Columns from other Column Set",
 "entitytype":"Financial Reporting",
 "help":"Copy columns at the end of this Column Set. Please note that you need to re-set the calculation operands.",
 "isactive":"Y",
 "isbetafunctionality":"N",
 "isdirectprint":"N",
 "isreport":"N",
 "isserverprocess":"N",
 "jasperreport":null,
 "procedurename":null,
 "showhelp":"Y",
 "statistic_count":0,
 "statistic_seconds":0,
 "updated":"2000-01-02T00:00:00",
 "updatedby":0,
 "workflowvalue":null}, "children" : [{"tablename" : "ad_process_para", "data" : {"ad_process_para_id":249,
 "name":"Report Column Set",
 "ad_client_id":0,
 "ad_element_id":null,
 "ad_org_id":0,
 "ad_process_id":189,
 "ad_reference_id":19,
 "ad_reference_value_id":null,
 "ad_val_rule_id":null,
 "columnname":"PA_ReportColumnSet_ID",
 "created":"2002-09-02T21:24:32",
 "createdby":0,
 "defaultvalue":null,
 "defaultvalue2":null,
 "description":"Collection of Columns for Report",
 "displaylogic":null,
 "entitytype":"Financial Reporting",
 "fieldlength":0,
 "help":"The Report Column Set identifies the columns used in a Report.",
 "isactive":"Y",
 "iscentrallymaintained":"Y",
 "ismandatory":"Y",
 "isrange":"N",
 "readonlylogic":null,
 "seqno":10,
 "updated":"2000-01-02T00:00:00",
 "updatedby":0,
 "valuemax":null,
 "valuemin":null,
 "vformat":null}, "children" : []}]},
 {"tablename" : "ad_process", "data" : {"ad_process_id":190,
 "value":"PA_ReportLineSet_Copy",
 "name":"Copy Lines",
 "accesslevel":"7",
 "ad_client_id":0,
 "ad_form_id":null,
 "ad_org_id":0,
 "ad_printformat_id":null,
 "ad_reportview_id":null,
 "ad_tableselection_id":null,
 "ad_workflow_id":null,
 "classname":"org.compiere.process.ReportLineSet_Copy",
 "copyfromprocess":null,
 "created":"2002-09-02T21:26:36",
 "createdby":0,
 "description":"Copy Report Lines from other Line Set",
 "entitytype":"Financial Reporting",
 "help":"Copy lines at the end of this Line Set. Please note that you need to re-set the calculation operands.",
 "isactive":"Y",
 "isbetafunctionality":"N",
 "isdirectprint":"N",
 "isreport":"N",
 "isserverprocess":"N",
 "jasperreport":null,
 "procedurename":null,
 "showhelp":"Y",
 "statistic_count":0,
 "statistic_seconds":0,
 "updated":"2005-12-12T12:25:24",
 "updatedby":100,
 "workflowvalue":null}, "children" : [{"tablename" : "ad_process_para", "data" : {"ad_process_para_id":300,
 "name":"Report Line Set",
 "ad_client_id":0,
 "ad_element_id":1615,
 "ad_org_id":0,
 "ad_process_id":190,
 "ad_reference_id":19,
 "ad_reference_value_id":null,
 "ad_val_rule_id":null,
 "columnname":"PA_ReportLineSet_ID",
 "created":"2003-03-05T01:15:33",
 "createdby":0,
 "defaultvalue":null,
 "defaultvalue2":null,
 "description":null,
 "displaylogic":null,
 "entitytype":"Financial Reporting",
 "fieldlength":0,
 "help":null,
 "isactive":"Y",
 "iscentrallymaintained":"Y",
 "ismandatory":"Y",
 "isrange":"N",
 "readonlylogic":null,
 "seqno":10,
 "updated":"2000-01-02T00:00:00",
 "updatedby":0,
 "valuemax":null,
 "valuemin":null,
 "vformat":null}, "children" : []}]},
 {"tablename" : "ad_process", "data" : {"ad_process_id":202,
 "value":"FinReport",
 "name":"Create Report",
 "accesslevel":"3",
 "ad_client_id":0,
 "ad_form_id":null,
 "ad_org_id":0,
 "ad_printformat_id":null,
 "ad_reportview_id":126,
 "ad_tableselection_id":null,
 "ad_workflow_id":null,
 "classname":"org.compiere.report.FinReport",
 "copyfromprocess":null,
 "created":"2003-02-03T14:40:27",
 "createdby":0,
 "description":"Create Financial Report",
 "entitytype":"Financial Reporting",
 "help":"The default period is the current period. You can optionally enter other restrictions.  You can select an alternative Reporting Hierarchy.",
 "isactive":"Y",
 "isbetafunctionality":"N",
 "isdirectprint":"N",
 "isreport":"Y",
 "isserverprocess":"N",
 "jasperreport":null,
 "procedurename":null,
 "showhelp":"Y",
 "statistic_count":3,
 "statistic_seconds":3,
 "updated":"2019-02-11T01:53:06",
 "updatedby":100,
 "workflowvalue":null}, "children" : [{"tablename" : "ad_process_para", "data" : {"ad_process_para_id":280,
 "name":"Period",
 "ad_client_id":0,
 "ad_element_id":206,
 "ad_org_id":0,
 "ad_process_id":202,
 "ad_reference_id":18,
 "ad_reference_value_id":275,
 "ad_val_rule_id":217,
 "columnname":"C_Period_ID",
 "created":"2003-02-03T14:41:52",
 "createdby":0,
 "defaultvalue":"@SQL=(SELECT p.C_Period_ID AS DefaultValue FROM C_Period p JOIN C_Year y ON y.C_Year_ID=p.C_Year_ID WHERE p.StartDate <= now() - interval '1 month' AND p.EndDate >= now() - interval '1 month' AND y.C_Calendar_ID=@C_Calendar_ID@)",
 "defaultvalue2":null,
 "description":"Period of the Calendar",
 "displaylogic":null,
 "entitytype":"Financial Reporting",
 "fieldlength":0,
 "help":"The Period indicates an exclusive range of dates for a calendar.",
 "isactive":"Y",
 "iscentrallymaintained":"Y",
 "ismandatory":"N",
 "isrange":"N",
 "readonlylogic":null,
 "seqno":10,
 "updated":"2016-07-01T00:50:56",
 "updatedby":0,
 "valuemax":null,
 "valuemin":null,
 "vformat":null}, "children" : []},{"tablename" : "ad_process_para", "data" : {"ad_process_para_id":286,
 "name":"Organisation",
 "ad_client_id":0,
 "ad_element_id":479,
 "ad_org_id":0,
 "ad_process_id":202,
 "ad_reference_id":18,
 "ad_reference_value_id":322,
 "ad_val_rule_id":null,
 "columnname":"Org_ID",
 "created":"2003-02-11T23:37:35",
 "createdby":0,
 "defaultvalue":null,
 "defaultvalue2":null,
 "description":"Organisational entity within client",
 "displaylogic":null,
 "entitytype":"Financial Reporting",
 "fieldlength":0,
 "help":"An organisation is a unit of your client or legal entity - examples are store, department.",
 "isactive":"Y",
 "iscentrallymaintained":"Y",
 "ismandatory":"N",
 "isrange":"N",
 "readonlylogic":null,
 "seqno":20,
 "updated":"2000-01-02T00:00:00",
 "updatedby":0,
 "valuemax":null,
 "valuemin":null,
 "vformat":null}, "children" : []},{"tablename" : "ad_process_para", "data" : {"ad_process_para_id":287,
 "name":"Business Partner ",
 "ad_client_id":0,
 "ad_element_id":187,
 "ad_org_id":0,
 "ad_process_id":202,
 "ad_reference_id":19,
 "ad_reference_value_id":null,
 "ad_val_rule_id":null,
 "columnname":"C_BPartner_ID",
 "created":"2003-02-11T23:53:52",
 "createdby":0,
 "defaultvalue":null,
 "defaultvalue2":null,
 "description":"Identifies a Business Partner",
 "displaylogic":null,
 "entitytype":"Financial Reporting",
 "fieldlength":0,
 "help":"A Business Partner is anyone with whom you transact.  This can include Vendor, Customer, Employee or Salesperson",
 "isactive":"Y",
 "iscentrallymaintained":"Y",
 "ismandatory":"N",
 "isrange":"N",
 "readonlylogic":null,
 "seqno":30,
 "updated":"2005-10-26T15:45:31",
 "updatedby":100,
 "valuemax":null,
 "valuemin":null,
 "vformat":null}, "children" : []},{"tablename" : "ad_process_para", "data" : {"ad_process_para_id":288,
 "name":"Product",
 "ad_client_id":0,
 "ad_element_id":454,
 "ad_org_id":0,
 "ad_process_id":202,
 "ad_reference_id":19,
 "ad_reference_value_id":null,
 "ad_val_rule_id":null,
 "columnname":"M_Product_ID",
 "created":"2003-02-11T23:54:32",
 "createdby":0,
 "defaultvalue":null,
 "defaultvalue2":null,
 "description":"Product, Service, Item",
 "displaylogic":null,
 "entitytype":"Financial Reporting",
 "fieldlength":0,
 "help":"Identifies an item which is either purchased or sold in this organization.",
 "isactive":"Y",
 "iscentrallymaintained":"Y",
 "ismandatory":"N",
 "isrange":"N",
 "readonlylogic":null,
 "seqno":40,
 "updated":"2005-10-26T15:45:36",
 "updatedby":100,
 "valuemax":null,
 "valuemin":null,
 "vformat":null}, "children" : []},{"tablename" : "ad_process_para", "data" : {"ad_process_para_id":289,
 "name":"Project",
 "ad_client_id":0,
 "ad_element_id":208,
 "ad_org_id":0,
 "ad_process_id":202,
 "ad_reference_id":19,
 "ad_reference_value_id":null,
 "ad_val_rule_id":null,
 "columnname":"C_Project_ID",
 "created":"2003-02-12T00:21:19",
 "createdby":0,
 "defaultvalue":null,
 "defaultvalue2":null,
 "description":"Financial Project",
 "displaylogic":"@$Element_PJ@='Y'",
 "entitytype":"Financial Reporting",
 "fieldlength":0,
 "help":"A Project allows you to track and control internal or external activities.",
 "isactive":"Y",
 "iscentrallymaintained":"Y",
 "ismandatory":"N",
 "isrange":"N",
 "readonlylogic":null,
 "seqno":50,
 "updated":"2009-09-22T14:58:03",
 "updatedby":100,
 "valuemax":null,
 "valuemin":null,
 "vformat":null}, "children" : []},{"tablename" : "ad_process_para", "data" : {"ad_process_para_id":290,
 "name":"Activity",
 "ad_client_id":0,
 "ad_element_id":1005,
 "ad_org_id":0,
 "ad_process_id":202,
 "ad_reference_id":19,
 "ad_reference_value_id":null,
 "ad_val_rule_id":null,
 "columnname":"C_Activity_ID",
 "created":"2003-02-12T00:21:58",
 "createdby":0,
 "defaultvalue":null,
 "defaultvalue2":null,
 "description":"Business Activity",
 "displaylogic":"@$Element_AY@='Y'",
 "entitytype":"Financial Reporting",
 "fieldlength":0,
 "help":"Activities indicate tasks that are performed and used to utilize Activity based Costing",
 "isactive":"Y",
 "iscentrallymaintained":"Y",
 "ismandatory":"N",
 "isrange":"N",
 "readonlylogic":null,
 "seqno":60,
 "updated":"2009-09-22T14:58:09",
 "updatedby":100,
 "valuemax":null,
 "valuemin":null,
 "vformat":null}, "children" : []},{"tablename" : "ad_process_para", "data" : {"ad_process_para_id":291,
 "name":"Sales Region",
 "ad_client_id":0,
 "ad_element_id":210,
 "ad_org_id":0,
 "ad_process_id":202,
 "ad_reference_id":19,
 "ad_reference_value_id":null,
 "ad_val_rule_id":null,
 "columnname":"C_SalesRegion_ID",
 "created":"2003-02-12T00:22:42",
 "createdby":0,
 "defaultvalue":null,
 "defaultvalue2":null,
 "description":"Sales coverage region",
 "displaylogic":null,
 "entitytype":"Financial Reporting",
 "fieldlength":0,
 "help":"The Sales Region indicates a specific area of sales coverage.",
 "isactive":"Y",
 "iscentrallymaintained":"Y",
 "ismandatory":"N",
 "isrange":"N",
 "readonlylogic":null,
 "seqno":70,
 "updated":"2000-01-02T00:00:00",
 "updatedby":0,
 "valuemax":null,
 "valuemin":null,
 "vformat":null}, "children" : []},{"tablename" : "ad_process_para", "data" : {"ad_process_para_id":292,
 "name":"Campaign",
 "ad_client_id":0,
 "ad_element_id":550,
 "ad_org_id":0,
 "ad_process_id":202,
 "ad_reference_id":19,
 "ad_reference_value_id":null,
 "ad_val_rule_id":null,
 "columnname":"C_Campaign_ID",
 "created":"2003-02-12T00:23:18",
 "createdby":0,
 "defaultvalue":null,
 "defaultvalue2":null,
 "description":"Marketing Campaign",
 "displaylogic":"@$Element_MC@='Y'",
 "entitytype":"Financial Reporting",
 "fieldlength":0,
 "help":"The Campaign defines a unique marketing program.  Projects can be associated with a pre defined Marketing Campaign.  You can then report based on a specific Campaign.",
 "isactive":"Y",
 "iscentrallymaintained":"Y",
 "ismandatory":"N",
 "isrange":"N",
 "readonlylogic":null,
 "seqno":80,
 "updated":"2009-09-22T14:58:17",
 "updatedby":100,
 "valuemax":null,
 "valuemin":null,
 "vformat":null}, "children" : []},{"tablename" : "ad_process_para", "data" : {"ad_process_para_id":453,
 "name":"Update Balances",
 "ad_client_id":0,
 "ad_element_id":2344,
 "ad_org_id":0,
 "ad_process_id":202,
 "ad_reference_id":20,
 "ad_reference_value_id":null,
 "ad_val_rule_id":null,
 "columnname":"UpdateBalances",
 "created":"2004-01-16T22:07:13",
 "createdby":0,
 "defaultvalue":"Y",
 "defaultvalue2":null,
 "description":"Update Accounting Balances first (not required for subsequent runs)",
 "displaylogic":null,
 "entitytype":"Financial Reporting",
 "fieldlength":0,
 "help":null,
 "isactive":"N",
 "iscentrallymaintained":"Y",
 "ismandatory":"Y",
 "isrange":"N",
 "readonlylogic":null,
 "seqno":140,
 "updated":"2010-03-13T17:44:32",
 "updatedby":100,
 "valuemax":null,
 "valuemin":null,
 "vformat":null}, "children" : []},{"tablename" : "ad_process_para", "data" : {"ad_process_para_id":547,
 "name":"Details/Source First",
 "ad_client_id":0,
 "ad_element_id":null,
 "ad_org_id":0,
 "ad_process_id":202,
 "ad_reference_id":20,
 "ad_reference_value_id":null,
 "ad_val_rule_id":null,
 "columnname":"DetailsSourceFirst",
 "created":"2004-08-25T00:51:49",
 "createdby":0,
 "defaultvalue":"Y",
 "defaultvalue2":null,
 "description":"Details and Sources are printed before the Line",
 "displaylogic":null,
 "entitytype":"Financial Reporting",
 "fieldlength":0,
 "help":null,
 "isactive":"Y",
 "iscentrallymaintained":"Y",
 "ismandatory":"N",
 "isrange":"N",
 "readonlylogic":null,
 "seqno":110,
 "updated":"2016-04-11T16:41:37",
 "updatedby":0,
 "valuemax":null,
 "valuemin":null,
 "vformat":null}, "children" : []},{"tablename" : "ad_process_para", "data" : {"ad_process_para_id":685,
 "name":"Reporting Hierarchy",
 "ad_client_id":0,
 "ad_element_id":2868,
 "ad_org_id":0,
 "ad_process_id":202,
 "ad_reference_id":19,
 "ad_reference_value_id":null,
 "ad_val_rule_id":null,
 "columnname":"PA_Hierarchy_ID",
 "created":"2005-10-24T08:01:48",
 "createdby":100,
 "defaultvalue":null,
 "defaultvalue2":null,
 "description":"Optional Reporting Hierarchy - If not selected the default hierarchy trees are used.",
 "displaylogic":null,
 "entitytype":"Financial Reporting",
 "fieldlength":0,
 "help":"Reporting Hierarchy allows you to select different Hierarchies/Trees for the report.\nAccounting Segments like Organization, Account, Product may have several hierarchies to accomodate different views on the business.",
 "isactive":"Y",
 "iscentrallymaintained":"Y",
 "ismandatory":"N",
 "isrange":"N",
 "readonlylogic":null,
 "seqno":120,
 "updated":"2009-09-22T14:52:11",
 "updatedby":100,
 "valuemax":null,
 "valuemin":null,
 "vformat":null}, "children" : []},{"tablename" : "ad_process_para", "data" : {"ad_process_para_id":53313,
 "name":"Report Cube",
 "ad_client_id":0,
 "ad_element_id":53821,
 "ad_org_id":0,
 "ad_process_id":202,
 "ad_reference_id":18,
 "ad_reference_value_id":53299,
 "ad_val_rule_id":52050,
 "columnname":"PA_ReportCube_ID",
 "created":"2009-05-19T23:16:02",
 "createdby":100,
 "defaultvalue":"@PA_ReportCube_ID@",
 "defaultvalue2":null,
 "description":"Define reporting cube for pre-calculation of summary accounting data.",
 "displaylogic":null,
 "entitytype":"Financial Reporting",
 "fieldlength":10,
 "help":"Summary data will be generated for each period of the selected calendar, grouped by the selected dimensions..",
 "isactive":"Y",
 "iscentrallymaintained":"Y",
 "ismandatory":"N",
 "isrange":"N",
 "readonlylogic":null,
 "seqno":130,
 "updated":"2009-09-22T14:52:14",
 "updatedby":100,
 "valuemax":null,
 "valuemin":null,
 "vformat":null}, "children" : []},{"tablename" : "ad_process_para", "data" : {"ad_process_para_id":53357,
 "name":"User List 1 - Depot",
 "ad_client_id":0,
 "ad_element_id":613,
 "ad_org_id":0,
 "ad_process_id":202,
 "ad_reference_id":18,
 "ad_reference_value_id":134,
 "ad_val_rule_id":null,
 "columnname":"User1_ID",
 "created":"2009-09-22T14:58:58",
 "createdby":100,
 "defaultvalue":null,
 "defaultvalue2":null,
 "description":"User defined list element #1",
 "displaylogic":"@$Element_U1@=Y",
 "entitytype":"Financial Reporting",
 "fieldlength":10,
 "help":"The user defined element displays the optional elements that have been defined for this account combination.",
 "isactive":"Y",
 "iscentrallymaintained":"Y",
 "ismandatory":"N",
 "isrange":"N",
 "readonlylogic":null,
 "seqno":90,
 "updated":"2009-09-22T14:58:58",
 "updatedby":100,
 "valuemax":null,
 "valuemin":null,
 "vformat":null}, "children" : []},{"tablename" : "ad_process_para", "data" : {"ad_process_para_id":53358,
 "name":"User List 2",
 "ad_client_id":0,
 "ad_element_id":614,
 "ad_org_id":0,
 "ad_process_id":202,
 "ad_reference_id":18,
 "ad_reference_value_id":137,
 "ad_val_rule_id":null,
 "columnname":"User2_ID",
 "created":"2009-09-22T14:59:22",
 "createdby":100,
 "defaultvalue":null,
 "defaultvalue2":null,
 "description":"User defined list element #2",
 "displaylogic":"@$Element_U2@=Y",
 "entitytype":"Financial Reporting",
 "fieldlength":10,
 "help":"The user defined element displays the optional elements that have been defined for this account combination.",
 "isactive":"Y",
 "iscentrallymaintained":"Y",
 "ismandatory":"N",
 "isrange":"N",
 "readonlylogic":null,
 "seqno":100,
 "updated":"2009-09-22T14:59:22",
 "updatedby":100,
 "valuemax":null,
 "valuemin":null,
 "vformat":null}, "children" : []}]},
 {"tablename" : "ad_process", "data" : {"ad_process_id":204,
 "value":"FinStatement",
 "name":"Statement of Accounts",
 "accesslevel":"1",
 "ad_client_id":0,
 "ad_form_id":null,
 "ad_org_id":0,
 "ad_printformat_id":null,
 "ad_reportview_id":127,
 "ad_tableselection_id":null,
 "ad_workflow_id":null,
 "classname":"org.compiere.report.FinStatement",
 "copyfromprocess":null,
 "created":"2003-02-14T15:26:17",
 "createdby":0,
 "description":"Report Account Statement Beginning Balance and Transactions",
 "entitytype":"Financial Reporting",
 "help":"Select a Period (current period if empty) or enter a Account Date Range. You can select an alternative Reporting Hierarchy.",
 "isactive":"Y",
 "isbetafunctionality":"N",
 "isdirectprint":"N",
 "isreport":"Y",
 "isserverprocess":"N",
 "jasperreport":null,
 "procedurename":null,
 "showhelp":"Y",
 "statistic_count":0,
 "statistic_seconds":0,
 "updated":"2005-10-24T08:12:22",
 "updatedby":100,
 "workflowvalue":null}, "children" : [{"tablename" : "ad_process_para", "data" : {"ad_process_para_id":294,
 "name":"Period",
 "ad_client_id":0,
 "ad_element_id":206,
 "ad_org_id":0,
 "ad_process_id":204,
 "ad_reference_id":18,
 "ad_reference_value_id":275,
 "ad_val_rule_id":null,
 "columnname":"C_Period_ID",
 "created":"2003-02-14T15:34:51",
 "createdby":0,
 "defaultvalue":null,
 "defaultvalue2":null,
 "description":"Period of the Calendar",
 "displaylogic":null,
 "entitytype":"Financial Reporting",
 "fieldlength":0,
 "help":"The Period indicates an exclusive range of dates for a calendar.",
 "isactive":"Y",
 "iscentrallymaintained":"Y",
 "ismandatory":"N",
 "isrange":"N",
 "readonlylogic":null,
 "seqno":10,
 "updated":"2000-01-02T00:00:00",
 "updatedby":0,
 "valuemax":null,
 "valuemin":null,
 "vformat":null}, "children" : []},{"tablename" : "ad_process_para", "data" : {"ad_process_para_id":295,
 "name":"Account",
 "ad_client_id":0,
 "ad_element_id":148,
 "ad_org_id":0,
 "ad_process_id":204,
 "ad_reference_id":18,
 "ad_reference_value_id":331,
 "ad_val_rule_id":null,
 "columnname":"Account_ID",
 "created":"2003-02-14T15:38:47",
 "createdby":0,
 "defaultvalue":null,
 "defaultvalue2":null,
 "description":"Account used",
 "displaylogic":null,
 "entitytype":"Financial Reporting",
 "fieldlength":0,
 "help":"The (natural) account used",
 "isactive":"Y",
 "iscentrallymaintained":"Y",
 "ismandatory":"N",
 "isrange":"N",
 "readonlylogic":null,
 "seqno":40,
 "updated":"2000-01-02T00:00:00",
 "updatedby":0,
 "valuemax":null,
 "valuemin":null,
 "vformat":null}, "children" : []},{"tablename" : "ad_process_para", "data" : {"ad_process_para_id":296,
 "name":"Business Partner ",
 "ad_client_id":0,
 "ad_element_id":187,
 "ad_org_id":0,
 "ad_process_id":204,
 "ad_reference_id":19,
 "ad_reference_value_id":null,
 "ad_val_rule_id":null,
 "columnname":"C_BPartner_ID",
 "created":"2003-02-14T15:40:22",
 "createdby":0,
 "defaultvalue":null,
 "defaultvalue2":null,
 "description":"Identifies a Business Partner",
 "displaylogic":null,
 "entitytype":"Financial Reporting",
 "fieldlength":0,
 "help":"A Business Partner is anyone with whom you transact.  This can include Vendor, Customer, Employee or Salesperson",
 "isactive":"Y",
 "iscentrallymaintained":"Y",
 "ismandatory":"N",
 "isrange":"N",
 "readonlylogic":null,
 "seqno":50,
 "updated":"2005-10-26T15:45:54",
 "updatedby":100,
 "valuemax":null,
 "valuemin":null,
 "vformat":null}, "children" : []},{"tablename" : "ad_process_para", "data" : {"ad_process_para_id":297,
 "name":"Account Date",
 "ad_client_id":0,
 "ad_element_id":263,
 "ad_org_id":0,
 "ad_process_id":204,
 "ad_reference_id":15,
 "ad_reference_value_id":null,
 "ad_val_rule_id":null,
 "columnname":"DateAcct",
 "created":"2003-02-14T15:47:52",
 "createdby":0,
 "defaultvalue":null,
 "defaultvalue2":null,
 "description":"Accounting Date",
 "displaylogic":null,
 "entitytype":"Financial Reporting",
 "fieldlength":0,
 "help":"The Accounting Date indicates the date to be used on the General Ledger account entries generated from this document. It is also used for any currency conversion.",
 "isactive":"Y",
 "iscentrallymaintained":"Y",
 "ismandatory":"N",
 "isrange":"Y",
 "readonlylogic":null,
 "seqno":20,
 "updated":"2000-01-02T00:00:00",
 "updatedby":0,
 "valuemax":null,
 "valuemin":null,
 "vformat":null}, "children" : []},{"tablename" : "ad_process_para", "data" : {"ad_process_para_id":298,
 "name":"Accounting Schema",
 "ad_client_id":0,
 "ad_element_id":181,
 "ad_org_id":0,
 "ad_process_id":204,
 "ad_reference_id":19,
 "ad_reference_value_id":null,
 "ad_val_rule_id":null,
 "columnname":"C_AcctSchema_ID",
 "created":"2003-02-15T01:14:33",
 "createdby":0,
 "defaultvalue":null,
 "defaultvalue2":null,
 "description":"Rules for accounting",
 "displaylogic":null,
 "entitytype":"Financial Reporting",
 "fieldlength":0,
 "help":"An Accounting Schema defines the rules used in accounting such as costing method, currency and calendar",
 "isactive":"Y",
 "iscentrallymaintained":"Y",
 "ismandatory":"Y",
 "isrange":"N",
 "readonlylogic":null,
 "seqno":5,
 "updated":"2000-01-02T00:00:00",
 "updatedby":0,
 "valuemax":null,
 "valuemin":null,
 "vformat":null}, "children" : []},{"tablename" : "ad_process_para", "data" : {"ad_process_para_id":299,
 "name":"Project",
 "ad_client_id":0,
 "ad_element_id":208,
 "ad_org_id":0,
 "ad_process_id":204,
 "ad_reference_id":19,
 "ad_reference_value_id":null,
 "ad_val_rule_id":null,
 "columnname":"C_Project_ID",
 "created":"2003-02-15T01:15:36",
 "createdby":0,
 "defaultvalue":null,
 "defaultvalue2":null,
 "description":"Financial Project",
 "displaylogic":"@$Element_PJ@='Y'",
 "entitytype":"Financial Reporting",
 "fieldlength":0,
 "help":"A Project allows you to track and control internal or external activities.",
 "isactive":"Y",
 "iscentrallymaintained":"Y",
 "ismandatory":"N",
 "isrange":"N",
 "readonlylogic":null,
 "seqno":70,
 "updated":"2009-09-22T14:59:47",
 "updatedby":100,
 "valuemax":null,
 "valuemin":null,
 "vformat":null}, "children" : []},{"tablename" : "ad_process_para", "data" : {"ad_process_para_id":454,
 "name":"Update Balances",
 "ad_client_id":0,
 "ad_element_id":2344,
 "ad_org_id":0,
 "ad_process_id":204,
 "ad_reference_id":20,
 "ad_reference_value_id":null,
 "ad_val_rule_id":null,
 "columnname":"UpdateBalances",
 "created":"2004-01-16T22:07:50",
 "createdby":0,
 "defaultvalue":"Y",
 "defaultvalue2":null,
 "description":"Update Accounting Balances first (not required for subsequent runs)",
 "displaylogic":null,
 "entitytype":"Financial Reporting",
 "fieldlength":0,
 "help":null,
 "isactive":"N",
 "iscentrallymaintained":"Y",
 "ismandatory":"N",
 "isrange":"N",
 "readonlylogic":null,
 "seqno":140,
 "updated":"2010-03-13T17:45:12",
 "updatedby":100,
 "valuemax":null,
 "valuemin":null,
 "vformat":null}, "children" : []},{"tablename" : "ad_process_para", "data" : {"ad_process_para_id":456,
 "name":"Product",
 "ad_client_id":0,
 "ad_element_id":454,
 "ad_org_id":0,
 "ad_process_id":204,
 "ad_reference_id":19,
 "ad_reference_value_id":null,
 "ad_val_rule_id":null,
 "columnname":"M_Product_ID",
 "created":"2004-01-17T20:34:18",
 "createdby":0,
 "defaultvalue":null,
 "defaultvalue2":null,
 "description":"Product, Service, Item",
 "displaylogic":null,
 "entitytype":"Financial Reporting",
 "fieldlength":0,
 "help":"Identifies an item which is either purchased or sold in this organization.",
 "isactive":"Y",
 "iscentrallymaintained":"Y",
 "ismandatory":"N",
 "isrange":"N",
 "readonlylogic":null,
 "seqno":60,
 "updated":"2005-10-26T15:45:59",
 "updatedby":100,
 "valuemax":null,
 "valuemin":null,
 "vformat":null}, "children" : []},{"tablename" : "ad_process_para", "data" : {"ad_process_para_id":457,
 "name":"Activity",
 "ad_client_id":0,
 "ad_element_id":1005,
 "ad_org_id":0,
 "ad_process_id":204,
 "ad_reference_id":19,
 "ad_reference_value_id":null,
 "ad_val_rule_id":null,
 "columnname":"C_Activity_ID",
 "created":"2004-01-17T20:34:50",
 "createdby":0,
 "defaultvalue":null,
 "defaultvalue2":null,
 "description":"Business Activity",
 "displaylogic":"@$Element_AY@='Y'",
 "entitytype":"Financial Reporting",
 "fieldlength":0,
 "help":"Activities indicate tasks that are performed and used to utilize Activity based Costing",
 "isactive":"Y",
 "iscentrallymaintained":"Y",
 "ismandatory":"N",
 "isrange":"N",
 "readonlylogic":null,
 "seqno":80,
 "updated":"2009-09-22T14:59:52",
 "updatedby":100,
 "valuemax":null,
 "valuemin":null,
 "vformat":null}, "children" : []},{"tablename" : "ad_process_para", "data" : {"ad_process_para_id":458,
 "name":"Campaign",
 "ad_client_id":0,
 "ad_element_id":550,
 "ad_org_id":0,
 "ad_process_id":204,
 "ad_reference_id":19,
 "ad_reference_value_id":null,
 "ad_val_rule_id":null,
 "columnname":"C_Campaign_ID",
 "created":"2004-01-17T20:37:58",
 "createdby":0,
 "defaultvalue":null,
 "defaultvalue2":null,
 "description":"Marketing Campaign",
 "displaylogic":"@$Element_MC@='Y'",
 "entitytype":"Financial Reporting",
 "fieldlength":0,
 "help":"The Campaign defines a unique marketing program.  Projects can be associated with a pre defined Marketing Campaign.  You can then report based on a specific Campaign.",
 "isactive":"Y",
 "iscentrallymaintained":"Y",
 "ismandatory":"N",
 "isrange":"N",
 "readonlylogic":null,
 "seqno":100,
 "updated":"2009-09-22T15:00:01",
 "updatedby":100,
 "valuemax":null,
 "valuemin":null,
 "vformat":null}, "children" : []},{"tablename" : "ad_process_para", "data" : {"ad_process_para_id":459,
 "name":"Organisation",
 "ad_client_id":0,
 "ad_element_id":113,
 "ad_org_id":0,
 "ad_process_id":204,
 "ad_reference_id":19,
 "ad_reference_value_id":null,
 "ad_val_rule_id":202,
 "columnname":"AD_Org_ID",
 "created":"2004-01-17T20:41:29",
 "createdby":0,
 "defaultvalue":"-1",
 "defaultvalue2":null,
 "description":"Organisational entity within client",
 "displaylogic":null,
 "entitytype":"Financial Reporting",
 "fieldlength":0,
 "help":"An organisation is a unit of your client or legal entity - examples are store, department. You can share data between organisations.",
 "isactive":"Y",
 "iscentrallymaintained":"Y",
 "ismandatory":"N",
 "isrange":"N",
 "readonlylogic":null,
 "seqno":30,
 "updated":"2009-12-15T18:32:41",
 "updatedby":100,
 "valuemax":null,
 "valuemin":null,
 "vformat":null}, "children" : []},{"tablename" : "ad_process_para", "data" : {"ad_process_para_id":460,
 "name":"Sales Region",
 "ad_client_id":0,
 "ad_element_id":210,
 "ad_org_id":0,
 "ad_process_id":204,
 "ad_reference_id":19,
 "ad_reference_value_id":null,
 "ad_val_rule_id":null,
 "columnname":"C_SalesRegion_ID",
 "created":"2004-01-17T20:42:02",
 "createdby":0,
 "defaultvalue":null,
 "defaultvalue2":null,
 "description":"Sales coverage region",
 "displaylogic":null,
 "entitytype":"Financial Reporting",
 "fieldlength":0,
 "help":"The Sales Region indicates a specific area of sales coverage.",
 "isactive":"Y",
 "iscentrallymaintained":"Y",
 "ismandatory":"N",
 "isrange":"N",
 "readonlylogic":null,
 "seqno":90,
 "updated":"2000-01-02T00:00:00",
 "updatedby":0,
 "valuemax":null,
 "valuemin":null,
 "vformat":null}, "children" : []},{"tablename" : "ad_process_para", "data" : {"ad_process_para_id":616,
 "name":"PostingType",
 "ad_client_id":0,
 "ad_element_id":514,
 "ad_org_id":0,
 "ad_process_id":204,
 "ad_reference_id":17,
 "ad_reference_value_id":125,
 "ad_val_rule_id":null,
 "columnname":"PostingType",
 "created":"2005-02-11T19:23:10",
 "createdby":100,
 "defaultvalue":"A",
 "defaultvalue2":null,
 "description":"The type of posted amount for the transaction",
 "displaylogic":null,
 "entitytype":"Financial Reporting",
 "fieldlength":0,
 "help":"The Posting Type indicates the type of amount (Actual, Budget, Reservation, Commitment, Statistical) the transaction.",
 "isactive":"Y",
 "iscentrallymaintained":"Y",
 "ismandatory":"Y",
 "isrange":"N",
 "readonlylogic":null,
 "seqno":7,
 "updated":"2005-02-11T23:49:19",
 "updatedby":100,
 "valuemax":null,
 "valuemin":null,
 "vformat":null}, "children" : []},{"tablename" : "ad_process_para", "data" : {"ad_process_para_id":687,
 "name":"Reporting Hierarchy",
 "ad_client_id":0,
 "ad_element_id":2868,
 "ad_org_id":0,
 "ad_process_id":204,
 "ad_reference_id":19,
 "ad_reference_value_id":null,
 "ad_val_rule_id":null,
 "columnname":"PA_Hierarchy_ID",
 "created":"2005-10-24T08:12:55",
 "createdby":100,
 "defaultvalue":null,
 "defaultvalue2":null,
 "description":"Optional Reporting Hierarchy - If not selected the default hierarchy trees are used.",
 "displaylogic":null,
 "entitytype":"Financial Reporting",
 "fieldlength":0,
 "help":"Reporting Hierarchy allows you to select different Hierarchies/Trees for the report.\nAccounting Segments like Organization, Account, Product may have several hierarchies to accomodate different views on the business.",
 "isactive":"Y",
 "iscentrallymaintained":"Y",
 "ismandatory":"N",
 "isrange":"N",
 "readonlylogic":null,
 "seqno":130,
 "updated":"2009-09-22T15:00:13",
 "updatedby":100,
 "valuemax":null,
 "valuemin":null,
 "vformat":null}, "children" : []},{"tablename" : "ad_process_para", "data" : {"ad_process_para_id":53359,
 "name":"User List 1 - Depot",
 "ad_client_id":0,
 "ad_element_id":613,
 "ad_org_id":0,
 "ad_process_id":204,
 "ad_reference_id":18,
 "ad_reference_value_id":134,
 "ad_val_rule_id":null,
 "columnname":"User1_ID",
 "created":"2009-09-22T15:01:03",
 "createdby":100,
 "defaultvalue":null,
 "defaultvalue2":null,
 "description":"User defined list element #1",
 "displaylogic":"@$Element_U1@=Y",
 "entitytype":"Financial Reporting",
 "fieldlength":10,
 "help":"The user defined element displays the optional elements that have been defined for this account combination.",
 "isactive":"Y",
 "iscentrallymaintained":"Y",
 "ismandatory":"N",
 "isrange":"N",
 "readonlylogic":null,
 "seqno":110,
 "updated":"2009-09-22T15:01:03",
 "updatedby":100,
 "valuemax":null,
 "valuemin":null,
 "vformat":null}, "children" : []},{"tablename" : "ad_process_para", "data" : {"ad_process_para_id":53360,
 "name":"User List 2",
 "ad_client_id":0,
 "ad_element_id":614,
 "ad_org_id":0,
 "ad_process_id":204,
 "ad_reference_id":18,
 "ad_reference_value_id":137,
 "ad_val_rule_id":null,
 "columnname":"User2_ID",
 "created":"2009-09-22T15:01:25",
 "createdby":100,
 "defaultvalue":null,
 "defaultvalue2":null,
 "description":"User defined list element #2",
 "displaylogic":"@$Element_U2@=Y",
 "entitytype":"Financial Reporting",
 "fieldlength":10,
 "help":"The user defined element displays the optional elements that have been defined for this account combination.",
 "isactive":"Y",
 "iscentrallymaintained":"Y",
 "ismandatory":"N",
 "isrange":"N",
 "readonlylogic":null,
 "seqno":120,
 "updated":"2009-09-22T15:01:25",
 "updatedby":100,
 "valuemax":null,
 "valuemin":null,
 "vformat":null}, "children" : []}]},
 {"tablename" : "ad_process", "data" : {"ad_process_id":310,
 "value":"FinTrialBalance",
 "name":"Trial Balance",
 "accesslevel":"1",
 "ad_client_id":0,
 "ad_form_id":null,
 "ad_org_id":0,
 "ad_printformat_id":null,
 "ad_reportview_id":153,
 "ad_tableselection_id":null,
 "ad_workflow_id":null,
 "classname":"org.compiere.report.TrialBalance",
 "copyfromprocess":null,
 "created":"2004-10-08T01:03:54",
 "createdby":0,
 "description":"Trial Balance for a period or date range",
 "entitytype":"Financial Reporting",
 "help":"Select a Period (current period if empty) or enter a Account Date Range. If an account is selected, the balance is calculated based on the account type and the primary calendar of the client (i.e. for revenue/expense accounts from the beginning of the year). If no account is selected, the balance is the sum of all transactions before the selected account range or first day of the period selected. You can select an alternative Reporting Hierarchy.",
 "isactive":"Y",
 "isbetafunctionality":"N",
 "isdirectprint":"N",
 "isreport":"Y",
 "isserverprocess":"N",
 "jasperreport":null,
 "procedurename":null,
 "showhelp":"Y",
 "statistic_count":0,
 "statistic_seconds":0,
 "updated":"2005-10-24T08:11:58",
 "updatedby":100,
 "workflowvalue":null}, "children" : [{"tablename" : "ad_process_para", "data" : {"ad_process_para_id":555,
 "name":"Accounting Schema",
 "ad_client_id":0,
 "ad_element_id":181,
 "ad_org_id":0,
 "ad_process_id":310,
 "ad_reference_id":19,
 "ad_reference_value_id":null,
 "ad_val_rule_id":null,
 "columnname":"C_AcctSchema_ID",
 "created":"2004-10-08T01:04:52",
 "createdby":0,
 "defaultvalue":null,
 "defaultvalue2":null,
 "description":"Rules for accounting",
 "displaylogic":null,
 "entitytype":"Financial Reporting",
 "fieldlength":0,
 "help":"An Accounting Schema defines the rules used in accounting such as costing method, currency and calendar",
 "isactive":"Y",
 "iscentrallymaintained":"Y",
 "ismandatory":"Y",
 "isrange":"N",
 "readonlylogic":null,
 "seqno":10,
 "updated":"2000-01-02T00:00:00",
 "updatedby":0,
 "valuemax":null,
 "valuemin":null,
 "vformat":null}, "children" : []},{"tablename" : "ad_process_para", "data" : {"ad_process_para_id":556,
 "name":"Period",
 "ad_client_id":0,
 "ad_element_id":206,
 "ad_org_id":0,
 "ad_process_id":310,
 "ad_reference_id":18,
 "ad_reference_value_id":275,
 "ad_val_rule_id":null,
 "columnname":"C_Period_ID",
 "created":"2004-10-08T01:05:44",
 "createdby":0,
 "defaultvalue":null,
 "defaultvalue2":null,
 "description":"Period of the Calendar",
 "displaylogic":null,
 "entitytype":"Financial Reporting",
 "fieldlength":0,
 "help":"The Period indicates an exclusive range of dates for a calendar.",
 "isactive":"Y",
 "iscentrallymaintained":"Y",
 "ismandatory":"N",
 "isrange":"N",
 "readonlylogic":null,
 "seqno":20,
 "updated":"2000-01-02T00:00:00",
 "updatedby":0,
 "valuemax":null,
 "valuemin":null,
 "vformat":null}, "children" : []},{"tablename" : "ad_process_para", "data" : {"ad_process_para_id":557,
 "name":"Account Date",
 "ad_client_id":0,
 "ad_element_id":263,
 "ad_org_id":0,
 "ad_process_id":310,
 "ad_reference_id":15,
 "ad_reference_value_id":null,
 "ad_val_rule_id":null,
 "columnname":"DateAcct",
 "created":"2004-10-08T01:06:19",
 "createdby":0,
 "defaultvalue":null,
 "defaultvalue2":null,
 "description":"Accounting Date",
 "displaylogic":null,
 "entitytype":"Financial Reporting",
 "fieldlength":0,
 "help":"The Accounting Date indicates the date to be used on the General Ledger account entries generated from this document. It is also used for any currency conversion.",
 "isactive":"Y",
 "iscentrallymaintained":"Y",
 "ismandatory":"N",
 "isrange":"Y",
 "readonlylogic":null,
 "seqno":30,
 "updated":"2000-01-02T00:00:00",
 "updatedby":0,
 "valuemax":null,
 "valuemin":null,
 "vformat":null}, "children" : []},{"tablename" : "ad_process_para", "data" : {"ad_process_para_id":558,
 "name":"Organisation",
 "ad_client_id":0,
 "ad_element_id":113,
 "ad_org_id":0,
 "ad_process_id":310,
 "ad_reference_id":19,
 "ad_reference_value_id":null,
 "ad_val_rule_id":202,
 "columnname":"AD_Org_ID",
 "created":"2004-10-08T01:07:27",
 "createdby":0,
 "defaultvalue":null,
 "defaultvalue2":null,
 "description":"Organisational entity within client",
 "displaylogic":null,
 "entitytype":"Financial Reporting",
 "fieldlength":0,
 "help":"An organisation is a unit of your client or legal entity - examples are store, department. You can share data between organisations.",
 "isactive":"Y",
 "iscentrallymaintained":"Y",
 "ismandatory":"N",
 "isrange":"N",
 "readonlylogic":null,
 "seqno":40,
 "updated":"2000-01-02T00:00:00",
 "updatedby":0,
 "valuemax":null,
 "valuemin":null,
 "vformat":null}, "children" : []},{"tablename" : "ad_process_para", "data" : {"ad_process_para_id":559,
 "name":"Account",
 "ad_client_id":0,
 "ad_element_id":148,
 "ad_org_id":0,
 "ad_process_id":310,
 "ad_reference_id":18,
 "ad_reference_value_id":331,
 "ad_val_rule_id":null,
 "columnname":"Account_ID",
 "created":"2004-10-08T01:08:18",
 "createdby":0,
 "defaultvalue":null,
 "defaultvalue2":null,
 "description":"Account used",
 "displaylogic":null,
 "entitytype":"Financial Reporting",
 "fieldlength":0,
 "help":"The (natural) account used",
 "isactive":"Y",
 "iscentrallymaintained":"Y",
 "ismandatory":"N",
 "isrange":"N",
 "readonlylogic":null,
 "seqno":50,
 "updated":"2000-01-02T00:00:00",
 "updatedby":0,
 "valuemax":null,
 "valuemin":null,
 "vformat":null}, "children" : []},{"tablename" : "ad_process_para", "data" : {"ad_process_para_id":560,
 "name":"Business Partner ",
 "ad_client_id":0,
 "ad_element_id":187,
 "ad_org_id":0,
 "ad_process_id":310,
 "ad_reference_id":19,
 "ad_reference_value_id":null,
 "ad_val_rule_id":null,
 "columnname":"C_BPartner_ID",
 "created":"2004-10-08T01:08:49",
 "createdby":0,
 "defaultvalue":null,
 "defaultvalue2":null,
 "description":"Identifies a Business Partner",
 "displaylogic":null,
 "entitytype":"Financial Reporting",
 "fieldlength":0,
 "help":"A Business Partner is anyone with whom you transact.  This can include Vendor, Customer, Employee or Salesperson",
 "isactive":"Y",
 "iscentrallymaintained":"Y",
 "ismandatory":"N",
 "isrange":"N",
 "readonlylogic":null,
 "seqno":60,
 "updated":"2005-10-26T15:46:17",
 "updatedby":100,
 "valuemax":null,
 "valuemin":null,
 "vformat":null}, "children" : []},{"tablename" : "ad_process_para", "data" : {"ad_process_para_id":561,
 "name":"Product",
 "ad_client_id":0,
 "ad_element_id":454,
 "ad_org_id":0,
 "ad_process_id":310,
 "ad_reference_id":19,
 "ad_reference_value_id":null,
 "ad_val_rule_id":null,
 "columnname":"M_Product_ID",
 "created":"2004-10-08T01:09:19",
 "createdby":0,
 "defaultvalue":null,
 "defaultvalue2":null,
 "description":"Product, Service, Item",
 "displaylogic":null,
 "entitytype":"Financial Reporting",
 "fieldlength":0,
 "help":"Identifies an item which is either purchased or sold in this organization.",
 "isactive":"Y",
 "iscentrallymaintained":"Y",
 "ismandatory":"N",
 "isrange":"N",
 "readonlylogic":null,
 "seqno":70,
 "updated":"2005-10-26T15:46:21",
 "updatedby":100,
 "valuemax":null,
 "valuemin":null,
 "vformat":null}, "children" : []},{"tablename" : "ad_process_para", "data" : {"ad_process_para_id":562,
 "name":"Project",
 "ad_client_id":0,
 "ad_element_id":208,
 "ad_org_id":0,
 "ad_process_id":310,
 "ad_reference_id":19,
 "ad_reference_value_id":null,
 "ad_val_rule_id":null,
 "columnname":"C_Project_ID",
 "created":"2004-10-08T01:10:08",
 "createdby":0,
 "defaultvalue":null,
 "defaultvalue2":null,
 "description":"Financial Project",
 "displaylogic":null,
 "entitytype":"Financial Reporting",
 "fieldlength":0,
 "help":"A Project allows you to track and control internal or external activities.",
 "isactive":"Y",
 "iscentrallymaintained":"Y",
 "ismandatory":"N",
 "isrange":"N",
 "readonlylogic":null,
 "seqno":80,
 "updated":"2005-10-26T15:46:24",
 "updatedby":100,
 "valuemax":null,
 "valuemin":null,
 "vformat":null}, "children" : []},{"tablename" : "ad_process_para", "data" : {"ad_process_para_id":563,
 "name":"Activity",
 "ad_client_id":0,
 "ad_element_id":1005,
 "ad_org_id":0,
 "ad_process_id":310,
 "ad_reference_id":19,
 "ad_reference_value_id":null,
 "ad_val_rule_id":null,
 "columnname":"C_Activity_ID",
 "created":"2004-10-08T01:10:38",
 "createdby":0,
 "defaultvalue":null,
 "defaultvalue2":null,
 "description":"Business Activity",
 "displaylogic":null,
 "entitytype":"Financial Reporting",
 "fieldlength":0,
 "help":"Activities indicate tasks that are performed and used to utilize Activity based Costing",
 "isactive":"Y",
 "iscentrallymaintained":"Y",
 "ismandatory":"N",
 "isrange":"N",
 "readonlylogic":null,
 "seqno":90,
 "updated":"2000-01-02T00:00:00",
 "updatedby":0,
 "valuemax":null,
 "valuemin":null,
 "vformat":null}, "children" : []},{"tablename" : "ad_process_para", "data" : {"ad_process_para_id":564,
 "name":"Sales Region",
 "ad_client_id":0,
 "ad_element_id":210,
 "ad_org_id":0,
 "ad_process_id":310,
 "ad_reference_id":19,
 "ad_reference_value_id":null,
 "ad_val_rule_id":null,
 "columnname":"C_SalesRegion_ID",
 "created":"2004-10-08T01:11:07",
 "createdby":0,
 "defaultvalue":null,
 "defaultvalue2":null,
 "description":"Sales coverage region",
 "displaylogic":null,
 "entitytype":"Financial Reporting",
 "fieldlength":0,
 "help":"The Sales Region indicates a specific area of sales coverage.",
 "isactive":"Y",
 "iscentrallymaintained":"Y",
 "ismandatory":"N",
 "isrange":"N",
 "readonlylogic":null,
 "seqno":100,
 "updated":"2000-01-02T00:00:00",
 "updatedby":0,
 "valuemax":null,
 "valuemin":null,
 "vformat":null}, "children" : []},{"tablename" : "ad_process_para", "data" : {"ad_process_para_id":565,
 "name":"Campaign",
 "ad_client_id":0,
 "ad_element_id":550,
 "ad_org_id":0,
 "ad_process_id":310,
 "ad_reference_id":19,
 "ad_reference_value_id":null,
 "ad_val_rule_id":null,
 "columnname":"C_Campaign_ID",
 "created":"2004-10-08T01:11:39",
 "createdby":0,
 "defaultvalue":null,
 "defaultvalue2":null,
 "description":"Marketing Campaign",
 "displaylogic":null,
 "entitytype":"Financial Reporting",
 "fieldlength":0,
 "help":"The Campaign defines a unique marketing program.  Projects can be associated with a pre defined Marketing Campaign.  You can then report based on a specific Campaign.",
 "isactive":"Y",
 "iscentrallymaintained":"Y",
 "ismandatory":"N",
 "isrange":"N",
 "readonlylogic":null,
 "seqno":110,
 "updated":"2000-01-02T00:00:00",
 "updatedby":0,
 "valuemax":null,
 "valuemin":null,
 "vformat":null}, "children" : []},{"tablename" : "ad_process_para", "data" : {"ad_process_para_id":566,
 "name":"PostingType",
 "ad_client_id":0,
 "ad_element_id":514,
 "ad_org_id":0,
 "ad_process_id":310,
 "ad_reference_id":17,
 "ad_reference_value_id":125,
 "ad_val_rule_id":null,
 "columnname":"PostingType",
 "created":"2004-10-08T02:01:42",
 "createdby":0,
 "defaultvalue":"A",
 "defaultvalue2":null,
 "description":"The type of posted amount for the transaction",
 "displaylogic":null,
 "entitytype":"Financial Reporting",
 "fieldlength":0,
 "help":"The Posting Type indicates the type of amount (Actual, Budget, Reservation, Commitment, Statistical) the transaction.",
 "isactive":"Y",
 "iscentrallymaintained":"Y",
 "ismandatory":"Y",
 "isrange":"N",
 "readonlylogic":null,
 "seqno":120,
 "updated":"2000-01-02T00:00:00",
 "updatedby":0,
 "valuemax":null,
 "valuemin":null,
 "vformat":null}, "children" : []},{"tablename" : "ad_process_para", "data" : {"ad_process_para_id":573,
 "name":"Account Key",
 "ad_client_id":0,
 "ad_element_id":2083,
 "ad_org_id":0,
 "ad_process_id":310,
 "ad_reference_id":10,
 "ad_reference_value_id":null,
 "ad_val_rule_id":null,
 "columnname":"AccountValue",
 "created":"2004-11-28T13:59:02",
 "createdby":0,
 "defaultvalue":null,
 "defaultvalue2":null,
 "description":"Key of Account Element",
 "displaylogic":null,
 "entitytype":"Financial Reporting",
 "fieldlength":10,
 "help":null,
 "isactive":"Y",
 "iscentrallymaintained":"Y",
 "ismandatory":"N",
 "isrange":"Y",
 "readonlylogic":null,
 "seqno":55,
 "updated":"2000-01-02T00:00:00",
 "updatedby":0,
 "valuemax":null,
 "valuemin":null,
 "vformat":null}, "children" : []},{"tablename" : "ad_process_para", "data" : {"ad_process_para_id":686,
 "name":"Reporting Hierarchy",
 "ad_client_id":0,
 "ad_element_id":2868,
 "ad_org_id":0,
 "ad_process_id":310,
 "ad_reference_id":19,
 "ad_reference_value_id":null,
 "ad_val_rule_id":null,
 "columnname":"PA_Hierarchy_ID",
 "created":"2005-10-24T08:06:45",
 "createdby":100,
 "defaultvalue":null,
 "defaultvalue2":null,
 "description":"Optional Reporting Hierarchy - If not selected the default hierarchy trees are used.",
 "displaylogic":null,
 "entitytype":"Financial Reporting",
 "fieldlength":0,
 "help":"Reporting Hierarchy allows you to select different Hierarchies/Trees for the report.\nAccounting Segments like Organization, Account, Product may have several hierarchies to accomodate different views on the business.",
 "isactive":"Y",
 "iscentrallymaintained":"Y",
 "ismandatory":"N",
 "isrange":"N",
 "readonlylogic":null,
 "seqno":130,
 "updated":"2005-10-24T08:06:45",
 "updatedby":100,
 "valuemax":null,
 "valuemin":null,
 "vformat":null}, "children" : []},{"tablename" : "ad_process_para", "data" : {"ad_process_para_id":55123,
 "name":"isShowRetainedEarnings",
 "ad_client_id":0,
 "ad_element_id":null,
 "ad_org_id":0,
 "ad_process_id":310,
 "ad_reference_id":20,
 "ad_reference_value_id":null,
 "ad_val_rule_id":null,
 "columnname":"isShowRetainedEarnings",
 "created":"2015-01-31T16:28:54",
 "createdby":100,
 "defaultvalue":null,
 "defaultvalue2":null,
 "description":"Is Show Retained Earnings",
 "displaylogic":null,
 "entitytype":"Financial Reporting",
 "fieldlength":0,
 "help":null,
 "isactive":"N",
 "iscentrallymaintained":"Y",
 "ismandatory":"N",
 "isrange":"N",
 "readonlylogic":null,
 "seqno":140,
 "updated":"2024-06-07T09:34:48",
 "updatedby":100,
 "valuemax":null,
 "valuemin":null,
 "vformat":null}, "children" : []},{"tablename" : "ad_process_para", "data" : {"ad_process_para_id":1000006,
 "name":"Depot - UE1",
 "ad_client_id":0,
 "ad_element_id":2877,
 "ad_org_id":0,
 "ad_process_id":310,
 "ad_reference_id":18,
 "ad_reference_value_id":197,
 "ad_val_rule_id":null,
 "columnname":"UserElement1_ID",
 "created":"2024-06-07T13:36:04",
 "createdby":100,
 "defaultvalue":null,
 "defaultvalue2":null,
 "description":"User defined accounting Element",
 "displaylogic":null,
 "entitytype":"Financial Reporting",
 "fieldlength":10,
 "help":"A user defined accounting element refers to a Adempiere table. This allows to use any table content as an accounting dimension (e.g. Project Task).  Note that User Elements are optional and are populated from the context of the document (i.e. not requested)",
 "isactive":"Y",
 "iscentrallymaintained":"Y",
 "ismandatory":"N",
 "isrange":"N",
 "readonlylogic":null,
 "seqno":150,
 "updated":"2024-06-07T13:37:53",
 "updatedby":100,
 "valuemax":null,
 "valuemin":null,
 "vformat":null}, "children" : []},{"tablename" : "ad_process_para", "data" : {"ad_process_para_id":1000007,
 "name":"Vehicle - UE2",
 "ad_client_id":0,
 "ad_element_id":2878,
 "ad_org_id":0,
 "ad_process_id":310,
 "ad_reference_id":18,
 "ad_reference_value_id":53258,
 "ad_val_rule_id":null,
 "columnname":"UserElement2_ID",
 "created":"2024-06-07T13:36:51",
 "createdby":100,
 "defaultvalue":null,
 "defaultvalue2":null,
 "description":"User defined accounting Element",
 "displaylogic":null,
 "entitytype":"Financial Reporting",
 "fieldlength":10,
 "help":"A user defined accounting element refers to a Adempiere table. This allows to use any table content as an accounting dimension (e.g. Project Task).  Note that User Elements are optional and are populated from the context of the document (i.e. not requested)",
 "isactive":"Y",
 "iscentrallymaintained":"Y",
 "ismandatory":"N",
 "isrange":"N",
 "readonlylogic":null,
 "seqno":160,
 "updated":"2024-06-07T13:37:34",
 "updatedby":100,
 "valuemax":null,
 "valuemin":null,
 "vformat":null}, "children" : []}]},
 {"tablename" : "ad_process", "data" : {"ad_process_id":53063,
 "value":"FinReportJasper",
 "name":"Create Report (Jasper)",
 "accesslevel":"3",
 "ad_client_id":0,
 "ad_form_id":null,
 "ad_org_id":0,
 "ad_printformat_id":null,
 "ad_reportview_id":null,
 "ad_tableselection_id":null,
 "ad_workflow_id":null,
 "classname":"org.compiere.report.FinReportJasper",
 "copyfromprocess":null,
 "created":"2008-01-07T21:41:49",
 "createdby":100,
 "description":"Create Financial Report  (Jasper)",
 "entitytype":"Financial Reporting",
 "help":"The default period is the current period. You can optionally enter other restrictions.  You can select an alternative Reporting Hierarchy.",
 "isactive":"Y",
 "isbetafunctionality":"N",
 "isdirectprint":"N",
 "isreport":"N",
 "isserverprocess":"N",
 "jasperreport":null,
 "procedurename":null,
 "showhelp":"Y",
 "statistic_count":0,
 "statistic_seconds":0,
 "updated":"2008-01-07T21:41:49",
 "updatedby":100,
 "workflowvalue":null}, "children" : [{"tablename" : "ad_process_para", "data" : {"ad_process_para_id":53114,
 "name":"Period",
 "ad_client_id":0,
 "ad_element_id":206,
 "ad_org_id":0,
 "ad_process_id":53063,
 "ad_reference_id":18,
 "ad_reference_value_id":275,
 "ad_val_rule_id":217,
 "columnname":"C_Period_ID",
 "created":"2008-01-07T21:44:40",
 "createdby":100,
 "defaultvalue":null,
 "defaultvalue2":null,
 "description":"Period of the Calendar",
 "displaylogic":null,
 "entitytype":"Financial Reporting",
 "fieldlength":0,
 "help":"The Period indicates an exclusive range of dates for a calendar.",
 "isactive":"Y",
 "iscentrallymaintained":"Y",
 "ismandatory":"N",
 "isrange":"N",
 "readonlylogic":null,
 "seqno":10,
 "updated":"2008-01-07T21:44:40",
 "updatedby":100,
 "valuemax":null,
 "valuemin":null,
 "vformat":null}, "children" : []},{"tablename" : "ad_process_para", "data" : {"ad_process_para_id":53115,
 "name":"Organisation",
 "ad_client_id":0,
 "ad_element_id":479,
 "ad_org_id":0,
 "ad_process_id":53063,
 "ad_reference_id":18,
 "ad_reference_value_id":322,
 "ad_val_rule_id":null,
 "columnname":"Org_ID",
 "created":"2008-01-07T21:45:09",
 "createdby":100,
 "defaultvalue":null,
 "defaultvalue2":null,
 "description":"Organisational entity within client",
 "displaylogic":null,
 "entitytype":"Financial Reporting",
 "fieldlength":0,
 "help":"An organisation is a unit of your client or legal entity - examples are store, department.",
 "isactive":"Y",
 "iscentrallymaintained":"Y",
 "ismandatory":"N",
 "isrange":"N",
 "readonlylogic":null,
 "seqno":20,
 "updated":"2008-01-07T21:45:09",
 "updatedby":100,
 "valuemax":null,
 "valuemin":null,
 "vformat":null}, "children" : []},{"tablename" : "ad_process_para", "data" : {"ad_process_para_id":53116,
 "name":"Business Partner ",
 "ad_client_id":0,
 "ad_element_id":187,
 "ad_org_id":0,
 "ad_process_id":53063,
 "ad_reference_id":19,
 "ad_reference_value_id":null,
 "ad_val_rule_id":null,
 "columnname":"C_BPartner_ID",
 "created":"2008-01-07T21:45:39",
 "createdby":100,
 "defaultvalue":null,
 "defaultvalue2":null,
 "description":"Identifies a Business Partner",
 "displaylogic":null,
 "entitytype":"Financial Reporting",
 "fieldlength":0,
 "help":"A Business Partner is anyone with whom you transact.  This can include Vendor, Customer, Employee or Salesperson",
 "isactive":"Y",
 "iscentrallymaintained":"Y",
 "ismandatory":"N",
 "isrange":"N",
 "readonlylogic":null,
 "seqno":30,
 "updated":"2008-01-07T21:45:39",
 "updatedby":100,
 "valuemax":null,
 "valuemin":null,
 "vformat":null}, "children" : []},{"tablename" : "ad_process_para", "data" : {"ad_process_para_id":53117,
 "name":"Product",
 "ad_client_id":0,
 "ad_element_id":454,
 "ad_org_id":0,
 "ad_process_id":53063,
 "ad_reference_id":19,
 "ad_reference_value_id":null,
 "ad_val_rule_id":null,
 "columnname":"M_Product_ID",
 "created":"2008-01-07T21:46:05",
 "createdby":100,
 "defaultvalue":null,
 "defaultvalue2":null,
 "description":"Product, Service, Item",
 "displaylogic":null,
 "entitytype":"Financial Reporting",
 "fieldlength":0,
 "help":"Identifies an item which is either purchased or sold in this organization.",
 "isactive":"Y",
 "iscentrallymaintained":"Y",
 "ismandatory":"N",
 "isrange":"N",
 "readonlylogic":null,
 "seqno":40,
 "updated":"2008-01-07T21:46:05",
 "updatedby":100,
 "valuemax":null,
 "valuemin":null,
 "vformat":null}, "children" : []},{"tablename" : "ad_process_para", "data" : {"ad_process_para_id":53118,
 "name":"Project",
 "ad_client_id":0,
 "ad_element_id":208,
 "ad_org_id":0,
 "ad_process_id":53063,
 "ad_reference_id":19,
 "ad_reference_value_id":null,
 "ad_val_rule_id":null,
 "columnname":"C_Project_ID",
 "created":"2008-01-07T21:47:04",
 "createdby":100,
 "defaultvalue":null,
 "defaultvalue2":null,
 "description":"Financial Project",
 "displaylogic":"@$Element_PJ@='Y'",
 "entitytype":"Financial Reporting",
 "fieldlength":0,
 "help":"A Project allows you to track and control internal or external activities.",
 "isactive":"Y",
 "iscentrallymaintained":"Y",
 "ismandatory":"N",
 "isrange":"N",
 "readonlylogic":null,
 "seqno":50,
 "updated":"2009-09-22T14:57:17",
 "updatedby":100,
 "valuemax":null,
 "valuemin":null,
 "vformat":null}, "children" : []},{"tablename" : "ad_process_para", "data" : {"ad_process_para_id":53119,
 "name":"Activity",
 "ad_client_id":0,
 "ad_element_id":1005,
 "ad_org_id":0,
 "ad_process_id":53063,
 "ad_reference_id":19,
 "ad_reference_value_id":null,
 "ad_val_rule_id":null,
 "columnname":"C_Activity_ID",
 "created":"2008-01-07T21:47:41",
 "createdby":100,
 "defaultvalue":null,
 "defaultvalue2":null,
 "description":"Business Activity",
 "displaylogic":"@$Element_AY@='Y'",
 "entitytype":"Financial Reporting",
 "fieldlength":0,
 "help":"Activities indicate tasks that are performed and used to utilize Activity based Costing",
 "isactive":"Y",
 "iscentrallymaintained":"Y",
 "ismandatory":"N",
 "isrange":"N",
 "readonlylogic":null,
 "seqno":60,
 "updated":"2009-09-22T14:57:10",
 "updatedby":100,
 "valuemax":null,
 "valuemin":null,
 "vformat":null}, "children" : []},{"tablename" : "ad_process_para", "data" : {"ad_process_para_id":53120,
 "name":"Sales Region",
 "ad_client_id":0,
 "ad_element_id":210,
 "ad_org_id":0,
 "ad_process_id":53063,
 "ad_reference_id":19,
 "ad_reference_value_id":null,
 "ad_val_rule_id":null,
 "columnname":"C_SalesRegion_ID",
 "created":"2008-01-07T21:48:11",
 "createdby":100,
 "defaultvalue":null,
 "defaultvalue2":null,
 "description":"Sales coverage region",
 "displaylogic":null,
 "entitytype":"Financial Reporting",
 "fieldlength":0,
 "help":"The Sales Region indicates a specific area of sales coverage.",
 "isactive":"Y",
 "iscentrallymaintained":"Y",
 "ismandatory":"N",
 "isrange":"N",
 "readonlylogic":null,
 "seqno":70,
 "updated":"2008-01-07T21:48:11",
 "updatedby":100,
 "valuemax":null,
 "valuemin":null,
 "vformat":null}, "children" : []},{"tablename" : "ad_process_para", "data" : {"ad_process_para_id":53121,
 "name":"Campaign",
 "ad_client_id":0,
 "ad_element_id":550,
 "ad_org_id":0,
 "ad_process_id":53063,
 "ad_reference_id":19,
 "ad_reference_value_id":null,
 "ad_val_rule_id":null,
 "columnname":"C_Campaign_ID",
 "created":"2008-01-07T21:48:35",
 "createdby":100,
 "defaultvalue":null,
 "defaultvalue2":null,
 "description":"Marketing Campaign",
 "displaylogic":"@$Element_MC@='Y'",
 "entitytype":"Financial Reporting",
 "fieldlength":0,
 "help":"The Campaign defines a unique marketing program.  Projects can be associated with a pre defined Marketing Campaign.  You can then report based on a specific Campaign.",
 "isactive":"Y",
 "iscentrallymaintained":"Y",
 "ismandatory":"N",
 "isrange":"N",
 "readonlylogic":null,
 "seqno":80,
 "updated":"2009-09-22T14:56:53",
 "updatedby":100,
 "valuemax":null,
 "valuemin":null,
 "vformat":null}, "children" : []},{"tablename" : "ad_process_para", "data" : {"ad_process_para_id":53122,
 "name":"Details/Source First",
 "ad_client_id":0,
 "ad_element_id":null,
 "ad_org_id":0,
 "ad_process_id":53063,
 "ad_reference_id":20,
 "ad_reference_value_id":null,
 "ad_val_rule_id":null,
 "columnname":"DetailsSourceFirst",
 "created":"2008-01-07T21:49:04",
 "createdby":100,
 "defaultvalue":null,
 "defaultvalue2":null,
 "description":"Details and Sources are printed before the Line",
 "displaylogic":null,
 "entitytype":"Financial Reporting",
 "fieldlength":0,
 "help":null,
 "isactive":"Y",
 "iscentrallymaintained":"Y",
 "ismandatory":"N",
 "isrange":"N",
 "readonlylogic":null,
 "seqno":110,
 "updated":"2009-09-22T14:52:41",
 "updatedby":100,
 "valuemax":null,
 "valuemin":null,
 "vformat":null}, "children" : []},{"tablename" : "ad_process_para", "data" : {"ad_process_para_id":53123,
 "name":"Update Balances",
 "ad_client_id":0,
 "ad_element_id":2344,
 "ad_org_id":0,
 "ad_process_id":53063,
 "ad_reference_id":20,
 "ad_reference_value_id":null,
 "ad_val_rule_id":null,
 "columnname":"UpdateBalances",
 "created":"2008-01-07T21:49:52",
 "createdby":100,
 "defaultvalue":"Y",
 "defaultvalue2":null,
 "description":"Update Accounting Balances first (not required for subsequent runs)",
 "displaylogic":null,
 "entitytype":"Financial Reporting",
 "fieldlength":0,
 "help":null,
 "isactive":"N",
 "iscentrallymaintained":"Y",
 "ismandatory":"Y",
 "isrange":"N",
 "readonlylogic":null,
 "seqno":140,
 "updated":"2010-03-13T17:47:22",
 "updatedby":100,
 "valuemax":null,
 "valuemin":null,
 "vformat":null}, "children" : []},{"tablename" : "ad_process_para", "data" : {"ad_process_para_id":53124,
 "name":"Reporting Hierarchy",
 "ad_client_id":0,
 "ad_element_id":2868,
 "ad_org_id":0,
 "ad_process_id":53063,
 "ad_reference_id":19,
 "ad_reference_value_id":null,
 "ad_val_rule_id":null,
 "columnname":"PA_Hierarchy_ID",
 "created":"2008-01-07T21:50:22",
 "createdby":100,
 "defaultvalue":null,
 "defaultvalue2":null,
 "description":"Optional Reporting Hierarchy - If not selected the default hierarchy trees are used.",
 "displaylogic":null,
 "entitytype":"Financial Reporting",
 "fieldlength":0,
 "help":"Reporting Hierarchy allows you to select different Hierarchies/Trees for the report.\nAccounting Segments like Organization, Account, Product may have several hierarchies to accomodate different views on the business.",
 "isactive":"Y",
 "iscentrallymaintained":"Y",
 "ismandatory":"N",
 "isrange":"N",
 "readonlylogic":null,
 "seqno":120,
 "updated":"2009-09-22T14:52:45",
 "updatedby":100,
 "valuemax":null,
 "valuemin":null,
 "vformat":null}, "children" : []},{"tablename" : "ad_process_para", "data" : {"ad_process_para_id":53354,
 "name":"Report Cube",
 "ad_client_id":0,
 "ad_element_id":53821,
 "ad_org_id":0,
 "ad_process_id":53063,
 "ad_reference_id":18,
 "ad_reference_value_id":53299,
 "ad_val_rule_id":52050,
 "columnname":"PA_ReportCube_ID",
 "created":"2009-09-22T14:53:24",
 "createdby":100,
 "defaultvalue":"@PA_ReportCube_ID@",
 "defaultvalue2":null,
 "description":"Define reporting cube for pre-calculation of summary accounting data.",
 "displaylogic":null,
 "entitytype":"Financial Reporting",
 "fieldlength":10,
 "help":"Summary data will be generated for each period of the selected calendar, grouped by the selected dimensions..",
 "isactive":"Y",
 "iscentrallymaintained":"Y",
 "ismandatory":"N",
 "isrange":"N",
 "readonlylogic":null,
 "seqno":130,
 "updated":"2009-09-22T14:55:33",
 "updatedby":100,
 "valuemax":null,
 "valuemin":null,
 "vformat":null}, "children" : []},{"tablename" : "ad_process_para", "data" : {"ad_process_para_id":53355,
 "name":"User List 1 - Depot",
 "ad_client_id":0,
 "ad_element_id":613,
 "ad_org_id":0,
 "ad_process_id":53063,
 "ad_reference_id":18,
 "ad_reference_value_id":134,
 "ad_val_rule_id":null,
 "columnname":"User1_ID",
 "created":"2009-09-22T14:55:26",
 "createdby":100,
 "defaultvalue":null,
 "defaultvalue2":null,
 "description":"User defined list element #1",
 "displaylogic":"@$Element_U1@=Y",
 "entitytype":"Financial Reporting",
 "fieldlength":10,
 "help":"The user defined element displays the optional elements that have been defined for this account combination.",
 "isactive":"Y",
 "iscentrallymaintained":"Y",
 "ismandatory":"N",
 "isrange":"N",
 "readonlylogic":null,
 "seqno":90,
 "updated":"2009-09-22T14:55:26",
 "updatedby":100,
 "valuemax":null,
 "valuemin":null,
 "vformat":null}, "children" : []},{"tablename" : "ad_process_para", "data" : {"ad_process_para_id":53356,
 "name":"User List 2",
 "ad_client_id":0,
 "ad_element_id":614,
 "ad_org_id":0,
 "ad_process_id":53063,
 "ad_reference_id":18,
 "ad_reference_value_id":137,
 "ad_val_rule_id":null,
 "columnname":"User2_ID",
 "created":"2009-09-22T14:56:15",
 "createdby":100,
 "defaultvalue":null,
 "defaultvalue2":null,
 "description":"User defined list element #2",
 "displaylogic":"@$Element_U2@=Y",
 "entitytype":"Financial Reporting",
 "fieldlength":10,
 "help":"The user defined element displays the optional elements that have been defined for this account combination.",
 "isactive":"Y",
 "iscentrallymaintained":"Y",
 "ismandatory":"N",
 "isrange":"N",
 "readonlylogic":null,
 "seqno":100,
 "updated":"2009-09-22T14:56:15",
 "updatedby":100,
 "valuemax":null,
 "valuemin":null,
 "vformat":null}, "children" : []}]},
 {"tablename" : "ad_process", "data" : {"ad_process_id":53166,
 "value":"FactAcctSummary",
 "name":"Recalculate Cube",
 "accesslevel":"3",
 "ad_client_id":0,
 "ad_form_id":null,
 "ad_org_id":0,
 "ad_printformat_id":null,
 "ad_reportview_id":null,
 "ad_tableselection_id":null,
 "ad_workflow_id":null,
 "classname":"org.compiere.process.FactAcctSummary",
 "copyfromprocess":null,
 "created":"2009-05-15T00:43:07",
 "createdby":100,
 "description":"Recalculate summary facts based on report cube definitions.",
 "entitytype":"Financial Reporting",
 "help":null,
 "isactive":"Y",
 "isbetafunctionality":"N",
 "isdirectprint":"N",
 "isreport":"N",
 "isserverprocess":"N",
 "jasperreport":null,
 "procedurename":null,
 "showhelp":"Y",
 "statistic_count":0,
 "statistic_seconds":0,
 "updated":"2009-12-10T20:24:38",
 "updatedby":100,
 "workflowvalue":null}, "children" : [{"tablename" : "ad_process_para", "data" : {"ad_process_para_id":53314,
 "name":"Full rebuild",
 "ad_client_id":0,
 "ad_element_id":null,
 "ad_org_id":0,
 "ad_process_id":53166,
 "ad_reference_id":20,
 "ad_reference_value_id":null,
 "ad_val_rule_id":null,
 "columnname":"Reset",
 "created":"2009-05-19T23:19:32",
 "createdby":100,
 "defaultvalue":null,
 "defaultvalue2":null,
 "description":"Delete all existing summary data and recalculate.",
 "displaylogic":null,
 "entitytype":"Financial Reporting",
 "fieldlength":0,
 "help":"If not selected, only those periods with recently posted accounting facts will be recalculated.",
 "isactive":"Y",
 "iscentrallymaintained":"N",
 "ismandatory":"N",
 "isrange":"N",
 "readonlylogic":null,
 "seqno":25,
 "updated":"2009-06-03T00:59:21",
 "updatedby":100,
 "valuemax":null,
 "valuemin":null,
 "vformat":null}, "children" : []},{"tablename" : "ad_process_para", "data" : {"ad_process_para_id":53315,
 "name":"Report Cube",
 "ad_client_id":0,
 "ad_element_id":null,
 "ad_org_id":0,
 "ad_process_id":53166,
 "ad_reference_id":18,
 "ad_reference_value_id":53299,
 "ad_val_rule_id":null,
 "columnname":"PA_ReportCube_ID",
 "created":"2009-05-19T23:20:30",
 "createdby":100,
 "defaultvalue":null,
 "defaultvalue2":null,
 "description":"Define reporting cube for pre-calculation of summary accounting data.",
 "displaylogic":null,
 "entitytype":"Financial Reporting",
 "fieldlength":0,
 "help":"Summary data will be generated for each period of the selected calendar, grouped by the selected dimensions..",
 "isactive":"Y",
 "iscentrallymaintained":"Y",
 "ismandatory":"N",
 "isrange":"N",
 "readonlylogic":null,
 "seqno":20,
 "updated":"2009-09-15T18:19:54.210614",
 "updatedby":100,
 "valuemax":null,
 "valuemin":null,
 "vformat":null}, "children" : []},{"tablename" : "ad_process_para", "data" : {"ad_process_para_id":53316,
 "name":"Force",
 "ad_client_id":0,
 "ad_element_id":null,
 "ad_org_id":0,
 "ad_process_id":53166,
 "ad_reference_id":20,
 "ad_reference_value_id":null,
 "ad_val_rule_id":null,
 "columnname":"Force",
 "created":"2009-06-03T00:44:03",
 "createdby":100,
 "defaultvalue":"N",
 "defaultvalue2":null,
 "description":"Force rebuild of cube even if locked.",
 "displaylogic":null,
 "entitytype":"Financial Reporting",
 "fieldlength":1,
 "help":null,
 "isactive":"Y",
 "iscentrallymaintained":"N",
 "ismandatory":"N",
 "isrange":"N",
 "readonlylogic":null,
 "seqno":30,
 "updated":"2009-06-03T00:44:03",
 "updatedby":100,
 "valuemax":null,
 "valuemin":null,
 "vformat":null}, "children" : []}]},
 {"tablename" : "ad_process", "data" : {"ad_process_id":53270,
 "value":"Fact_Acct_Summary report",
 "name":"Accounting Fact Summary",
 "accesslevel":"3",
 "ad_client_id":0,
 "ad_form_id":null,
 "ad_org_id":0,
 "ad_printformat_id":null,
 "ad_reportview_id":53184,
 "ad_tableselection_id":null,
 "ad_workflow_id":null,
 "classname":null,
 "copyfromprocess":"N",
 "created":"2011-08-11T15:56:21",
 "createdby":100,
 "description":"Accounting Fact Summary Report",
 "entitytype":"Financial Reporting",
 "help":"Report with summary accounting details calculated by report cube.",
 "isactive":"Y",
 "isbetafunctionality":"N",
 "isdirectprint":"N",
 "isreport":"Y",
 "isserverprocess":"N",
 "jasperreport":null,
 "procedurename":null,
 "showhelp":"Y",
 "statistic_count":0,
 "statistic_seconds":0,
 "updated":"2016-04-11T16:52:57",
 "updatedby":0,
 "workflowvalue":null}, "children" : [{"tablename" : "ad_process_para", "data" : {"ad_process_para_id":53536,
 "name":"Accounting Schema",
 "ad_client_id":0,
 "ad_element_id":181,
 "ad_org_id":0,
 "ad_process_id":53270,
 "ad_reference_id":19,
 "ad_reference_value_id":null,
 "ad_val_rule_id":null,
 "columnname":"C_AcctSchema_ID",
 "created":"2011-08-11T15:58:50",
 "createdby":100,
 "defaultvalue":null,
 "defaultvalue2":null,
 "description":"Rules for accounting",
 "displaylogic":null,
 "entitytype":"Financial Reporting",
 "fieldlength":0,
 "help":"An Accounting Schema defines the rules used in accounting such as costing method, currency and calendar",
 "isactive":"Y",
 "iscentrallymaintained":"Y",
 "ismandatory":"Y",
 "isrange":"N",
 "readonlylogic":null,
 "seqno":5,
 "updated":"2011-08-11T15:58:50",
 "updatedby":100,
 "valuemax":null,
 "valuemin":null,
 "vformat":null}, "children" : []},{"tablename" : "ad_process_para", "data" : {"ad_process_para_id":53537,
 "name":"Organisation",
 "ad_client_id":0,
 "ad_element_id":113,
 "ad_org_id":0,
 "ad_process_id":53270,
 "ad_reference_id":18,
 "ad_reference_value_id":130,
 "ad_val_rule_id":null,
 "columnname":"AD_Org_ID",
 "created":"2011-08-11T15:58:52",
 "createdby":100,
 "defaultvalue":null,
 "defaultvalue2":null,
 "description":"Organisational entity within client",
 "displaylogic":null,
 "entitytype":"Financial Reporting",
 "fieldlength":0,
 "help":"An organisation is a unit of your client or legal entity - examples are store, department. You can share data between organisations.",
 "isactive":"Y",
 "iscentrallymaintained":"Y",
 "ismandatory":"N",
 "isrange":"N",
 "readonlylogic":null,
 "seqno":10,
 "updated":"2011-11-02T16:35:07.277616",
 "updatedby":100,
 "valuemax":null,
 "valuemin":null,
 "vformat":null}, "children" : []},{"tablename" : "ad_process_para", "data" : {"ad_process_para_id":53538,
 "name":"Account Date",
 "ad_client_id":0,
 "ad_element_id":263,
 "ad_org_id":0,
 "ad_process_id":53270,
 "ad_reference_id":15,
 "ad_reference_value_id":null,
 "ad_val_rule_id":null,
 "columnname":"DateAcct",
 "created":"2011-08-11T15:58:53",
 "createdby":100,
 "defaultvalue":null,
 "defaultvalue2":null,
 "description":"Accounting Date",
 "displaylogic":null,
 "entitytype":"Financial Reporting",
 "fieldlength":0,
 "help":"The Accounting Date indicates the date to be used on the General Ledger account entries generated from this document. It is also used for any currency conversion.",
 "isactive":"Y",
 "iscentrallymaintained":"Y",
 "ismandatory":"N",
 "isrange":"Y",
 "readonlylogic":null,
 "seqno":20,
 "updated":"2011-08-11T15:58:53",
 "updatedby":100,
 "valuemax":null,
 "valuemin":null,
 "vformat":null}, "children" : []},{"tablename" : "ad_process_para", "data" : {"ad_process_para_id":53539,
 "name":"Period",
 "ad_client_id":0,
 "ad_element_id":206,
 "ad_org_id":0,
 "ad_process_id":53270,
 "ad_reference_id":19,
 "ad_reference_value_id":null,
 "ad_val_rule_id":null,
 "columnname":"C_Period_ID",
 "created":"2011-08-11T15:58:55",
 "createdby":100,
 "defaultvalue":null,
 "defaultvalue2":null,
 "description":"Period of the Calendar",
 "displaylogic":null,
 "entitytype":"Financial Reporting",
 "fieldlength":0,
 "help":"The Period indicates an exclusive range of dates for a calendar.",
 "isactive":"Y",
 "iscentrallymaintained":"Y",
 "ismandatory":"N",
 "isrange":"N",
 "readonlylogic":null,
 "seqno":30,
 "updated":"2011-08-11T15:58:55",
 "updatedby":100,
 "valuemax":null,
 "valuemin":null,
 "vformat":null}, "children" : []},{"tablename" : "ad_process_para", "data" : {"ad_process_para_id":53540,
 "name":"Account",
 "ad_client_id":0,
 "ad_element_id":148,
 "ad_org_id":0,
 "ad_process_id":53270,
 "ad_reference_id":18,
 "ad_reference_value_id":132,
 "ad_val_rule_id":null,
 "columnname":"Account_ID",
 "created":"2011-08-11T15:58:56",
 "createdby":100,
 "defaultvalue":null,
 "defaultvalue2":null,
 "description":"Account used",
 "displaylogic":null,
 "entitytype":"Financial Reporting",
 "fieldlength":0,
 "help":"The (natural) account used",
 "isactive":"Y",
 "iscentrallymaintained":"Y",
 "ismandatory":"N",
 "isrange":"N",
 "readonlylogic":null,
 "seqno":40,
 "updated":"2011-08-11T15:58:56",
 "updatedby":100,
 "valuemax":null,
 "valuemin":null,
 "vformat":null}, "children" : []},{"tablename" : "ad_process_para", "data" : {"ad_process_para_id":53542,
 "name":"Business Partner ",
 "ad_client_id":0,
 "ad_element_id":187,
 "ad_org_id":0,
 "ad_process_id":53270,
 "ad_reference_id":30,
 "ad_reference_value_id":null,
 "ad_val_rule_id":null,
 "columnname":"C_BPartner_ID",
 "created":"2011-08-11T15:58:58",
 "createdby":100,
 "defaultvalue":null,
 "defaultvalue2":null,
 "description":"Identifies a Business Partner",
 "displaylogic":null,
 "entitytype":"Financial Reporting",
 "fieldlength":0,
 "help":"A Business Partner is anyone with whom you transact.  This can include Vendor, Customer, Employee or Salesperson",
 "isactive":"Y",
 "iscentrallymaintained":"Y",
 "ismandatory":"N",
 "isrange":"N",
 "readonlylogic":null,
 "seqno":50,
 "updated":"2011-08-11T15:58:58",
 "updatedby":100,
 "valuemax":null,
 "valuemin":null,
 "vformat":null}, "children" : []},{"tablename" : "ad_process_para", "data" : {"ad_process_para_id":53543,
 "name":"Product",
 "ad_client_id":0,
 "ad_element_id":454,
 "ad_org_id":0,
 "ad_process_id":53270,
 "ad_reference_id":30,
 "ad_reference_value_id":null,
 "ad_val_rule_id":null,
 "columnname":"M_Product_ID",
 "created":"2011-08-11T15:59:00",
 "createdby":100,
 "defaultvalue":null,
 "defaultvalue2":null,
 "description":"Product, Service, Item",
 "displaylogic":null,
 "entitytype":"Financial Reporting",
 "fieldlength":0,
 "help":"Identifies an item which is either purchased or sold in this organization.",
 "isactive":"Y",
 "iscentrallymaintained":"Y",
 "ismandatory":"N",
 "isrange":"N",
 "readonlylogic":null,
 "seqno":60,
 "updated":"2011-08-11T15:59:00",
 "updatedby":100,
 "valuemax":null,
 "valuemin":null,
 "vformat":null}, "children" : []},{"tablename" : "ad_process_para", "data" : {"ad_process_para_id":53546,
 "name":"Report Cube",
 "ad_client_id":0,
 "ad_element_id":53821,
 "ad_org_id":0,
 "ad_process_id":53270,
 "ad_reference_id":19,
 "ad_reference_value_id":null,
 "ad_val_rule_id":null,
 "columnname":"PA_ReportCube_ID",
 "created":"2011-08-11T16:02:39",
 "createdby":100,
 "defaultvalue":null,
 "defaultvalue2":null,
 "description":"Define reporting cube for pre-calculation of summary accounting data.",
 "displaylogic":null,
 "entitytype":"Financial Reporting",
 "fieldlength":10,
 "help":"Summary data will be generated for each period of the selected calendar, grouped by the selected dimensions..",
 "isactive":"Y",
 "iscentrallymaintained":"Y",
 "ismandatory":"Y",
 "isrange":"N",
 "readonlylogic":null,
 "seqno":3,
 "updated":"2011-11-02T16:35:07.277616",
 "updatedby":100,
 "valuemax":null,
 "valuemin":null,
 "vformat":null}, "children" : []},{"tablename" : "ad_process_para", "data" : {"ad_process_para_id":55284,
 "name":"Account Key",
 "ad_client_id":0,
 "ad_element_id":2083,
 "ad_org_id":0,
 "ad_process_id":53270,
 "ad_reference_id":10,
 "ad_reference_value_id":null,
 "ad_val_rule_id":null,
 "columnname":"AccountValue",
 "created":"2015-08-30T20:02:46",
 "createdby":0,
 "defaultvalue":null,
 "defaultvalue2":null,
 "description":"Key of Account Element",
 "displaylogic":null,
 "entitytype":"Financial Reporting",
 "fieldlength":0,
 "help":null,
 "isactive":"Y",
 "iscentrallymaintained":"Y",
 "ismandatory":"N",
 "isrange":"Y",
 "readonlylogic":null,
 "seqno":70,
 "updated":"2016-04-12T09:52:23.093499",
 "updatedby":0,
 "valuemax":null,
 "valuemin":null,
 "vformat":null}, "children" : []},{"tablename" : "ad_process_para", "data" : {"ad_process_para_id":1000001,
 "name":"Depot",
 "ad_client_id":0,
 "ad_element_id":2877,
 "ad_org_id":0,
 "ad_process_id":53270,
 "ad_reference_id":18,
 "ad_reference_value_id":197,
 "ad_val_rule_id":null,
 "columnname":"UserElement1_ID",
 "created":"2024-04-18T17:22:25",
 "createdby":100,
 "defaultvalue":null,
 "defaultvalue2":null,
 "description":"Depot = Warehouse",
 "displaylogic":null,
 "entitytype":"U",
 "fieldlength":0,
 "help":null,
 "isactive":"Y",
 "iscentrallymaintained":"Y",
 "ismandatory":"N",
 "isrange":"N",
 "readonlylogic":null,
 "seqno":80,
 "updated":"2024-04-18T17:22:25",
 "updatedby":100,
 "valuemax":null,
 "valuemin":null,
 "vformat":null}, "children" : []},{"tablename" : "ad_process_para", "data" : {"ad_process_para_id":1000002,
 "name":"Workshop Job",
 "ad_client_id":0,
 "ad_element_id":208,
 "ad_org_id":0,
 "ad_process_id":53270,
 "ad_reference_id":18,
 "ad_reference_value_id":null,
 "ad_val_rule_id":null,
 "columnname":"C_Project_ID",
 "created":"2024-04-18T17:24:03",
 "createdby":100,
 "defaultvalue":null,
 "defaultvalue2":null,
 "description":"WS Job = Project",
 "displaylogic":null,
 "entitytype":"U",
 "fieldlength":0,
 "help":null,
 "isactive":"Y",
 "iscentrallymaintained":"Y",
 "ismandatory":"N",
 "isrange":"N",
 "readonlylogic":null,
 "seqno":90,
 "updated":"2024-04-18T17:24:03",
 "updatedby":100,
 "valuemax":null,
 "valuemin":null,
 "vformat":null}, "children" : []},{"tablename" : "ad_process_para", "data" : {"ad_process_para_id":1000003,
 "name":"Vehicle",
 "ad_client_id":0,
 "ad_element_id":1884,
 "ad_org_id":0,
 "ad_process_id":53270,
 "ad_reference_id":18,
 "ad_reference_value_id":null,
 "ad_val_rule_id":null,
 "columnname":"A_Asset_ID",
 "created":"2024-04-18T17:25:13",
 "createdby":100,
 "defaultvalue":null,
 "defaultvalue2":null,
 "description":"Vehicle = Asset",
 "displaylogic":null,
 "entitytype":"U",
 "fieldlength":0,
 "help":null,
 "isactive":"Y",
 "iscentrallymaintained":"Y",
 "ismandatory":"N",
 "isrange":"N",
 "readonlylogic":null,
 "seqno":100,
 "updated":"2024-04-18T17:25:13",
 "updatedby":100,
 "valuemax":null,
 "valuemin":null,
 "vformat":null}, "children" : []}]},
 {"tablename" : "ad_process", "data" : {"ad_process_id":53785,
 "value":"RV_Fact_Acct_Proj",
 "name":"Accounting Fact Project",
 "accesslevel":"3",
 "ad_client_id":0,
 "ad_form_id":null,
 "ad_org_id":0,
 "ad_printformat_id":null,
 "ad_reportview_id":53166,
 "ad_tableselection_id":null,
 "ad_workflow_id":null,
 "classname":null,
 "copyfromprocess":null,
 "created":"2015-08-03T13:41:23",
 "createdby":100,
 "description":"Project Accounting Fact Details",
 "entitytype":"Financial Reporting",
 "help":null,
 "isactive":"Y",
 "isbetafunctionality":"N",
 "isdirectprint":"N",
 "isreport":"Y",
 "isserverprocess":"N",
 "jasperreport":null,
 "procedurename":null,
 "showhelp":"Y",
 "statistic_count":0,
 "statistic_seconds":0,
 "updated":"2016-04-11T16:51:11",
 "updatedby":0,
 "workflowvalue":null}, "children" : [{"tablename" : "ad_process_para", "data" : {"ad_process_para_id":55270,
 "name":"Accounting Schema",
 "ad_client_id":0,
 "ad_element_id":181,
 "ad_org_id":0,
 "ad_process_id":53785,
 "ad_reference_id":19,
 "ad_reference_value_id":null,
 "ad_val_rule_id":null,
 "columnname":"C_AcctSchema_ID",
 "created":"2015-08-03T13:41:34",
 "createdby":100,
 "defaultvalue":"-1",
 "defaultvalue2":null,
 "description":"Rules for accounting",
 "displaylogic":null,
 "entitytype":"Financial Reporting",
 "fieldlength":0,
 "help":"An Accounting Schema defines the rules used in accounting such as costing method, currency and calendar",
 "isactive":"Y",
 "iscentrallymaintained":"Y",
 "ismandatory":"Y",
 "isrange":"N",
 "readonlylogic":null,
 "seqno":5,
 "updated":"2015-08-03T13:41:34",
 "updatedby":100,
 "valuemax":null,
 "valuemin":null,
 "vformat":null}, "children" : []},{"tablename" : "ad_process_para", "data" : {"ad_process_para_id":55271,
 "name":"Organisation",
 "ad_client_id":0,
 "ad_element_id":113,
 "ad_org_id":0,
 "ad_process_id":53785,
 "ad_reference_id":18,
 "ad_reference_value_id":130,
 "ad_val_rule_id":null,
 "columnname":"AD_Org_ID",
 "created":"2015-08-03T13:41:35",
 "createdby":100,
 "defaultvalue":null,
 "defaultvalue2":null,
 "description":"Organisational entity within client",
 "displaylogic":null,
 "entitytype":"Financial Reporting",
 "fieldlength":0,
 "help":"An organisation is a unit of your client or legal entity - examples are store, department. You can share data between organisations.",
 "isactive":"Y",
 "iscentrallymaintained":"Y",
 "ismandatory":"N",
 "isrange":"N",
 "readonlylogic":null,
 "seqno":10,
 "updated":"2015-08-03T13:41:35",
 "updatedby":100,
 "valuemax":null,
 "valuemin":null,
 "vformat":null}, "children" : []},{"tablename" : "ad_process_para", "data" : {"ad_process_para_id":55272,
 "name":"Period",
 "ad_client_id":0,
 "ad_element_id":206,
 "ad_org_id":0,
 "ad_process_id":53785,
 "ad_reference_id":19,
 "ad_reference_value_id":null,
 "ad_val_rule_id":null,
 "columnname":"C_Period_ID",
 "created":"2015-08-03T13:41:36",
 "createdby":100,
 "defaultvalue":null,
 "defaultvalue2":null,
 "description":"Period of the Calendar",
 "displaylogic":null,
 "entitytype":"Financial Reporting",
 "fieldlength":0,
 "help":"The Period indicates an exclusive range of dates for a calendar.",
 "isactive":"Y",
 "iscentrallymaintained":"Y",
 "ismandatory":"N",
 "isrange":"N",
 "readonlylogic":null,
 "seqno":20,
 "updated":"2015-08-03T13:41:36",
 "updatedby":100,
 "valuemax":null,
 "valuemin":null,
 "vformat":null}, "children" : []},{"tablename" : "ad_process_para", "data" : {"ad_process_para_id":55273,
 "name":"Account",
 "ad_client_id":0,
 "ad_element_id":148,
 "ad_org_id":0,
 "ad_process_id":53785,
 "ad_reference_id":18,
 "ad_reference_value_id":132,
 "ad_val_rule_id":null,
 "columnname":"Account_ID",
 "created":"2015-08-03T13:41:37",
 "createdby":100,
 "defaultvalue":null,
 "defaultvalue2":null,
 "description":"Account used",
 "displaylogic":null,
 "entitytype":"Financial Reporting",
 "fieldlength":0,
 "help":"The (natural) account used",
 "isactive":"Y",
 "iscentrallymaintained":"Y",
 "ismandatory":"N",
 "isrange":"N",
 "readonlylogic":null,
 "seqno":30,
 "updated":"2015-08-03T13:41:37",
 "updatedby":100,
 "valuemax":null,
 "valuemin":null,
 "vformat":null}, "children" : []},{"tablename" : "ad_process_para", "data" : {"ad_process_para_id":55274,
 "name":"Business Partner ",
 "ad_client_id":0,
 "ad_element_id":187,
 "ad_org_id":0,
 "ad_process_id":53785,
 "ad_reference_id":30,
 "ad_reference_value_id":null,
 "ad_val_rule_id":null,
 "columnname":"C_BPartner_ID",
 "created":"2015-08-03T13:41:38",
 "createdby":100,
 "defaultvalue":null,
 "defaultvalue2":null,
 "description":"Identifies a Business Partner",
 "displaylogic":null,
 "entitytype":"Financial Reporting",
 "fieldlength":0,
 "help":"A Business Partner is anyone with whom you transact.  This can include Vendor, Customer, Employee or Salesperson",
 "isactive":"Y",
 "iscentrallymaintained":"Y",
 "ismandatory":"N",
 "isrange":"N",
 "readonlylogic":null,
 "seqno":40,
 "updated":"2015-08-03T13:41:38",
 "updatedby":100,
 "valuemax":null,
 "valuemin":null,
 "vformat":null}, "children" : []},{"tablename" : "ad_process_para", "data" : {"ad_process_para_id":55275,
 "name":"Product",
 "ad_client_id":0,
 "ad_element_id":454,
 "ad_org_id":0,
 "ad_process_id":53785,
 "ad_reference_id":30,
 "ad_reference_value_id":null,
 "ad_val_rule_id":null,
 "columnname":"M_Product_ID",
 "created":"2015-08-03T13:41:39",
 "createdby":100,
 "defaultvalue":null,
 "defaultvalue2":null,
 "description":"Product, Service, Item",
 "displaylogic":null,
 "entitytype":"Financial Reporting",
 "fieldlength":0,
 "help":"Identifies an item which is either purchased or sold in this organization.",
 "isactive":"Y",
 "iscentrallymaintained":"Y",
 "ismandatory":"N",
 "isrange":"N",
 "readonlylogic":null,
 "seqno":50,
 "updated":"2015-08-03T13:41:39",
 "updatedby":100,
 "valuemax":null,
 "valuemin":null,
 "vformat":null}, "children" : []},{"tablename" : "ad_process_para", "data" : {"ad_process_para_id":55276,
 "name":"Tax",
 "ad_client_id":0,
 "ad_element_id":213,
 "ad_org_id":0,
 "ad_process_id":53785,
 "ad_reference_id":19,
 "ad_reference_value_id":null,
 "ad_val_rule_id":null,
 "columnname":"C_Tax_ID",
 "created":"2015-08-03T13:41:40",
 "createdby":100,
 "defaultvalue":null,
 "defaultvalue2":null,
 "description":"Tax identifier",
 "displaylogic":null,
 "entitytype":"Financial Reporting",
 "fieldlength":0,
 "help":"The Tax indicates the type of tax used in document line.",
 "isactive":"Y",
 "iscentrallymaintained":"Y",
 "ismandatory":"N",
 "isrange":"N",
 "readonlylogic":null,
 "seqno":60,
 "updated":"2015-08-03T13:41:40",
 "updatedby":100,
 "valuemax":null,
 "valuemin":null,
 "vformat":null}, "children" : []},{"tablename" : "ad_process_para", "data" : {"ad_process_para_id":55277,
 "name":"Project",
 "ad_client_id":0,
 "ad_element_id":null,
 "ad_org_id":0,
 "ad_process_id":53785,
 "ad_reference_id":19,
 "ad_reference_value_id":null,
 "ad_val_rule_id":null,
 "columnname":"C_Project_ID",
 "created":"2015-08-03T13:42:41",
 "createdby":100,
 "defaultvalue":null,
 "defaultvalue2":null,
 "description":"Financial Project",
 "displaylogic":null,
 "entitytype":"Financial Reporting",
 "fieldlength":10,
 "help":"A Project allows you to track and control internal or external activities.",
 "isactive":"Y",
 "iscentrallymaintained":"Y",
 "ismandatory":"N",
 "isrange":"N",
 "readonlylogic":null,
 "seqno":15,
 "updated":"2016-04-12T09:52:23.093499",
 "updatedby":100,
 "valuemax":null,
 "valuemin":null,
 "vformat":null}, "children" : []}]}]