[{"tablename" : "ad_process", "data" : {"ad_process_id":53202,
 "value":"C_POSKeyGenerate",
 "name":"POS Key Generate",
 "accesslevel":"1",
 "ad_client_id":0,
 "ad_form_id":null,
 "ad_org_id":0,
 "ad_printformat_id":null,
 "ad_reportview_id":null,
 "ad_tableselection_id":null,
 "ad_workflow_id":null,
 "classname":"org.compiere.process.PosKeyGenerate",
 "copyfromprocess":"N",
 "created":"2010-03-24T09:47:24",
 "createdby":100,
 "description":"Generate POS Keys from products.",
 "entitytype":"Point of Sales",
 "help":null,
 "isactive":"Y",
 "isbetafunctionality":"N",
 "isdirectprint":"N",
 "isreport":"N",
 "isserverprocess":"N",
 "jasperreport":null,
 "procedurename":null,
 "showhelp":"Y",
 "statistic_count":0,
 "statistic_seconds":0,
 "updated":"2010-03-24T10:02:43",
 "updatedby":100,
 "workflowvalue":null}, "children" : [{"tablename" : "ad_process_para", "data" : {"ad_process_para_id":53406,
 "name":"Product Category",
 "ad_client_id":0,
 "ad_element_id":453,
 "ad_org_id":0,
 "ad_process_id":53202,
 "ad_reference_id":19,
 "ad_reference_value_id":null,
 "ad_val_rule_id":null,
 "columnname":"M_Product_Category_ID",
 "created":"2010-03-24T09:49:37",
 "createdby":100,
 "defaultvalue":null,
 "defaultvalue2":null,
 "description":"Category of a Product",
 "displaylogic":null,
 "entitytype":"Point of Sales",
 "fieldlength":10,
 "help":"Identifies the category which this product belongs to.  Product categories are used for pricing and selection.",
 "isactive":"Y",
 "iscentrallymaintained":"Y",
 "ismandatory":"N",
 "isrange":"N",
 "readonlylogic":null,
 "seqno":20,
 "updated":"2016-04-12T09:52:23.093499",
 "updatedby":100,
 "valuemax":null,
 "valuemin":null,
 "vformat":null}, "children" : []}]},
 {"tablename" : "ad_process", "data" : {"ad_process_id":53823,
 "value":"C_POS Generate Immediate Invoice",
 "name":"Generate Immediate Invoice",
 "accesslevel":"3",
 "ad_client_id":0,
 "ad_form_id":null,
 "ad_org_id":0,
 "ad_printformat_id":null,
 "ad_reportview_id":null,
 "ad_tableselection_id":null,
 "ad_workflow_id":null,
 "classname":"org.adempiere.pos.process.GenerateImmediateInvoice",
 "copyfromprocess":null,
 "created":"2016-01-20T11:01:11",
 "createdby":100,
 "description":"This process allows generate immediate invoice based on a new business partner.",
 "entitytype":"Point of Sales",
 "help":null,
 "isactive":"Y",
 "isbetafunctionality":"N",
 "isdirectprint":"N",
 "isreport":"N",
 "isserverprocess":"N",
 "jasperreport":null,
 "procedurename":null,
 "showhelp":"Y",
 "statistic_count":0,
 "statistic_seconds":0,
 "updated":"2016-01-20T11:01:11",
 "updatedby":100,
 "workflowvalue":null}, "children" : [{"tablename" : "ad_process_para", "data" : {"ad_process_para_id":55359,
 "name":"Order",
 "ad_client_id":0,
 "ad_element_id":558,
 "ad_org_id":0,
 "ad_process_id":53823,
 "ad_reference_id":30,
 "ad_reference_value_id":null,
 "ad_val_rule_id":null,
 "columnname":"C_Order_ID",
 "created":"2016-01-20T11:01:13",
 "createdby":100,
 "defaultvalue":null,
 "defaultvalue2":null,
 "description":"Order",
 "displaylogic":null,
 "entitytype":"Point of Sales",
 "fieldlength":10,
 "help":"The Order is a control document.  The  Order is complete when the quantity ordered is the same as the quantity shipped and invoiced.  When you close an order, unshipped (backordered) quantities are cancelled.",
 "isactive":"Y",
 "iscentrallymaintained":"Y",
 "ismandatory":"Y",
 "isrange":"N",
 "readonlylogic":null,
 "seqno":10,
 "updated":"2019-02-04T13:38:24",
 "updatedby":0,
 "valuemax":null,
 "valuemin":null,
 "vformat":null}, "children" : []},{"tablename" : "ad_process_para", "data" : {"ad_process_para_id":55360,
 "name":"Invoice Partner",
 "ad_client_id":0,
 "ad_element_id":2039,
 "ad_org_id":0,
 "ad_process_id":53823,
 "ad_reference_id":30,
 "ad_reference_value_id":null,
 "ad_val_rule_id":null,
 "columnname":"Bill_BPartner_ID",
 "created":"2016-01-20T11:01:14",
 "createdby":100,
 "defaultvalue":null,
 "defaultvalue2":null,
 "description":"Business Partner to be invoiced",
 "displaylogic":null,
 "entitytype":"Point of Sales",
 "fieldlength":22,
 "help":"If empty the shipment business partner will be invoiced",
 "isactive":"Y",
 "iscentrallymaintained":"Y",
 "ismandatory":"N",
 "isrange":"N",
 "readonlylogic":null,
 "seqno":20,
 "updated":"2019-02-04T13:38:24",
 "updatedby":0,
 "valuemax":null,
 "valuemin":null,
 "vformat":null}, "children" : []},{"tablename" : "ad_process_para", "data" : {"ad_process_para_id":55361,
 "name":"Document BaseType",
 "ad_client_id":0,
 "ad_element_id":865,
 "ad_org_id":0,
 "ad_process_id":53823,
 "ad_reference_id":17,
 "ad_reference_value_id":183,
 "ad_val_rule_id":null,
 "columnname":"DocBaseType",
 "created":"2016-01-20T11:01:23",
 "createdby":100,
 "defaultvalue":null,
 "defaultvalue2":null,
 "description":"Logical type of document",
 "displaylogic":null,
 "entitytype":"Point of Sales",
 "fieldlength":3,
 "help":"The Document Base Type identifies the base or starting point for a document.  Multiple document types may share a single document base type.",
 "isactive":"Y",
 "iscentrallymaintained":"Y",
 "ismandatory":"N",
 "isrange":"N",
 "readonlylogic":null,
 "seqno":30,
 "updated":"2016-01-20T11:01:23",
 "updatedby":100,
 "valuemax":null,
 "valuemin":null,
 "vformat":null}, "children" : []},{"tablename" : "ad_process_para", "data" : {"ad_process_para_id":55362,
 "name":"Include Payments",
 "ad_client_id":0,
 "ad_element_id":55220,
 "ad_org_id":0,
 "ad_process_id":53823,
 "ad_reference_id":17,
 "ad_reference_value_id":319,
 "ad_val_rule_id":null,
 "columnname":"IsIncludePayments",
 "created":"2016-01-20T11:01:25",
 "createdby":100,
 "defaultvalue":null,
 "defaultvalue2":null,
 "description":"Include payments in the aging report",
 "displaylogic":null,
 "entitytype":"Point of Sales",
 "fieldlength":0,
 "help":null,
 "isactive":"Y",
 "iscentrallymaintained":"Y",
 "ismandatory":"Y",
 "isrange":"N",
 "readonlylogic":null,
 "seqno":40,
 "updated":"2016-01-20T11:01:25",
 "updatedby":100,
 "valuemax":null,
 "valuemin":null,
 "vformat":null}, "children" : []},{"tablename" : "ad_process_para", "data" : {"ad_process_para_id":55363,
 "name":"Allocated",
 "ad_client_id":0,
 "ad_element_id":1508,
 "ad_org_id":0,
 "ad_process_id":53823,
 "ad_reference_id":17,
 "ad_reference_value_id":319,
 "ad_val_rule_id":null,
 "columnname":"IsAllocated",
 "created":"2016-01-20T11:01:26",
 "createdby":100,
 "defaultvalue":null,
 "defaultvalue2":null,
 "description":"Indicates if the payment has been allocated",
 "displaylogic":null,
 "entitytype":"Point of Sales",
 "fieldlength":1,
 "help":"The Allocated checkbox indicates if a payment has been allocated or associated with an invoice or invoices.",
 "isactive":"Y",
 "iscentrallymaintained":"Y",
 "ismandatory":"Y",
 "isrange":"N",
 "readonlylogic":null,
 "seqno":50,
 "updated":"2016-01-20T11:01:26",
 "updatedby":100,
 "valuemax":null,
 "valuemin":null,
 "vformat":null}, "children" : []},{"tablename" : "ad_process_para", "data" : {"ad_process_para_id":55364,
 "name":"Ship/Receipt Confirmation",
 "ad_client_id":0,
 "ad_element_id":2522,
 "ad_org_id":0,
 "ad_process_id":53823,
 "ad_reference_id":20,
 "ad_reference_value_id":null,
 "ad_val_rule_id":null,
 "columnname":"IsShipConfirm",
 "created":"2016-01-20T11:01:27",
 "createdby":100,
 "defaultvalue":null,
 "defaultvalue2":null,
 "description":"Require Ship or Receipt Confirmation before processing",
 "displaylogic":null,
 "entitytype":"Point of Sales",
 "fieldlength":1,
 "help":"The processing of the Shipment (Receipt) requires Ship (Receipt) Confirmation. Note that shipments for automatic documents like POS/Warehouse Orders cannot have confirmations!",
 "isactive":"Y",
 "iscentrallymaintained":"Y",
 "ismandatory":"N",
 "isrange":"N",
 "readonlylogic":null,
 "seqno":60,
 "updated":"2016-01-20T11:01:27",
 "updatedby":100,
 "valuemax":null,
 "valuemin":null,
 "vformat":null}, "children" : []}]},
 {"tablename" : "ad_process", "data" : {"ad_process_id":53824,
 "value":"C_POS ReverseTheSalesTransaction",
 "name":"Reverse The Sales Transaction",
 "accesslevel":"3",
 "ad_client_id":0,
 "ad_form_id":null,
 "ad_org_id":0,
 "ad_printformat_id":null,
 "ad_reportview_id":null,
 "ad_tableselection_id":null,
 "ad_workflow_id":null,
 "classname":"org.adempiere.pos.process.ReverseTheSalesTransaction",
 "copyfromprocess":null,
 "created":"2016-01-20T11:01:28",
 "createdby":100,
 "description":"This process allows reverse the sales transaction",
 "entitytype":"Point of Sales",
 "help":null,
 "isactive":"Y",
 "isbetafunctionality":"N",
 "isdirectprint":"N",
 "isreport":"N",
 "isserverprocess":"N",
 "jasperreport":null,
 "procedurename":null,
 "showhelp":"Y",
 "statistic_count":0,
 "statistic_seconds":0,
 "updated":"2016-01-20T11:01:28",
 "updatedby":100,
 "workflowvalue":null}, "children" : [{"tablename" : "ad_process_para", "data" : {"ad_process_para_id":55365,
 "name":"Order",
 "ad_client_id":0,
 "ad_element_id":558,
 "ad_org_id":0,
 "ad_process_id":53824,
 "ad_reference_id":30,
 "ad_reference_value_id":null,
 "ad_val_rule_id":null,
 "columnname":"C_Order_ID",
 "created":"2016-01-20T11:01:29",
 "createdby":100,
 "defaultvalue":null,
 "defaultvalue2":null,
 "description":"Order",
 "displaylogic":null,
 "entitytype":"Point of Sales",
 "fieldlength":22,
 "help":"The Order is a control document.  The  Order is complete when the quantity ordered is the same as the quantity shipped and invoiced.  When you close an order, unshipped (backordered) quantities are cancelled.",
 "isactive":"Y",
 "iscentrallymaintained":"Y",
 "ismandatory":"Y",
 "isrange":"N",
 "readonlylogic":null,
 "seqno":10,
 "updated":"2019-02-04T13:38:24",
 "updatedby":0,
 "valuemax":null,
 "valuemin":null,
 "vformat":null}, "children" : []},{"tablename" : "ad_process_para", "data" : {"ad_process_para_id":55366,
 "name":"Invoice Partner",
 "ad_client_id":0,
 "ad_element_id":2039,
 "ad_org_id":0,
 "ad_process_id":53824,
 "ad_reference_id":18,
 "ad_reference_value_id":138,
 "ad_val_rule_id":null,
 "columnname":"Bill_BPartner_ID",
 "created":"2016-01-20T11:01:30",
 "createdby":100,
 "defaultvalue":null,
 "defaultvalue2":null,
 "description":"Business Partner to be invoiced",
 "displaylogic":null,
 "entitytype":"Point of Sales",
 "fieldlength":22,
 "help":"If empty the shipment business partner will be invoiced",
 "isactive":"Y",
 "iscentrallymaintained":"Y",
 "ismandatory":"N",
 "isrange":"N",
 "readonlylogic":null,
 "seqno":20,
 "updated":"2016-01-20T11:01:30",
 "updatedby":100,
 "valuemax":null,
 "valuemin":null,
 "vformat":null}, "children" : []},{"tablename" : "ad_process_para", "data" : {"ad_process_para_id":55367,
 "name":"Ship/Receipt Confirmation",
 "ad_client_id":0,
 "ad_element_id":2522,
 "ad_org_id":0,
 "ad_process_id":53824,
 "ad_reference_id":20,
 "ad_reference_value_id":null,
 "ad_val_rule_id":null,
 "columnname":"IsShipConfirm",
 "created":"2016-01-20T11:01:30",
 "createdby":100,
 "defaultvalue":null,
 "defaultvalue2":null,
 "description":"Require Ship or Receipt Confirmation before processing",
 "displaylogic":null,
 "entitytype":"Point of Sales",
 "fieldlength":1,
 "help":"The processing of the Shipment (Receipt) requires Ship (Receipt) Confirmation. Note that shipments for automatic documents like POS/Warehouse Orders cannot have confirmations!",
 "isactive":"Y",
 "iscentrallymaintained":"Y",
 "ismandatory":"N",
 "isrange":"N",
 "readonlylogic":null,
 "seqno":30,
 "updated":"2016-01-20T11:01:30",
 "updatedby":100,
 "valuemax":null,
 "valuemin":null,
 "vformat":null}, "children" : []},{"tablename" : "ad_process_para", "data" : {"ad_process_para_id":55368,
 "name":"Cancelled",
 "ad_client_id":0,
 "ad_element_id":2531,
 "ad_org_id":0,
 "ad_process_id":53824,
 "ad_reference_id":20,
 "ad_reference_value_id":null,
 "ad_val_rule_id":null,
 "columnname":"IsCancelled",
 "created":"2016-01-26T10:22:12",
 "createdby":100,
 "defaultvalue":"N",
 "defaultvalue2":null,
 "description":"The transaction was cancelled",
 "displaylogic":null,
 "entitytype":"Point of Sales",
 "fieldlength":1,
 "help":null,
 "isactive":"Y",
 "iscentrallymaintained":"Y",
 "ismandatory":"N",
 "isrange":"N",
 "readonlylogic":null,
 "seqno":25,
 "updated":"2016-01-26T10:22:12",
 "updatedby":100,
 "valuemax":null,
 "valuemin":null,
 "vformat":null}, "children" : []}]},
 {"tablename" : "ad_process", "data" : {"ad_process_id":53846,
 "value":"C_POS Withdrawal",
 "name":"POS Withdrawal",
 "accesslevel":"3",
 "ad_client_id":0,
 "ad_form_id":null,
 "ad_org_id":0,
 "ad_printformat_id":null,
 "ad_reportview_id":null,
 "ad_tableselection_id":null,
 "ad_workflow_id":null,
 "classname":"org.adempiere.pos.process.GenerateWithdrawal",
 "copyfromprocess":null,
 "created":"2016-04-22T16:10:47",
 "createdby":100,
 "description":"This Smart Browser allows withdrawal by tender type",
 "entitytype":"Point of Sales",
 "help":null,
 "isactive":"Y",
 "isbetafunctionality":"N",
 "isdirectprint":"N",
 "isreport":"N",
 "isserverprocess":"N",
 "jasperreport":null,
 "procedurename":null,
 "showhelp":"Y",
 "statistic_count":0,
 "statistic_seconds":0,
 "updated":"2016-04-22T16:10:47",
 "updatedby":100,
 "workflowvalue":null}, "children" : [{"tablename" : "ad_process_para", "data" : {"ad_process_para_id":55446,
 "name":"Business Partner ",
 "ad_client_id":0,
 "ad_element_id":187,
 "ad_org_id":0,
 "ad_process_id":53846,
 "ad_reference_id":30,
 "ad_reference_value_id":null,
 "ad_val_rule_id":null,
 "columnname":"C_BPartner_ID",
 "created":"2016-04-22T16:10:51",
 "createdby":100,
 "defaultvalue":"@SQL= SELECT C_BPartner_ID FROM C_BPartner bp WHERE bp.AD_OrgBP_ID=@#AD_Org_ID@",
 "defaultvalue2":null,
 "description":"Identifies a Business Partner",
 "displaylogic":null,
 "entitytype":"Point of Sales",
 "fieldlength":22,
 "help":"A Business Partner is anyone with whom you transact.  This can include Vendor, Customer, Employee or Salesperson",
 "isactive":"Y",
 "iscentrallymaintained":"Y",
 "ismandatory":"Y",
 "isrange":"N",
 "readonlylogic":"@C_BPartner_ID@>0",
 "seqno":20,
 "updated":"2016-04-22T16:10:51",
 "updatedby":100,
 "valuemax":null,
 "valuemin":null,
 "vformat":null}, "children" : []},{"tablename" : "ad_process_para", "data" : {"ad_process_para_id":55447,
 "name":"Document No",
 "ad_client_id":0,
 "ad_element_id":290,
 "ad_org_id":0,
 "ad_process_id":53846,
 "ad_reference_id":10,
 "ad_reference_value_id":null,
 "ad_val_rule_id":null,
 "columnname":"DocumentNo",
 "created":"2016-04-22T16:10:54",
 "createdby":100,
 "defaultvalue":null,
 "defaultvalue2":null,
 "description":"Document sequence number of the document",
 "displaylogic":null,
 "entitytype":"Point of Sales",
 "fieldlength":30,
 "help":"The document number is usually automatically generated by the system and determined by the document type of the document. If the document is not saved, the preliminary number is displayed in \"<>\".\n\nIf the document type of your document has no automatic document sequence defined, the field is empty if you create a new document. This is for documents which usually have an external number (like vendor invoice).  If you leave the field empty, the system will generate a document number for you. The document sequence used for this fallback number is defined in the \"Maintain Sequence\" window with the name \"DocumentNo_<TableName>\", where TableName is the actual name of the table (e.g. C_Order).",
 "isactive":"Y",
 "iscentrallymaintained":"Y",
 "ismandatory":"N",
 "isrange":"N",
 "readonlylogic":null,
 "seqno":30,
 "updated":"2016-04-22T16:10:54",
 "updatedby":100,
 "valuemax":null,
 "valuemin":null,
 "vformat":null}, "children" : []},{"tablename" : "ad_process_para", "data" : {"ad_process_para_id":55448,
 "name":"Description",
 "ad_client_id":0,
 "ad_element_id":275,
 "ad_org_id":0,
 "ad_process_id":53846,
 "ad_reference_id":10,
 "ad_reference_value_id":null,
 "ad_val_rule_id":null,
 "columnname":"Description",
 "created":"2016-04-22T16:10:55",
 "createdby":100,
 "defaultvalue":null,
 "defaultvalue2":null,
 "description":"Optional short description of the record",
 "displaylogic":null,
 "entitytype":"Point of Sales",
 "fieldlength":29,
 "help":"A description is limited to 255 characters.",
 "isactive":"Y",
 "iscentrallymaintained":"Y",
 "ismandatory":"N",
 "isrange":"N",
 "readonlylogic":null,
 "seqno":40,
 "updated":"2016-04-22T16:10:55",
 "updatedby":100,
 "valuemax":null,
 "valuemin":null,
 "vformat":null}, "children" : []},{"tablename" : "ad_process_para", "data" : {"ad_process_para_id":55449,
 "name":"Transaction Date",
 "ad_client_id":0,
 "ad_element_id":1297,
 "ad_org_id":0,
 "ad_process_id":53846,
 "ad_reference_id":15,
 "ad_reference_value_id":null,
 "ad_val_rule_id":null,
 "columnname":"DateTrx",
 "created":"2016-04-22T16:10:56",
 "createdby":100,
 "defaultvalue":"@#Date@",
 "defaultvalue2":null,
 "description":"Transaction Date",
 "displaylogic":null,
 "entitytype":"Point of Sales",
 "fieldlength":7,
 "help":"The Transaction Date indicates the date of the transaction.",
 "isactive":"Y",
 "iscentrallymaintained":"Y",
 "ismandatory":"Y",
 "isrange":"N",
 "readonlylogic":null,
 "seqno":50,
 "updated":"2016-04-22T16:10:56",
 "updatedby":100,
 "valuemax":null,
 "valuemin":null,
 "vformat":null}, "children" : []},{"tablename" : "ad_process_para", "data" : {"ad_process_para_id":55450,
 "name":"Account Date",
 "ad_client_id":0,
 "ad_element_id":263,
 "ad_org_id":0,
 "ad_process_id":53846,
 "ad_reference_id":15,
 "ad_reference_value_id":null,
 "ad_val_rule_id":null,
 "columnname":"DateAcct",
 "created":"2016-04-22T16:10:57",
 "createdby":100,
 "defaultvalue":"@#Date@",
 "defaultvalue2":null,
 "description":"Accounting Date",
 "displaylogic":null,
 "entitytype":"Point of Sales",
 "fieldlength":7,
 "help":"The Accounting Date indicates the date to be used on the General Ledger account entries generated from this document. It is also used for any currency conversion.",
 "isactive":"Y",
 "iscentrallymaintained":"Y",
 "ismandatory":"Y",
 "isrange":"N",
 "readonlylogic":null,
 "seqno":60,
 "updated":"2016-04-22T16:10:57",
 "updatedby":100,
 "valuemax":null,
 "valuemin":null,
 "vformat":null}, "children" : []},{"tablename" : "ad_process_para", "data" : {"ad_process_para_id":55451,
 "name":"Bank Account",
 "ad_client_id":0,
 "ad_element_id":836,
 "ad_org_id":0,
 "ad_process_id":53846,
 "ad_reference_id":19,
 "ad_reference_value_id":null,
 "ad_val_rule_id":52455,
 "columnname":"C_BankAccount_ID",
 "created":"2016-04-22T16:11:01",
 "createdby":100,
 "defaultvalue":"@SQL=SELECT pos.C_BankAccount_ID FROM C_POS pos WHERE pos.C_POS_ID=@C_POS_ID@",
 "defaultvalue2":null,
 "description":"Account at the Bank",
 "displaylogic":null,
 "entitytype":"Point of Sales",
 "fieldlength":22,
 "help":"The Bank Account identifies an account at this Bank.",
 "isactive":"Y",
 "iscentrallymaintained":"Y",
 "ismandatory":"Y",
 "isrange":"N",
 "readonlylogic":"@C_BankAccount_ID@>0",
 "seqno":70,
 "updated":"2016-04-22T16:11:01",
 "updatedby":100,
 "valuemax":null,
 "valuemin":null,
 "vformat":null}, "children" : []},{"tablename" : "ad_process_para", "data" : {"ad_process_para_id":55452,
 "name":"Transfer Cash trx to",
 "ad_client_id":0,
 "ad_element_id":52032,
 "ad_org_id":0,
 "ad_process_id":53846,
 "ad_reference_id":18,
 "ad_reference_value_id":53283,
 "ad_val_rule_id":52456,
 "columnname":"CashTransferBankAccount_ID",
 "created":"2016-04-22T16:11:04",
 "createdby":100,
 "defaultvalue":"@SQL=SELECT pos.CashTransferBankAccount_ID FROM C_POS pos WHERE pos.C_POS_ID=@C_POS_ID@",
 "defaultvalue2":null,
 "description":"Bank Account on which to transfer all Cash transactions",
 "displaylogic":null,
 "entitytype":"Point of Sales",
 "fieldlength":22,
 "help":null,
 "isactive":"Y",
 "iscentrallymaintained":"Y",
 "ismandatory":"Y",
 "isrange":"N",
 "readonlylogic":"@CashTransferBankAccount_ID@>0",
 "seqno":80,
 "updated":"2016-04-22T16:11:04",
 "updatedby":100,
 "valuemax":null,
 "valuemin":null,
 "vformat":null}, "children" : []},{"tablename" : "ad_process_para", "data" : {"ad_process_para_id":55453,
 "name":"Document Type",
 "ad_client_id":0,
 "ad_element_id":196,
 "ad_org_id":0,
 "ad_process_id":53846,
 "ad_reference_id":19,
 "ad_reference_value_id":null,
 "ad_val_rule_id":52457,
 "columnname":"C_DocType_ID",
 "created":"2016-04-22T16:11:06",
 "createdby":100,
 "defaultvalue":"@SQL=SELECT C_DocType_ID FROM C_DocType WHERE C_DocType.DocBaseType IN ('APP') AND IsDefault='Y'",
 "defaultvalue2":null,
 "description":"Document type or rules",
 "displaylogic":null,
 "entitytype":"Point of Sales",
 "fieldlength":22,
 "help":"The Document Type determines document sequence and processing rules",
 "isactive":"Y",
 "iscentrallymaintained":"Y",
 "ismandatory":"N",
 "isrange":"N",
 "readonlylogic":null,
 "seqno":90,
 "updated":"2016-04-22T16:11:06",
 "updatedby":100,
 "valuemax":null,
 "valuemin":null,
 "vformat":null}, "children" : []},{"tablename" : "ad_process_para", "data" : {"ad_process_para_id":55454,
 "name":"Counter Document Type",
 "ad_client_id":0,
 "ad_element_id":2494,
 "ad_org_id":0,
 "ad_process_id":53846,
 "ad_reference_id":18,
 "ad_reference_value_id":170,
 "ad_val_rule_id":52458,
 "columnname":"Counter_C_DocType_ID",
 "created":"2016-04-22T16:11:09",
 "createdby":100,
 "defaultvalue":"@SQL=SELECT C_DocType_ID FROM C_DocType WHERE C_DocType.DocBaseType IN ('ARR') AND IsDefault='Y'",
 "defaultvalue2":null,
 "description":"Generated Counter Document Type (To)",
 "displaylogic":null,
 "entitytype":"Point of Sales",
 "fieldlength":22,
 "help":"The Document Type of the generated counter document",
 "isactive":"Y",
 "iscentrallymaintained":"Y",
 "ismandatory":"N",
 "isrange":"N",
 "readonlylogic":null,
 "seqno":100,
 "updated":"2016-04-22T16:11:09",
 "updatedby":100,
 "valuemax":null,
 "valuemin":null,
 "vformat":null}, "children" : []},{"tablename" : "ad_process_para", "data" : {"ad_process_para_id":55455,
 "name":"Charge",
 "ad_client_id":0,
 "ad_element_id":968,
 "ad_org_id":0,
 "ad_process_id":53846,
 "ad_reference_id":18,
 "ad_reference_value_id":200,
 "ad_val_rule_id":null,
 "columnname":"C_Charge_ID",
 "created":"2016-04-22T16:11:10",
 "createdby":100,
 "defaultvalue":"@SQL=SELECT C_Charge_ID FROM C_Charge_Acct ca INNER JOIN C_ValidCombination cvc ON (ca.Ch_Expense_Acct=cvc.C_ValidCombination_ID)   WHERE EXISTS (SELECT 1 FROM C_BankAccount_Acct baa INNER JOIN C_ValidCombination vc ON (baa.B_InTransit_Acct=vc.C_ValidCombination_ID)  WHERE vc.Account_ID = cvc.Account_ID AND baa.C_BankAccount_ID=@C_BankAccount_ID@)",
 "defaultvalue2":null,
 "description":"Additional document charges",
 "displaylogic":null,
 "entitytype":"Point of Sales",
 "fieldlength":22,
 "help":"The Charge indicates a type of Charge (Handling, Shipping, Restocking)",
 "isactive":"Y",
 "iscentrallymaintained":"Y",
 "ismandatory":"Y",
 "isrange":"N",
 "readonlylogic":"@C_Charge_ID@ > 0",
 "seqno":110,
 "updated":"2016-04-22T16:11:10",
 "updatedby":100,
 "valuemax":null,
 "valuemin":null,
 "vformat":null}, "children" : []},{"tablename" : "ad_process_para", "data" : {"ad_process_para_id":55456,
 "name":"Currency Type",
 "ad_client_id":0,
 "ad_element_id":2278,
 "ad_org_id":0,
 "ad_process_id":53846,
 "ad_reference_id":19,
 "ad_reference_value_id":null,
 "ad_val_rule_id":null,
 "columnname":"C_ConversionType_ID",
 "created":"2016-04-22T16:11:11",
 "createdby":100,
 "defaultvalue":null,
 "defaultvalue2":null,
 "description":"Currency Conversion Rate Type",
 "displaylogic":null,
 "entitytype":"Point of Sales",
 "fieldlength":22,
 "help":"The Currency Conversion Rate Type lets you define different type of rates, e.g. Spot, Corporate and/or Sell/Buy rates.",
 "isactive":"N",
 "iscentrallymaintained":"Y",
 "ismandatory":"N",
 "isrange":"N",
 "readonlylogic":null,
 "seqno":120,
 "updated":"2016-04-22T16:11:11",
 "updatedby":100,
 "valuemax":null,
 "valuemin":null,
 "vformat":null}, "children" : []},{"tablename" : "ad_process_para", "data" : {"ad_process_para_id":55457,
 "name":"Currency",
 "ad_client_id":0,
 "ad_element_id":193,
 "ad_org_id":0,
 "ad_process_id":53846,
 "ad_reference_id":19,
 "ad_reference_value_id":null,
 "ad_val_rule_id":null,
 "columnname":"C_Currency_ID",
 "created":"2016-04-22T16:11:12",
 "createdby":100,
 "defaultvalue":"@SQL=SELECT C_Currency_ID FROM C_BankAccount_ID = @C_BankAccount_ID@",
 "defaultvalue2":null,
 "description":"The Currency for this record",
 "displaylogic":null,
 "entitytype":"Point of Sales",
 "fieldlength":22,
 "help":"Indicates the Currency to be used when processing or reporting on this record",
 "isactive":"Y",
 "iscentrallymaintained":"Y",
 "ismandatory":"Y",
 "isrange":"N",
 "readonlylogic":"@C_Currency_ID@>0",
 "seqno":130,
 "updated":"2016-04-22T16:11:12",
 "updatedby":100,
 "valuemax":null,
 "valuemin":null,
 "vformat":null}, "children" : []}]},
 {"tablename" : "ad_process", "data" : {"ad_process_id":53847,
 "value":"C_POS Bank Statement Close",
 "name":"POS Bank Statement Close",
 "accesslevel":"3",
 "ad_client_id":0,
 "ad_form_id":null,
 "ad_org_id":0,
 "ad_printformat_id":null,
 "ad_reportview_id":null,
 "ad_tableselection_id":null,
 "ad_workflow_id":null,
 "classname":"org.adempiere.pos.process.CloseStatementPOS",
 "copyfromprocess":null,
 "created":"2016-04-22T16:40:44",
 "createdby":100,
 "description":"This process allow close an Bank Statement",
 "entitytype":"Point of Sales",
 "help":null,
 "isactive":"Y",
 "isbetafunctionality":"N",
 "isdirectprint":"N",
 "isreport":"N",
 "isserverprocess":"N",
 "jasperreport":null,
 "procedurename":null,
 "showhelp":"Y",
 "statistic_count":0,
 "statistic_seconds":0,
 "updated":"2016-04-22T16:40:44",
 "updatedby":100,
 "workflowvalue":null}, "children" : [{"tablename" : "ad_process_para", "data" : {"ad_process_para_id":55459,
 "name":"Bank Account",
 "ad_client_id":0,
 "ad_element_id":836,
 "ad_org_id":0,
 "ad_process_id":53847,
 "ad_reference_id":19,
 "ad_reference_value_id":null,
 "ad_val_rule_id":null,
 "columnname":"C_BankAccount_ID",
 "created":"2016-04-22T16:40:48",
 "createdby":100,
 "defaultvalue":"@pay.C_BankAccount_ID@",
 "defaultvalue2":null,
 "description":"Account at the Bank",
 "displaylogic":null,
 "entitytype":"Point of Sales",
 "fieldlength":22,
 "help":"The Bank Account identifies an account at this Bank.",
 "isactive":"Y",
 "iscentrallymaintained":"Y",
 "ismandatory":"N",
 "isrange":"N",
 "readonlylogic":"@C_BankAccount_ID@!0",
 "seqno":20,
 "updated":"2016-04-22T16:40:48",
 "updatedby":100,
 "valuemax":null,
 "valuemin":null,
 "vformat":null}, "children" : []},{"tablename" : "ad_process_para", "data" : {"ad_process_para_id":55460,
 "name":"Transaction Date",
 "ad_client_id":0,
 "ad_element_id":1297,
 "ad_org_id":0,
 "ad_process_id":53847,
 "ad_reference_id":15,
 "ad_reference_value_id":null,
 "ad_val_rule_id":null,
 "columnname":"DateTrx",
 "created":"2016-04-22T16:40:49",
 "createdby":100,
 "defaultvalue":"@pay.DateTrx@",
 "defaultvalue2":"@pay.DateTrx_To@",
 "description":"Transaction Date",
 "displaylogic":null,
 "entitytype":"Point of Sales",
 "fieldlength":7,
 "help":"The Transaction Date indicates the date of the transaction.",
 "isactive":"Y",
 "iscentrallymaintained":"Y",
 "ismandatory":"N",
 "isrange":"Y",
 "readonlylogic":"@C_POS_ID@!''",
 "seqno":30,
 "updated":"2016-04-22T16:40:49",
 "updatedby":100,
 "valuemax":null,
 "valuemin":null,
 "vformat":null}, "children" : []},{"tablename" : "ad_process_para", "data" : {"ad_process_para_id":55461,
 "name":"Line Total",
 "ad_client_id":0,
 "ad_element_id":2215,
 "ad_org_id":0,
 "ad_process_id":53847,
 "ad_reference_id":12,
 "ad_reference_value_id":null,
 "ad_val_rule_id":null,
 "columnname":"LineTotalAmt",
 "created":"2016-04-22T16:40:50",
 "createdby":100,
 "defaultvalue":"@SQL= SELECT SUM (o.grandtotal) FROM C_Order o WHERE o.C_POS_ID = @C_POS_ID@ AND o.DateOrdered  BETWEEN TO_DATE('@pay.DateTrx@','YYYY-MM-DD') AND TO_DATE('@pay.DateTrx_To@','YYYY-MM-DD') AND o.DocStatus IN ('CO','CL')",
 "defaultvalue2":null,
 "description":"Total line amount incl. Tax",
 "displaylogic":null,
 "entitytype":"Point of Sales",
 "fieldlength":22,
 "help":"Total line amount",
 "isactive":"Y",
 "iscentrallymaintained":"Y",
 "ismandatory":"N",
 "isrange":"N",
 "readonlylogic":"1!0",
 "seqno":40,
 "updated":"2016-04-22T16:40:50",
 "updatedby":100,
 "valuemax":null,
 "valuemin":null,
 "vformat":null}, "children" : []},{"tablename" : "ad_process_para", "data" : {"ad_process_para_id":55462,
 "name":"Paid Amount",
 "ad_client_id":0,
 "ad_element_id":1498,
 "ad_org_id":0,
 "ad_process_id":53847,
 "ad_reference_id":12,
 "ad_reference_value_id":null,
 "ad_val_rule_id":null,
 "columnname":"PaidAmt",
 "created":"2016-04-22T16:40:52",
 "createdby":100,
 "defaultvalue":"@SQL=SELECT  COALESCE(SUM(p.PayAmt),0) AS PaidAmt  FROM C_Payment p WHERE p.C_POS_ID = @C_POS_ID@ AND p.DateTrx  BETWEEN TO_DATE('@pay.DateTrx@','YYYY-MM-DD') AND TO_DATE('@pay.DateTrx_To@','YYYY-MM-DD') AND p.DocStatus IN ('CO','CL')",
 "defaultvalue2":null,
 "description":null,
 "displaylogic":null,
 "entitytype":"Point of Sales",
 "fieldlength":22,
 "help":null,
 "isactive":"Y",
 "iscentrallymaintained":"Y",
 "ismandatory":"N",
 "isrange":"N",
 "readonlylogic":"1!0",
 "seqno":50,
 "updated":"2019-02-04T13:39:33.247367",
 "updatedby":100,
 "valuemax":null,
 "valuemin":null,
 "vformat":null}, "children" : []},{"tablename" : "ad_process_para", "data" : {"ad_process_para_id":55463,
 "name":"Open Amount",
 "ad_client_id":0,
 "ad_element_id":1526,
 "ad_org_id":0,
 "ad_process_id":53847,
 "ad_reference_id":12,
 "ad_reference_value_id":null,
 "ad_val_rule_id":null,
 "columnname":"OpenAmt",
 "created":"2016-04-22T16:40:54",
 "createdby":100,
 "defaultvalue":"@SQL=SELECT SUM(o.Grandtotal - COALESCE((SELECT SUM(p.PayAmt) FROM C_Payment p WHERE p.C_Order_ID = o.C_Order_ID AND p.DocStatus IN ('CO','CL')),0))  FROM C_Order o WHERE o.C_POS_ID = @C_POS_ID@ AND o.DateOrdered  BETWEEN TO_DATE('@pay.DateTrx@','YYYY-MM-DD') AND TO_DATE('@pay.DateTrx_To@','YYYY-MM-DD') AND o.DocStatus IN ('CO','CL') AND o.PaymentRule = 'P' ",
 "defaultvalue2":null,
 "description":"Open item amount",
 "displaylogic":null,
 "entitytype":"Point of Sales",
 "fieldlength":22,
 "help":null,
 "isactive":"Y",
 "iscentrallymaintained":"Y",
 "ismandatory":"N",
 "isrange":"N",
 "readonlylogic":"1!0",
 "seqno":60,
 "updated":"2016-04-22T16:40:54",
 "updatedby":100,
 "valuemax":null,
 "valuemin":null,
 "vformat":null}, "children" : []},{"tablename" : "ad_process_para", "data" : {"ad_process_para_id":55464,
 "name":"Difference",
 "ad_client_id":0,
 "ad_element_id":1635,
 "ad_org_id":0,
 "ad_process_id":53847,
 "ad_reference_id":12,
 "ad_reference_value_id":null,
 "ad_val_rule_id":null,
 "columnname":"DifferenceAmt",
 "created":"2016-04-22T16:40:55",
 "createdby":100,
 "defaultvalue":"@SQL=SELECT COALESCE(SUM(COALESCE(o.Grandtotal,0) - (SELECT COALESCE(SUM(p.PayAmt), 0 )  FROM C_Payment p WHERE p.C_Order_ID = o.C_Order_ID AND p.DocStatus IN ('CO','CL'))),0) FROM C_Order o WHERE  o.C_POS_ID = @C_POS_ID@ AND o.DateOrdered  BETWEEN TO_DATE('@pay.DateTrx@','YYYY-MM-DD') AND TO_DATE('@pay.DateTrx_To@','YYYY-MM-DD') AND o.DocStatus IN ('CO','CL') AND o.PaymentRule NOT IN('P')",
 "defaultvalue2":null,
 "description":"Difference Amount",
 "displaylogic":null,
 "entitytype":"Point of Sales",
 "fieldlength":22,
 "help":null,
 "isactive":"Y",
 "iscentrallymaintained":"Y",
 "ismandatory":"N",
 "isrange":"N",
 "readonlylogic":"1!0",
 "seqno":70,
 "updated":"2016-04-22T16:40:55",
 "updatedby":100,
 "valuemax":null,
 "valuemin":null,
 "vformat":null}, "children" : []},{"tablename" : "ad_process_para", "data" : {"ad_process_para_id":55465,
 "name":"Over/Under Payment",
 "ad_client_id":0,
 "ad_element_id":1818,
 "ad_org_id":0,
 "ad_process_id":53847,
 "ad_reference_id":20,
 "ad_reference_value_id":null,
 "ad_val_rule_id":null,
 "columnname":"IsOverUnderPayment",
 "created":"2016-04-22T16:40:56",
 "createdby":100,
 "defaultvalue":"N",
 "defaultvalue2":null,
 "description":"Over-Payment (unallocated) or Under-Payment (partial payment)",
 "displaylogic":null,
 "entitytype":"Point of Sales",
 "fieldlength":1,
 "help":"Overpayments (negative) are unallocated amounts and allow you to receive money for more than the particular invoice. \nUnderpayments (positive) is a partial payment for the invoice. You do not write off the unpaid amount.",
 "isactive":"Y",
 "iscentrallymaintained":"Y",
 "ismandatory":"N",
 "isrange":"N",
 "readonlylogic":null,
 "seqno":80,
 "updated":"2016-04-22T16:40:56",
 "updatedby":100,
 "valuemax":null,
 "valuemin":null,
 "vformat":null}, "children" : []},{"tablename" : "ad_process_para", "data" : {"ad_process_para_id":55466,
 "name":"Charge",
 "ad_client_id":0,
 "ad_element_id":968,
 "ad_org_id":0,
 "ad_process_id":53847,
 "ad_reference_id":19,
 "ad_reference_value_id":null,
 "ad_val_rule_id":52032,
 "columnname":"C_Charge_ID",
 "created":"2016-04-22T16:40:57",
 "createdby":100,
 "defaultvalue":null,
 "defaultvalue2":null,
 "description":"Additional document charges",
 "displaylogic":null,
 "entitytype":"Point of Sales",
 "fieldlength":22,
 "help":"The Charge indicates a type of Charge (Handling, Shipping, Restocking)",
 "isactive":"Y",
 "iscentrallymaintained":"Y",
 "ismandatory":"N",
 "isrange":"N",
 "readonlylogic":null,
 "seqno":90,
 "updated":"2016-04-22T16:40:57",
 "updatedby":100,
 "valuemax":null,
 "valuemin":null,
 "vformat":null}, "children" : []}]}]