[{"tablename" : "ad_process", "data" : {"ad_process_id":169,
 "value":"GL_Journal_Process",
 "name":"Process Journal",
 "accesslevel":"1",
 "ad_client_id":0,
 "ad_form_id":null,
 "ad_org_id":0,
 "ad_printformat_id":null,
 "ad_reportview_id":null,
 "ad_tableselection_id":null,
 "ad_workflow_id":121,
 "classname":null,
 "copyfromprocess":null,
 "created":"2001-04-25T21:11:48",
 "createdby":0,
 "description":null,
 "entitytype":"Performance Analysis",
 "help":null,
 "isactive":"Y",
 "isbetafunctionality":"N",
 "isdirectprint":"N",
 "isreport":"N",
 "isserverprocess":"N",
 "jasperreport":null,
 "procedurename":null,
 "showhelp":"Y",
 "statistic_count":0,
 "statistic_seconds":0,
 "updated":"2000-01-02T00:00:00",
 "updatedby":0,
 "workflowvalue":null}, "children" : []},
 {"tablename" : "ad_process", "data" : {"ad_process_id":188,
 "value":"GL_JournalBatch_Process",
 "name":"Process Batch",
 "accesslevel":"1",
 "ad_client_id":0,
 "ad_form_id":null,
 "ad_org_id":0,
 "ad_printformat_id":null,
 "ad_reportview_id":null,
 "ad_tableselection_id":null,
 "ad_workflow_id":122,
 "classname":null,
 "copyfromprocess":null,
 "created":"2002-08-11T13:20:08",
 "createdby":0,
 "description":null,
 "entitytype":"Performance Analysis",
 "help":null,
 "isactive":"Y",
 "isbetafunctionality":"N",
 "isdirectprint":"N",
 "isreport":"N",
 "isserverprocess":"N",
 "jasperreport":null,
 "procedurename":null,
 "showhelp":"Y",
 "statistic_count":0,
 "statistic_seconds":0,
 "updated":"2000-01-02T00:00:00",
 "updatedby":0,
 "workflowvalue":null}, "children" : []},
 {"tablename" : "ad_process", "data" : {"ad_process_id":214,
 "value":"GL_JournalBatch CopyFrom",
 "name":"Copy Details",
 "accesslevel":"1",
 "ad_client_id":0,
 "ad_form_id":null,
 "ad_org_id":0,
 "ad_printformat_id":null,
 "ad_reportview_id":null,
 "ad_tableselection_id":null,
 "ad_workflow_id":null,
 "classname":"org.compiere.process.CopyFromJournal",
 "copyfromprocess":null,
 "created":"2003-08-09T23:43:54",
 "createdby":0,
 "description":"Copy Journal/Lines from other Journal Batch",
 "entitytype":"Performance Analysis",
 "help":null,
 "isactive":"Y",
 "isbetafunctionality":"N",
 "isdirectprint":"N",
 "isreport":"N",
 "isserverprocess":"N",
 "jasperreport":null,
 "procedurename":null,
 "showhelp":"Y",
 "statistic_count":0,
 "statistic_seconds":0,
 "updated":"2000-01-02T00:00:00",
 "updatedby":0,
 "workflowvalue":null}, "children" : [{"tablename" : "ad_process_para", "data" : {"ad_process_para_id":320,
 "name":"Journal Batch",
 "ad_client_id":0,
 "ad_element_id":313,
 "ad_org_id":0,
 "ad_process_id":214,
 "ad_reference_id":30,
 "ad_reference_value_id":null,
 "ad_val_rule_id":null,
 "columnname":"GL_JournalBatch_ID",
 "created":"2003-08-10T00:20:57",
 "createdby":0,
 "defaultvalue":null,
 "defaultvalue2":null,
 "description":"General Ledger Journal Batch",
 "displaylogic":null,
 "entitytype":"Performance Analysis",
 "fieldlength":0,
 "help":"The General Ledger Journal Batch identifies a group of journals to be processed as a group.",
 "isactive":"Y",
 "iscentrallymaintained":"Y",
 "ismandatory":"Y",
 "isrange":"N",
 "readonlylogic":null,
 "seqno":10,
 "updated":"2000-01-02T00:00:00",
 "updatedby":0,
 "valuemax":null,
 "valuemin":null,
 "vformat":null}, "children" : []}]},
 {"tablename" : "ad_process", "data" : {"ad_process_id":252,
 "value":"RV_Fact_Acct",
 "name":"Accounting Fact Details",
 "accesslevel":"3",
 "ad_client_id":0,
 "ad_form_id":null,
 "ad_org_id":0,
 "ad_printformat_id":null,
 "ad_reportview_id":131,
 "ad_tableselection_id":null,
 "ad_workflow_id":null,
 "classname":null,
 "copyfromprocess":null,
 "created":"2004-01-09T15:32:15",
 "createdby":0,
 "description":"Accounting Fact Details Report",
 "entitytype":"Performance Analysis",
 "help":"Report with detail accounting details.",
 "isactive":"Y",
 "isbetafunctionality":"N",
 "isdirectprint":"N",
 "isreport":"Y",
 "isserverprocess":"N",
 "jasperreport":null,
 "procedurename":null,
 "showhelp":"Y",
 "statistic_count":0,
 "statistic_seconds":0,
 "updated":"2000-01-02T00:00:00",
 "updatedby":0,
 "workflowvalue":null}, "children" : [{"tablename" : "ad_process_para", "data" : {"ad_process_para_id":429,
 "name":"Organisation",
 "ad_client_id":0,
 "ad_element_id":113,
 "ad_org_id":0,
 "ad_process_id":252,
 "ad_reference_id":18,
 "ad_reference_value_id":130,
 "ad_val_rule_id":null,
 "columnname":"AD_Org_ID",
 "created":"2004-01-09T16:27:08",
 "createdby":0,
 "defaultvalue":null,
 "defaultvalue2":null,
 "description":"Organisational entity within client",
 "displaylogic":null,
 "entitytype":"Performance Analysis",
 "fieldlength":0,
 "help":"An organisation is a unit of your client or legal entity - examples are store, department. You can share data between organisations.",
 "isactive":"Y",
 "iscentrallymaintained":"Y",
 "ismandatory":"N",
 "isrange":"N",
 "readonlylogic":null,
 "seqno":10,
 "updated":"2000-01-02T00:00:00",
 "updatedby":0,
 "valuemax":null,
 "valuemin":null,
 "vformat":null}, "children" : []},{"tablename" : "ad_process_para", "data" : {"ad_process_para_id":432,
 "name":"Account Date",
 "ad_client_id":0,
 "ad_element_id":263,
 "ad_org_id":0,
 "ad_process_id":252,
 "ad_reference_id":15,
 "ad_reference_value_id":null,
 "ad_val_rule_id":null,
 "columnname":"DateAcct",
 "created":"2004-01-09T16:30:58",
 "createdby":0,
 "defaultvalue":null,
 "defaultvalue2":null,
 "description":"Accounting Date",
 "displaylogic":null,
 "entitytype":"Performance Analysis",
 "fieldlength":0,
 "help":"The Accounting Date indicates the date to be used on the General Ledger account entries generated from this document. It is also used for any currency conversion.",
 "isactive":"Y",
 "iscentrallymaintained":"Y",
 "ismandatory":"N",
 "isrange":"Y",
 "readonlylogic":null,
 "seqno":20,
 "updated":"2000-01-02T00:00:00",
 "updatedby":0,
 "valuemax":null,
 "valuemin":null,
 "vformat":null}, "children" : []},{"tablename" : "ad_process_para", "data" : {"ad_process_para_id":434,
 "name":"Period",
 "ad_client_id":0,
 "ad_element_id":206,
 "ad_org_id":0,
 "ad_process_id":252,
 "ad_reference_id":19,
 "ad_reference_value_id":null,
 "ad_val_rule_id":null,
 "columnname":"C_Period_ID",
 "created":"2004-01-09T16:32:13",
 "createdby":0,
 "defaultvalue":null,
 "defaultvalue2":null,
 "description":"Period of the Calendar",
 "displaylogic":null,
 "entitytype":"Performance Analysis",
 "fieldlength":0,
 "help":"The Period indicates an exclusive range of dates for a calendar.",
 "isactive":"Y",
 "iscentrallymaintained":"Y",
 "ismandatory":"N",
 "isrange":"N",
 "readonlylogic":null,
 "seqno":30,
 "updated":"2000-01-02T00:00:00",
 "updatedby":0,
 "valuemax":null,
 "valuemin":null,
 "vformat":null}, "children" : []},{"tablename" : "ad_process_para", "data" : {"ad_process_para_id":437,
 "name":"Account",
 "ad_client_id":0,
 "ad_element_id":148,
 "ad_org_id":0,
 "ad_process_id":252,
 "ad_reference_id":18,
 "ad_reference_value_id":132,
 "ad_val_rule_id":null,
 "columnname":"Account_ID",
 "created":"2004-01-09T16:36:26",
 "createdby":0,
 "defaultvalue":null,
 "defaultvalue2":null,
 "description":"Account used",
 "displaylogic":null,
 "entitytype":"Performance Analysis",
 "fieldlength":0,
 "help":"The (natural) account used",
 "isactive":"Y",
 "iscentrallymaintained":"Y",
 "ismandatory":"N",
 "isrange":"N",
 "readonlylogic":null,
 "seqno":40,
 "updated":"2000-01-02T00:00:00",
 "updatedby":0,
 "valuemax":null,
 "valuemin":null,
 "vformat":null}, "children" : []},{"tablename" : "ad_process_para", "data" : {"ad_process_para_id":438,
 "name":"Accounting Schema",
 "ad_client_id":0,
 "ad_element_id":181,
 "ad_org_id":0,
 "ad_process_id":252,
 "ad_reference_id":19,
 "ad_reference_value_id":null,
 "ad_val_rule_id":null,
 "columnname":"C_AcctSchema_ID",
 "created":"2004-01-09T16:37:28",
 "createdby":0,
 "defaultvalue":null,
 "defaultvalue2":null,
 "description":"Rules for accounting",
 "displaylogic":null,
 "entitytype":"Performance Analysis",
 "fieldlength":0,
 "help":"An Accounting Schema defines the rules used in accounting such as costing method, currency and calendar",
 "isactive":"Y",
 "iscentrallymaintained":"Y",
 "ismandatory":"Y",
 "isrange":"N",
 "readonlylogic":null,
 "seqno":5,
 "updated":"2000-01-02T00:00:00",
 "updatedby":0,
 "valuemax":null,
 "valuemin":null,
 "vformat":null}, "children" : []},{"tablename" : "ad_process_para", "data" : {"ad_process_para_id":439,
 "name":"Business Partner ",
 "ad_client_id":0,
 "ad_element_id":187,
 "ad_org_id":0,
 "ad_process_id":252,
 "ad_reference_id":30,
 "ad_reference_value_id":null,
 "ad_val_rule_id":null,
 "columnname":"C_BPartner_ID",
 "created":"2004-01-09T16:38:07",
 "createdby":0,
 "defaultvalue":null,
 "defaultvalue2":null,
 "description":"Identifies a Business Partner",
 "displaylogic":null,
 "entitytype":"Performance Analysis",
 "fieldlength":0,
 "help":"A Business Partner is anyone with whom you transact.  This can include Vendor, Customer, Employee or Salesperson",
 "isactive":"Y",
 "iscentrallymaintained":"Y",
 "ismandatory":"N",
 "isrange":"N",
 "readonlylogic":null,
 "seqno":50,
 "updated":"2000-01-02T00:00:00",
 "updatedby":0,
 "valuemax":null,
 "valuemin":null,
 "vformat":null}, "children" : []},{"tablename" : "ad_process_para", "data" : {"ad_process_para_id":440,
 "name":"Product",
 "ad_client_id":0,
 "ad_element_id":454,
 "ad_org_id":0,
 "ad_process_id":252,
 "ad_reference_id":30,
 "ad_reference_value_id":null,
 "ad_val_rule_id":null,
 "columnname":"M_Product_ID",
 "created":"2004-01-09T16:39:00",
 "createdby":0,
 "defaultvalue":null,
 "defaultvalue2":null,
 "description":"Product, Service, Item",
 "displaylogic":null,
 "entitytype":"Performance Analysis",
 "fieldlength":0,
 "help":"Identifies an item which is either purchased or sold in this organization.",
 "isactive":"Y",
 "iscentrallymaintained":"Y",
 "ismandatory":"N",
 "isrange":"N",
 "readonlylogic":null,
 "seqno":60,
 "updated":"2000-01-02T00:00:00",
 "updatedby":0,
 "valuemax":null,
 "valuemin":null,
 "vformat":null}, "children" : []},{"tablename" : "ad_process_para", "data" : {"ad_process_para_id":441,
 "name":"Tax",
 "ad_client_id":0,
 "ad_element_id":213,
 "ad_org_id":0,
 "ad_process_id":252,
 "ad_reference_id":19,
 "ad_reference_value_id":null,
 "ad_val_rule_id":null,
 "columnname":"C_Tax_ID",
 "created":"2004-01-09T16:43:38",
 "createdby":0,
 "defaultvalue":"-1",
 "defaultvalue2":null,
 "description":"Tax identifier",
 "displaylogic":null,
 "entitytype":"Performance Analysis",
 "fieldlength":0,
 "help":"The Tax indicates the type of tax used in document line.",
 "isactive":"Y",
 "iscentrallymaintained":"Y",
 "ismandatory":"N",
 "isrange":"N",
 "readonlylogic":null,
 "seqno":70,
 "updated":"2000-01-02T00:00:00",
 "updatedby":0,
 "valuemax":null,
 "valuemin":null,
 "vformat":null}, "children" : []},{"tablename" : "ad_process_para", "data" : {"ad_process_para_id":572,
 "name":"Account Key",
 "ad_client_id":0,
 "ad_element_id":2083,
 "ad_org_id":0,
 "ad_process_id":252,
 "ad_reference_id":10,
 "ad_reference_value_id":null,
 "ad_val_rule_id":null,
 "columnname":"AccountValue",
 "created":"2004-11-28T02:39:36",
 "createdby":0,
 "defaultvalue":null,
 "defaultvalue2":null,
 "description":"Key of Account Element",
 "displaylogic":null,
 "entitytype":"Performance Analysis",
 "fieldlength":10,
 "help":null,
 "isactive":"Y",
 "iscentrallymaintained":"Y",
 "ismandatory":"N",
 "isrange":"Y",
 "readonlylogic":null,
 "seqno":45,
 "updated":"2000-01-02T00:00:00",
 "updatedby":0,
 "valuemax":null,
 "valuemin":null,
 "vformat":null}, "children" : []},{"tablename" : "ad_process_para", "data" : {"ad_process_para_id":1000004,
 "name":"User Element 1",
 "ad_client_id":0,
 "ad_element_id":2877,
 "ad_org_id":0,
 "ad_process_id":252,
 "ad_reference_id":18,
 "ad_reference_value_id":197,
 "ad_val_rule_id":null,
 "columnname":"UserElement1_ID",
 "created":"2024-05-29T17:56:40",
 "createdby":100,
 "defaultvalue":null,
 "defaultvalue2":null,
 "description":"User defined accounting Element",
 "displaylogic":null,
 "entitytype":"Performance Analysis",
 "fieldlength":10,
 "help":"A user defined accounting element refers to a Adempiere table. This allows to use any table content as an accounting dimension (e.g. Project Task).  Note that User Elements are optional and are populated from the context of the document (i.e. not requested)",
 "isactive":"Y",
 "iscentrallymaintained":"Y",
 "ismandatory":"N",
 "isrange":"N",
 "readonlylogic":null,
 "seqno":80,
 "updated":"2024-05-29T18:15:01",
 "updatedby":100,
 "valuemax":null,
 "valuemin":null,
 "vformat":null}, "children" : []},{"tablename" : "ad_process_para", "data" : {"ad_process_para_id":1000005,
 "name":"User Element 2",
 "ad_client_id":0,
 "ad_element_id":2878,
 "ad_org_id":0,
 "ad_process_id":252,
 "ad_reference_id":18,
 "ad_reference_value_id":53258,
 "ad_val_rule_id":null,
 "columnname":"UserElement2_ID",
 "created":"2024-05-29T18:03:13",
 "createdby":100,
 "defaultvalue":null,
 "defaultvalue2":null,
 "description":"User defined accounting Element",
 "displaylogic":null,
 "entitytype":"Performance Analysis",
 "fieldlength":10,
 "help":"A user defined accounting element refers to a Adempiere table. This allows to use any table content as an accounting dimension (e.g. Project Task).  Note that User Elements are optional and are populated from the context of the document (i.e. not requested)",
 "isactive":"Y",
 "iscentrallymaintained":"Y",
 "ismandatory":"N",
 "isrange":"N",
 "readonlylogic":null,
 "seqno":90,
 "updated":"2024-05-29T18:15:18",
 "updatedby":100,
 "valuemax":null,
 "valuemin":null,
 "vformat":null}, "children" : []}]},
 {"tablename" : "ad_process", "data" : {"ad_process_id":253,
 "value":"RV_Fact_Acct_Day",
 "name":"Accounting Fact Daily",
 "accesslevel":"3",
 "ad_client_id":0,
 "ad_form_id":null,
 "ad_org_id":0,
 "ad_printformat_id":null,
 "ad_reportview_id":142,
 "ad_tableselection_id":null,
 "ad_workflow_id":null,
 "classname":null,
 "copyfromprocess":null,
 "created":"2004-01-09T15:34:37",
 "createdby":0,
 "description":"Accounting Fact Details summarized by Accounting Date",
 "entitytype":"Performance Analysis",
 "help":"The report lists the daily summary of accounting transactions",
 "isactive":"Y",
 "isbetafunctionality":"N",
 "isdirectprint":"N",
 "isreport":"Y",
 "isserverprocess":"N",
 "jasperreport":null,
 "procedurename":null,
 "showhelp":"Y",
 "statistic_count":0,
 "statistic_seconds":0,
 "updated":"2005-08-27T11:58:46",
 "updatedby":100,
 "workflowvalue":null}, "children" : [{"tablename" : "ad_process_para", "data" : {"ad_process_para_id":431,
 "name":"Organisation",
 "ad_client_id":0,
 "ad_element_id":113,
 "ad_org_id":0,
 "ad_process_id":253,
 "ad_reference_id":18,
 "ad_reference_value_id":130,
 "ad_val_rule_id":null,
 "columnname":"AD_Org_ID",
 "created":"2004-01-09T16:29:29",
 "createdby":0,
 "defaultvalue":null,
 "defaultvalue2":null,
 "description":"Organisational entity within client",
 "displaylogic":null,
 "entitytype":"Performance Analysis",
 "fieldlength":0,
 "help":"An organisation is a unit of your client or legal entity - examples are store, department. You can share data between organisations.",
 "isactive":"Y",
 "iscentrallymaintained":"Y",
 "ismandatory":"N",
 "isrange":"N",
 "readonlylogic":null,
 "seqno":10,
 "updated":"2000-01-02T00:00:00",
 "updatedby":0,
 "valuemax":null,
 "valuemin":null,
 "vformat":null}, "children" : []},{"tablename" : "ad_process_para", "data" : {"ad_process_para_id":433,
 "name":"Account Date",
 "ad_client_id":0,
 "ad_element_id":263,
 "ad_org_id":0,
 "ad_process_id":253,
 "ad_reference_id":15,
 "ad_reference_value_id":null,
 "ad_val_rule_id":null,
 "columnname":"DateAcct",
 "created":"2004-01-09T16:31:27",
 "createdby":0,
 "defaultvalue":null,
 "defaultvalue2":null,
 "description":"Accounting Date",
 "displaylogic":null,
 "entitytype":"Performance Analysis",
 "fieldlength":0,
 "help":"The Accounting Date indicates the date to be used on the General Ledger account entries generated from this document. It is also used for any currency conversion.",
 "isactive":"Y",
 "iscentrallymaintained":"Y",
 "ismandatory":"N",
 "isrange":"Y",
 "readonlylogic":null,
 "seqno":20,
 "updated":"2000-01-02T00:00:00",
 "updatedby":0,
 "valuemax":null,
 "valuemin":null,
 "vformat":null}, "children" : []},{"tablename" : "ad_process_para", "data" : {"ad_process_para_id":435,
 "name":"Period",
 "ad_client_id":0,
 "ad_element_id":206,
 "ad_org_id":0,
 "ad_process_id":253,
 "ad_reference_id":19,
 "ad_reference_value_id":null,
 "ad_val_rule_id":null,
 "columnname":"C_Period_ID",
 "created":"2004-01-09T16:32:52",
 "createdby":0,
 "defaultvalue":null,
 "defaultvalue2":null,
 "description":"Period of the Calendar",
 "displaylogic":null,
 "entitytype":"Performance Analysis",
 "fieldlength":0,
 "help":"The Period indicates an exclusive range of dates for a calendar.",
 "isactive":"Y",
 "iscentrallymaintained":"Y",
 "ismandatory":"N",
 "isrange":"N",
 "readonlylogic":null,
 "seqno":30,
 "updated":"2000-01-02T00:00:00",
 "updatedby":0,
 "valuemax":null,
 "valuemin":null,
 "vformat":null}, "children" : []},{"tablename" : "ad_process_para", "data" : {"ad_process_para_id":442,
 "name":"Accounting Schema",
 "ad_client_id":0,
 "ad_element_id":181,
 "ad_org_id":0,
 "ad_process_id":253,
 "ad_reference_id":19,
 "ad_reference_value_id":null,
 "ad_val_rule_id":null,
 "columnname":"C_AcctSchema_ID",
 "created":"2004-01-09T16:45:10",
 "createdby":0,
 "defaultvalue":null,
 "defaultvalue2":null,
 "description":"Rules for accounting",
 "displaylogic":null,
 "entitytype":"Performance Analysis",
 "fieldlength":0,
 "help":"An Accounting Schema defines the rules used in accounting such as costing method, currency and calendar",
 "isactive":"Y",
 "iscentrallymaintained":"Y",
 "ismandatory":"Y",
 "isrange":"N",
 "readonlylogic":null,
 "seqno":5,
 "updated":"2000-01-02T00:00:00",
 "updatedby":0,
 "valuemax":null,
 "valuemin":null,
 "vformat":null}, "children" : []},{"tablename" : "ad_process_para", "data" : {"ad_process_para_id":443,
 "name":"Account",
 "ad_client_id":0,
 "ad_element_id":148,
 "ad_org_id":0,
 "ad_process_id":253,
 "ad_reference_id":18,
 "ad_reference_value_id":132,
 "ad_val_rule_id":null,
 "columnname":"Account_ID",
 "created":"2004-01-09T16:45:56",
 "createdby":0,
 "defaultvalue":null,
 "defaultvalue2":null,
 "description":"Account used",
 "displaylogic":null,
 "entitytype":"Performance Analysis",
 "fieldlength":0,
 "help":"The (natural) account used",
 "isactive":"Y",
 "iscentrallymaintained":"Y",
 "ismandatory":"N",
 "isrange":"N",
 "readonlylogic":null,
 "seqno":40,
 "updated":"2000-01-02T00:00:00",
 "updatedby":0,
 "valuemax":null,
 "valuemin":null,
 "vformat":null}, "children" : []},{"tablename" : "ad_process_para", "data" : {"ad_process_para_id":444,
 "name":"Business Partner ",
 "ad_client_id":0,
 "ad_element_id":187,
 "ad_org_id":0,
 "ad_process_id":253,
 "ad_reference_id":30,
 "ad_reference_value_id":null,
 "ad_val_rule_id":null,
 "columnname":"C_BPartner_ID",
 "created":"2004-01-09T16:46:28",
 "createdby":0,
 "defaultvalue":null,
 "defaultvalue2":null,
 "description":"Identifies a Business Partner",
 "displaylogic":null,
 "entitytype":"Performance Analysis",
 "fieldlength":0,
 "help":"A Business Partner is anyone with whom you transact.  This can include Vendor, Customer, Employee or Salesperson",
 "isactive":"Y",
 "iscentrallymaintained":"Y",
 "ismandatory":"N",
 "isrange":"N",
 "readonlylogic":null,
 "seqno":50,
 "updated":"2000-01-02T00:00:00",
 "updatedby":0,
 "valuemax":null,
 "valuemin":null,
 "vformat":null}, "children" : []},{"tablename" : "ad_process_para", "data" : {"ad_process_para_id":445,
 "name":"Product",
 "ad_client_id":0,
 "ad_element_id":454,
 "ad_org_id":0,
 "ad_process_id":253,
 "ad_reference_id":30,
 "ad_reference_value_id":null,
 "ad_val_rule_id":null,
 "columnname":"M_Product_ID",
 "created":"2004-01-09T16:46:54",
 "createdby":0,
 "defaultvalue":null,
 "defaultvalue2":null,
 "description":"Product, Service, Item",
 "displaylogic":null,
 "entitytype":"Performance Analysis",
 "fieldlength":0,
 "help":"Identifies an item which is either purchased or sold in this organization.",
 "isactive":"Y",
 "iscentrallymaintained":"Y",
 "ismandatory":"N",
 "isrange":"N",
 "readonlylogic":null,
 "seqno":60,
 "updated":"2000-01-02T00:00:00",
 "updatedby":0,
 "valuemax":null,
 "valuemin":null,
 "vformat":null}, "children" : []},{"tablename" : "ad_process_para", "data" : {"ad_process_para_id":446,
 "name":"Tax",
 "ad_client_id":0,
 "ad_element_id":213,
 "ad_org_id":0,
 "ad_process_id":253,
 "ad_reference_id":19,
 "ad_reference_value_id":null,
 "ad_val_rule_id":null,
 "columnname":"C_Tax_ID",
 "created":"2004-01-09T16:47:24",
 "createdby":0,
 "defaultvalue":"-1",
 "defaultvalue2":null,
 "description":"Tax identifier",
 "displaylogic":null,
 "entitytype":"Performance Analysis",
 "fieldlength":0,
 "help":"The Tax indicates the type of tax used in document line.",
 "isactive":"Y",
 "iscentrallymaintained":"Y",
 "ismandatory":"N",
 "isrange":"N",
 "readonlylogic":null,
 "seqno":70,
 "updated":"2000-01-02T00:00:00",
 "updatedby":0,
 "valuemax":null,
 "valuemin":null,
 "vformat":null}, "children" : []}]},
 {"tablename" : "ad_process", "data" : {"ad_process_id":254,
 "value":"RV_Fact_Acct_Period",
 "name":"Accounting Fact Period",
 "accesslevel":"3",
 "ad_client_id":0,
 "ad_form_id":null,
 "ad_org_id":0,
 "ad_printformat_id":null,
 "ad_reportview_id":143,
 "ad_tableselection_id":null,
 "ad_workflow_id":null,
 "classname":null,
 "copyfromprocess":null,
 "created":"2004-01-09T15:35:18",
 "createdby":0,
 "description":"Accounting Fact Details summarized by Accounting Period",
 "entitytype":"Performance Analysis",
 "help":"The Period is based on the the Calendar defined on Client level.",
 "isactive":"Y",
 "isbetafunctionality":"N",
 "isdirectprint":"N",
 "isreport":"Y",
 "isserverprocess":"N",
 "jasperreport":null,
 "procedurename":null,
 "showhelp":"Y",
 "statistic_count":0,
 "statistic_seconds":0,
 "updated":"2000-01-02T00:00:00",
 "updatedby":0,
 "workflowvalue":null}, "children" : [{"tablename" : "ad_process_para", "data" : {"ad_process_para_id":430,
 "name":"Organisation",
 "ad_client_id":0,
 "ad_element_id":113,
 "ad_org_id":0,
 "ad_process_id":254,
 "ad_reference_id":18,
 "ad_reference_value_id":130,
 "ad_val_rule_id":null,
 "columnname":"AD_Org_ID",
 "created":"2004-01-09T16:28:09",
 "createdby":0,
 "defaultvalue":null,
 "defaultvalue2":null,
 "description":"Organisational entity within client",
 "displaylogic":null,
 "entitytype":"Performance Analysis",
 "fieldlength":0,
 "help":"An organisation is a unit of your client or legal entity - examples are store, department. You can share data between organisations.",
 "isactive":"Y",
 "iscentrallymaintained":"Y",
 "ismandatory":"N",
 "isrange":"N",
 "readonlylogic":null,
 "seqno":10,
 "updated":"2000-01-02T00:00:00",
 "updatedby":0,
 "valuemax":null,
 "valuemin":null,
 "vformat":null}, "children" : []},{"tablename" : "ad_process_para", "data" : {"ad_process_para_id":436,
 "name":"Period",
 "ad_client_id":0,
 "ad_element_id":206,
 "ad_org_id":0,
 "ad_process_id":254,
 "ad_reference_id":19,
 "ad_reference_value_id":null,
 "ad_val_rule_id":null,
 "columnname":"C_Period_ID",
 "created":"2004-01-09T16:33:35",
 "createdby":0,
 "defaultvalue":null,
 "defaultvalue2":null,
 "description":"Period of the Calendar",
 "displaylogic":null,
 "entitytype":"Performance Analysis",
 "fieldlength":0,
 "help":"The Period indicates an exclusive range of dates for a calendar.",
 "isactive":"Y",
 "iscentrallymaintained":"Y",
 "ismandatory":"N",
 "isrange":"N",
 "readonlylogic":null,
 "seqno":20,
 "updated":"2000-01-02T00:00:00",
 "updatedby":0,
 "valuemax":null,
 "valuemin":null,
 "vformat":null}, "children" : []},{"tablename" : "ad_process_para", "data" : {"ad_process_para_id":447,
 "name":"Accounting Schema",
 "ad_client_id":0,
 "ad_element_id":181,
 "ad_org_id":0,
 "ad_process_id":254,
 "ad_reference_id":19,
 "ad_reference_value_id":null,
 "ad_val_rule_id":null,
 "columnname":"C_AcctSchema_ID",
 "created":"2004-01-09T16:48:05",
 "createdby":0,
 "defaultvalue":"-1",
 "defaultvalue2":null,
 "description":"Rules for accounting",
 "displaylogic":null,
 "entitytype":"Performance Analysis",
 "fieldlength":0,
 "help":"An Accounting Schema defines the rules used in accounting such as costing method, currency and calendar",
 "isactive":"Y",
 "iscentrallymaintained":"Y",
 "ismandatory":"Y",
 "isrange":"N",
 "readonlylogic":null,
 "seqno":5,
 "updated":"2000-01-02T00:00:00",
 "updatedby":0,
 "valuemax":null,
 "valuemin":null,
 "vformat":null}, "children" : []},{"tablename" : "ad_process_para", "data" : {"ad_process_para_id":448,
 "name":"Account",
 "ad_client_id":0,
 "ad_element_id":148,
 "ad_org_id":0,
 "ad_process_id":254,
 "ad_reference_id":18,
 "ad_reference_value_id":132,
 "ad_val_rule_id":null,
 "columnname":"Account_ID",
 "created":"2004-01-09T16:49:23",
 "createdby":0,
 "defaultvalue":null,
 "defaultvalue2":null,
 "description":"Account used",
 "displaylogic":null,
 "entitytype":"Performance Analysis",
 "fieldlength":0,
 "help":"The (natural) account used",
 "isactive":"Y",
 "iscentrallymaintained":"Y",
 "ismandatory":"N",
 "isrange":"N",
 "readonlylogic":null,
 "seqno":30,
 "updated":"2000-01-02T00:00:00",
 "updatedby":0,
 "valuemax":null,
 "valuemin":null,
 "vformat":null}, "children" : []},{"tablename" : "ad_process_para", "data" : {"ad_process_para_id":449,
 "name":"Business Partner ",
 "ad_client_id":0,
 "ad_element_id":187,
 "ad_org_id":0,
 "ad_process_id":254,
 "ad_reference_id":30,
 "ad_reference_value_id":null,
 "ad_val_rule_id":null,
 "columnname":"C_BPartner_ID",
 "created":"2004-01-09T16:50:01",
 "createdby":0,
 "defaultvalue":null,
 "defaultvalue2":null,
 "description":"Identifies a Business Partner",
 "displaylogic":null,
 "entitytype":"Performance Analysis",
 "fieldlength":0,
 "help":"A Business Partner is anyone with whom you transact.  This can include Vendor, Customer, Employee or Salesperson",
 "isactive":"Y",
 "iscentrallymaintained":"Y",
 "ismandatory":"N",
 "isrange":"N",
 "readonlylogic":null,
 "seqno":40,
 "updated":"2000-01-02T00:00:00",
 "updatedby":0,
 "valuemax":null,
 "valuemin":null,
 "vformat":null}, "children" : []},{"tablename" : "ad_process_para", "data" : {"ad_process_para_id":450,
 "name":"Product",
 "ad_client_id":0,
 "ad_element_id":454,
 "ad_org_id":0,
 "ad_process_id":254,
 "ad_reference_id":30,
 "ad_reference_value_id":null,
 "ad_val_rule_id":null,
 "columnname":"M_Product_ID",
 "created":"2004-01-09T16:50:30",
 "createdby":0,
 "defaultvalue":null,
 "defaultvalue2":null,
 "description":"Product, Service, Item",
 "displaylogic":null,
 "entitytype":"Performance Analysis",
 "fieldlength":0,
 "help":"Identifies an item which is either purchased or sold in this organization.",
 "isactive":"Y",
 "iscentrallymaintained":"Y",
 "ismandatory":"N",
 "isrange":"N",
 "readonlylogic":null,
 "seqno":50,
 "updated":"2000-01-02T00:00:00",
 "updatedby":0,
 "valuemax":null,
 "valuemin":null,
 "vformat":null}, "children" : []},{"tablename" : "ad_process_para", "data" : {"ad_process_para_id":451,
 "name":"Tax",
 "ad_client_id":0,
 "ad_element_id":213,
 "ad_org_id":0,
 "ad_process_id":254,
 "ad_reference_id":19,
 "ad_reference_value_id":null,
 "ad_val_rule_id":null,
 "columnname":"C_Tax_ID",
 "created":"2004-01-09T16:50:48",
 "createdby":0,
 "defaultvalue":null,
 "defaultvalue2":null,
 "description":"Tax identifier",
 "displaylogic":null,
 "entitytype":"Performance Analysis",
 "fieldlength":0,
 "help":"The Tax indicates the type of tax used in document line.",
 "isactive":"Y",
 "iscentrallymaintained":"Y",
 "ismandatory":"N",
 "isrange":"N",
 "readonlylogic":null,
 "seqno":60,
 "updated":"2000-01-02T00:00:00",
 "updatedby":0,
 "valuemax":null,
 "valuemin":null,
 "vformat":null}, "children" : []}]},
 {"tablename" : "ad_process", "data" : {"ad_process_id":53220,
 "value":"Fact_Reconciliation",
 "name":"Unreconciled accounting facts",
 "accesslevel":"3",
 "ad_client_id":0,
 "ad_form_id":null,
 "ad_org_id":0,
 "ad_printformat_id":null,
 "ad_reportview_id":53032,
 "ad_tableselection_id":null,
 "ad_workflow_id":null,
 "classname":"org.compiere.process.FactReconciliation",
 "copyfromprocess":null,
 "created":"2010-09-02T17:55:52",
 "createdby":100,
 "description":null,
 "entitytype":"Performance Analysis",
 "help":null,
 "isactive":"Y",
 "isbetafunctionality":"N",
 "isdirectprint":"N",
 "isreport":"Y",
 "isserverprocess":"N",
 "jasperreport":null,
 "procedurename":null,
 "showhelp":"Y",
 "statistic_count":0,
 "statistic_seconds":0,
 "updated":"2010-09-02T17:55:52",
 "updatedby":100,
 "workflowvalue":null}, "children" : [{"tablename" : "ad_process_para", "data" : {"ad_process_para_id":53429,
 "name":"Account",
 "ad_client_id":0,
 "ad_element_id":53376,
 "ad_org_id":0,
 "ad_process_id":53220,
 "ad_reference_id":18,
 "ad_reference_value_id":132,
 "ad_val_rule_id":null,
 "columnname":"Account_ID",
 "created":"2010-09-02T17:55:53",
 "createdby":100,
 "defaultvalue":null,
 "defaultvalue2":null,
 "description":"Account used",
 "displaylogic":null,
 "entitytype":"Performance Analysis",
 "fieldlength":22,
 "help":"The (natural) account used",
 "isactive":"Y",
 "iscentrallymaintained":"Y",
 "ismandatory":"Y",
 "isrange":"N",
 "readonlylogic":null,
 "seqno":10,
 "updated":"2011-09-01T10:52:45.658779",
 "updatedby":100,
 "valuemax":null,
 "valuemin":null,
 "vformat":null}, "children" : []},{"tablename" : "ad_process_para", "data" : {"ad_process_para_id":53430,
 "name":"Account Date",
 "ad_client_id":0,
 "ad_element_id":263,
 "ad_org_id":0,
 "ad_process_id":53220,
 "ad_reference_id":15,
 "ad_reference_value_id":null,
 "ad_val_rule_id":null,
 "columnname":"DateAcct",
 "created":"2010-09-02T17:55:54",
 "createdby":100,
 "defaultvalue":"@#Date@-3000",
 "defaultvalue2":"@#Date@",
 "description":"Accounting Date",
 "displaylogic":null,
 "entitytype":"Performance Analysis",
 "fieldlength":7,
 "help":"The Accounting Date indicates the date to be used on the General Ledger account entries generated from this document. It is also used for any currency conversion.",
 "isactive":"Y",
 "iscentrallymaintained":"Y",
 "ismandatory":"Y",
 "isrange":"Y",
 "readonlylogic":null,
 "seqno":20,
 "updated":"2011-09-01T10:52:45.658779",
 "updatedby":100,
 "valuemax":null,
 "valuemin":null,
 "vformat":null}, "children" : []}]},
 {"tablename" : "ad_process", "data" : {"ad_process_id":53221,
 "value":"Fact_Reconciliation_Auto",
 "name":"Automatic account reconciliation",
 "accesslevel":"3",
 "ad_client_id":0,
 "ad_form_id":null,
 "ad_org_id":0,
 "ad_printformat_id":null,
 "ad_reportview_id":null,
 "ad_tableselection_id":null,
 "ad_workflow_id":null,
 "classname":"org.compiere.process.FactReconcile",
 "copyfromprocess":null,
 "created":"2010-09-02T17:55:55",
 "createdby":100,
 "description":"Reconcile account transactions according to standard rules",
 "entitytype":"Performance Analysis",
 "help":null,
 "isactive":"Y",
 "isbetafunctionality":"N",
 "isdirectprint":"N",
 "isreport":"N",
 "isserverprocess":"N",
 "jasperreport":null,
 "procedurename":null,
 "showhelp":"Y",
 "statistic_count":0,
 "statistic_seconds":0,
 "updated":"2010-09-02T17:55:55",
 "updatedby":100,
 "workflowvalue":null}, "children" : [{"tablename" : "ad_process_para", "data" : {"ad_process_para_id":53431,
 "name":"Account",
 "ad_client_id":0,
 "ad_element_id":53376,
 "ad_org_id":0,
 "ad_process_id":53221,
 "ad_reference_id":18,
 "ad_reference_value_id":132,
 "ad_val_rule_id":null,
 "columnname":"Account_ID",
 "created":"2010-09-02T17:55:56",
 "createdby":100,
 "defaultvalue":null,
 "defaultvalue2":null,
 "description":"Account used",
 "displaylogic":null,
 "entitytype":"Performance Analysis",
 "fieldlength":22,
 "help":"The (natural) account used",
 "isactive":"Y",
 "iscentrallymaintained":"Y",
 "ismandatory":"Y",
 "isrange":"N",
 "readonlylogic":null,
 "seqno":10,
 "updated":"2011-09-01T10:52:45.658779",
 "updatedby":100,
 "valuemax":null,
 "valuemin":null,
 "vformat":null}, "children" : []},{"tablename" : "ad_process_para", "data" : {"ad_process_para_id":53432,
 "name":"Account Type",
 "ad_client_id":0,
 "ad_element_id":null,
 "ad_org_id":0,
 "ad_process_id":53221,
 "ad_reference_id":17,
 "ad_reference_value_id":53371,
 "ad_val_rule_id":null,
 "columnname":"Type",
 "created":"2010-09-02T17:56:03",
 "createdby":100,
 "defaultvalue":null,
 "defaultvalue2":null,
 "description":null,
 "displaylogic":null,
 "entitytype":"Performance Analysis",
 "fieldlength":2,
 "help":null,
 "isactive":"N",
 "iscentrallymaintained":"Y",
 "ismandatory":"Y",
 "isrange":"N",
 "readonlylogic":null,
 "seqno":20,
 "updated":"2010-09-02T17:56:03",
 "updatedby":100,
 "valuemax":null,
 "valuemin":null,
 "vformat":null}, "children" : []},{"tablename" : "ad_process_para", "data" : {"ad_process_para_id":53433,
 "name":"Rule",
 "ad_client_id":0,
 "ad_element_id":53332,
 "ad_org_id":0,
 "ad_process_id":53221,
 "ad_reference_id":18,
 "ad_reference_value_id":53372,
 "ad_val_rule_id":null,
 "columnname":"AD_Rule_ID",
 "created":"2010-09-02T17:56:06",
 "createdby":100,
 "defaultvalue":null,
 "defaultvalue2":null,
 "description":null,
 "displaylogic":null,
 "entitytype":"Performance Analysis",
 "fieldlength":22,
 "help":null,
 "isactive":"Y",
 "iscentrallymaintained":"Y",
 "ismandatory":"Y",
 "isrange":"N",
 "readonlylogic":null,
 "seqno":30,
 "updated":"2010-09-02T17:56:06",
 "updatedby":100,
 "valuemax":null,
 "valuemin":null,
 "vformat":null}, "children" : []}]},
 {"tablename" : "ad_process", "data" : {"ad_process_id":53620,
 "value":"Copy_Lines_From_Journal",
 "name":"Copy Lines from Journal",
 "accesslevel":"3",
 "ad_client_id":0,
 "ad_form_id":null,
 "ad_org_id":0,
 "ad_printformat_id":null,
 "ad_reportview_id":null,
 "ad_tableselection_id":null,
 "ad_workflow_id":null,
 "classname":"org.compiere.process.CopyLinesFromJournal",
 "copyfromprocess":"N",
 "created":"2014-04-11T19:48:13",
 "createdby":100,
 "description":null,
 "entitytype":"Performance Analysis",
 "help":null,
 "isactive":"Y",
 "isbetafunctionality":"N",
 "isdirectprint":"N",
 "isreport":"N",
 "isserverprocess":"N",
 "jasperreport":null,
 "procedurename":null,
 "showhelp":"Y",
 "statistic_count":0,
 "statistic_seconds":0,
 "updated":"2014-04-11T19:48:13",
 "updatedby":100,
 "workflowvalue":null}, "children" : [{"tablename" : "ad_process_para", "data" : {"ad_process_para_id":54714,
 "name":"Journal",
 "ad_client_id":0,
 "ad_element_id":315,
 "ad_org_id":0,
 "ad_process_id":53620,
 "ad_reference_id":19,
 "ad_reference_value_id":53250,
 "ad_val_rule_id":null,
 "columnname":"GL_Journal_ID",
 "created":"2014-04-11T19:49:03",
 "createdby":100,
 "defaultvalue":null,
 "defaultvalue2":null,
 "description":"General Ledger Journal",
 "displaylogic":null,
 "entitytype":"Performance Analysis",
 "fieldlength":0,
 "help":"The General Ledger Journal identifies a group of journal lines which represent a logical business transaction",
 "isactive":"Y",
 "iscentrallymaintained":"Y",
 "ismandatory":"Y",
 "isrange":"N",
 "readonlylogic":null,
 "seqno":10,
 "updated":"2016-04-12T09:52:23.093499",
 "updatedby":100,
 "valuemax":null,
 "valuemin":null,
 "vformat":null}, "children" : []}]}]