[{"tablename" : "ad_element", "data" : {"ad_element_id":1931,
 "columnname":"AssetDepreciationDate",
 "ad_client_id":0,
 "ad_org_id":0,
 "ad_reference_id":15,
 "ad_reference_value_id":null,
 "created":"2003-01-23T00:10:32",
 "createdby":0,
 "description":"Date of last depreciation",
 "entitytype":"Asset Management",
 "fieldlength":7,
 "help":"Date of the last deprecation, if the asset is used internally and depreciated.",
 "isactive":"Y",
 "name":"Asset Depreciation Date",
 "po_description":null,
 "po_help":null,
 "po_name":null,
 "po_printname":null,
 "printname":"Asset depreciation date",
 "updated":"2016-04-11T16:36:02",
 "updatedby":0}, "children" : []},
 {"tablename" : "ad_element", "data" : {"ad_element_id":1932,
 "columnname":"AssetDisposalDate",
 "ad_client_id":0,
 "ad_org_id":0,
 "ad_reference_id":15,
 "ad_reference_value_id":null,
 "created":"2003-01-23T00:10:32",
 "createdby":0,
 "description":"Date when the asset is/was disposed",
 "entitytype":"Asset Management",
 "fieldlength":7,
 "help":null,
 "isactive":"Y",
 "name":"Asset Disposal Date",
 "po_description":null,
 "po_help":null,
 "po_name":null,
 "po_printname":null,
 "printname":"Asset disposal date",
 "updated":"2016-04-11T16:36:02",
 "updatedby":0}, "children" : []},
 {"tablename" : "ad_element", "data" : {"ad_element_id":1934,
 "columnname":"AssetServiceDate",
 "ad_client_id":0,
 "ad_org_id":0,
 "ad_reference_id":15,
 "ad_reference_value_id":null,
 "created":"2003-01-23T00:10:32",
 "createdby":0,
 "description":"Date when Asset was put into service",
 "entitytype":"Asset Management",
 "fieldlength":7,
 "help":"The date when the asset was put into service - usually used as start date for depreciation.",
 "isactive":"Y",
 "name":"In Service Date",
 "po_description":null,
 "po_help":null,
 "po_name":null,
 "po_printname":null,
 "printname":"In Service date",
 "updated":"2016-04-11T16:36:02",
 "updatedby":0}, "children" : []},
 {"tablename" : "ad_element", "data" : {"ad_element_id":1938,
 "columnname":"IsDepreciated",
 "ad_client_id":0,
 "ad_org_id":0,
 "ad_reference_id":20,
 "ad_reference_value_id":null,
 "created":"2003-01-23T00:10:32",
 "createdby":0,
 "description":"The asset will be depreciated",
 "entitytype":"Asset Management",
 "fieldlength":1,
 "help":"The asset is used internally and will be depreciated",
 "isactive":"Y",
 "name":"Depreciable Asset",
 "po_description":null,
 "po_help":null,
 "po_name":null,
 "po_printname":null,
 "printname":"Depreciable Asset",
 "updated":"2016-04-11T16:36:04",
 "updatedby":0}, "children" : []},
 {"tablename" : "ad_element", "data" : {"ad_element_id":1939,
 "columnname":"IsDisposed",
 "ad_client_id":0,
 "ad_org_id":0,
 "ad_reference_id":20,
 "ad_reference_value_id":null,
 "created":"2003-01-23T00:10:32",
 "createdby":0,
 "description":"The asset is disposed",
 "entitytype":"Asset Management",
 "fieldlength":1,
 "help":"The asset is no longer used and disposed",
 "isactive":"Y",
 "name":"Disposed",
 "po_description":null,
 "po_help":null,
 "po_name":null,
 "po_printname":null,
 "printname":"Disposed",
 "updated":"2016-04-11T16:36:04",
 "updatedby":0}, "children" : []},
 {"tablename" : "ad_element", "data" : {"ad_element_id":1940,
 "columnname":"IsInPosession",
 "ad_client_id":0,
 "ad_org_id":0,
 "ad_reference_id":20,
 "ad_reference_value_id":null,
 "created":"2003-01-23T00:10:32",
 "createdby":0,
 "description":"The asset is in the possession of the organization",
 "entitytype":"Asset Management",
 "fieldlength":1,
 "help":"Assets which are not in possession are e.g. at Customer site and may or may not be owned by the company.",
 "isactive":"Y",
 "name":"In Possession",
 "po_description":null,
 "po_help":null,
 "po_name":null,
 "po_printname":null,
 "printname":"In Possession",
 "updated":"2016-04-11T16:36:04",
 "updatedby":0}, "children" : []},
 {"tablename" : "ad_element", "data" : {"ad_element_id":1941,
 "columnname":"IsOwned",
 "ad_client_id":0,
 "ad_org_id":0,
 "ad_reference_id":20,
 "ad_reference_value_id":null,
 "created":"2003-01-23T00:10:32",
 "createdby":0,
 "description":"The asset is owned by the organization",
 "entitytype":"Asset Management",
 "fieldlength":1,
 "help":"The asset may not be in possession, but the asset is legally owned by the organization",
 "isactive":"Y",
 "name":"Owned",
 "po_description":null,
 "po_help":null,
 "po_name":null,
 "po_printname":null,
 "printname":"Owned",
 "updated":"2016-04-11T16:36:04",
 "updatedby":0}, "children" : []},
 {"tablename" : "ad_element", "data" : {"ad_element_id":1942,
 "columnname":"LifeUseUnits",
 "ad_client_id":0,
 "ad_org_id":0,
 "ad_reference_id":11,
 "ad_reference_value_id":null,
 "created":"2003-01-23T00:10:32",
 "createdby":0,
 "description":"Units of use until the asset is not usable anymore",
 "entitytype":"Asset Management",
 "fieldlength":22,
 "help":"Life use and the actual use may be used to calculate the depreciation",
 "isactive":"Y",
 "name":"Life use",
 "po_description":null,
 "po_help":null,
 "po_name":null,
 "po_printname":null,
 "printname":"Life use",
 "updated":"2016-04-11T16:36:05",
 "updatedby":0}, "children" : []},
 {"tablename" : "ad_element", "data" : {"ad_element_id":1943,
 "columnname":"LocationComment",
 "ad_client_id":0,
 "ad_org_id":0,
 "ad_reference_id":10,
 "ad_reference_value_id":null,
 "created":"2003-01-23T00:10:32",
 "createdby":0,
 "description":"Additional comments or remarks concerning the location",
 "entitytype":"Asset Management",
 "fieldlength":255,
 "help":null,
 "isactive":"Y",
 "name":"Location comment",
 "po_description":null,
 "po_help":null,
 "po_name":null,
 "po_printname":null,
 "printname":"Location comment",
 "updated":"2016-04-11T16:36:05",
 "updatedby":0}, "children" : []},
 {"tablename" : "ad_element", "data" : {"ad_element_id":1946,
 "columnname":"UseLifeMonths",
 "ad_client_id":0,
 "ad_org_id":0,
 "ad_reference_id":11,
 "ad_reference_value_id":null,
 "created":"2003-01-23T00:10:32",
 "createdby":0,
 "description":"Months of the usable life of the asset",
 "entitytype":"Asset Management",
 "fieldlength":22,
 "help":null,
 "isactive":"Y",
 "name":"Usable Life - Months",
 "po_description":null,
 "po_help":null,
 "po_name":null,
 "po_printname":null,
 "printname":"Usable life months",
 "updated":"2016-04-11T16:36:06",
 "updatedby":0}, "children" : []},
 {"tablename" : "ad_element", "data" : {"ad_element_id":1947,
 "columnname":"UseLifeYears",
 "ad_client_id":0,
 "ad_org_id":0,
 "ad_reference_id":11,
 "ad_reference_value_id":null,
 "created":"2003-01-23T00:10:32",
 "createdby":0,
 "description":"Years of the usable life of the asset",
 "entitytype":"Asset Management",
 "fieldlength":22,
 "help":null,
 "isactive":"Y",
 "name":"Usable Life - Years",
 "po_description":null,
 "po_help":null,
 "po_name":null,
 "po_printname":null,
 "printname":"Usable life years",
 "updated":"2016-04-11T16:36:06",
 "updatedby":0}, "children" : []},
 {"tablename" : "ad_element", "data" : {"ad_element_id":1948,
 "columnname":"UseUnits",
 "ad_client_id":0,
 "ad_org_id":0,
 "ad_reference_id":11,
 "ad_reference_value_id":null,
 "created":"2003-01-23T00:10:32",
 "createdby":0,
 "description":"Currently used units of the assets",
 "entitytype":"Asset Management",
 "fieldlength":22,
 "help":null,
 "isactive":"Y",
 "name":"Use units",
 "po_description":null,
 "po_help":null,
 "po_name":null,
 "po_printname":null,
 "printname":"Use units",
 "updated":"2016-04-11T16:36:07",
 "updatedby":0}, "children" : []},
 {"tablename" : "ad_element", "data" : {"ad_element_id":1951,
 "columnname":"IsFullyDepreciated",
 "ad_client_id":0,
 "ad_org_id":0,
 "ad_reference_id":20,
 "ad_reference_value_id":null,
 "created":"2003-01-29T20:43:53",
 "createdby":0,
 "description":"The asset is fully depreciated",
 "entitytype":"Asset Management",
 "fieldlength":1,
 "help":"The asset costs are fully amortized.",
 "isactive":"Y",
 "name":"Fully depreciated",
 "po_description":null,
 "po_help":null,
 "po_name":null,
 "po_printname":null,
 "printname":"Fully depreciated",
 "updated":"2016-04-11T16:36:04",
 "updatedby":0}, "children" : []},
 {"tablename" : "ad_element", "data" : {"ad_element_id":2727,
 "columnname":"IsOneAssetPerUOM",
 "ad_client_id":0,
 "ad_org_id":0,
 "ad_reference_id":20,
 "ad_reference_value_id":null,
 "created":"2005-04-30T01:14:47",
 "createdby":100,
 "description":"Create one asset per UOM",
 "entitytype":"Asset Management",
 "fieldlength":1,
 "help":"If selected, one asset per UOM is created, otherwise one asset with the quantity received/shipped.  If you have multiple lines, one asset is created per line.",
 "isactive":"Y",
 "name":"One Asset Per UOM",
 "po_description":null,
 "po_help":null,
 "po_name":null,
 "po_printname":null,
 "printname":"One Asset Per UOM",
 "updated":"2016-04-11T16:32:37",
 "updatedby":0}, "children" : []},
 {"tablename" : "ad_element", "data" : {"ad_element_id":2754,
 "columnname":"IsCreateAsActive",
 "ad_client_id":0,
 "ad_org_id":0,
 "ad_reference_id":20,
 "ad_reference_value_id":null,
 "created":"2005-05-11T00:14:11",
 "createdby":100,
 "description":"Create Asset and activate it",
 "entitytype":"Asset Management",
 "fieldlength":1,
 "help":"You may want to consider not to automatically make the asset active if you need to get some additional information",
 "isactive":"Y",
 "name":"Create As Active",
 "po_description":null,
 "po_help":null,
 "po_name":null,
 "po_printname":null,
 "printname":"Create Active",
 "updated":"2016-04-11T16:32:37",
 "updatedby":0}, "children" : []},
 {"tablename" : "ad_element", "data" : {"ad_element_id":2931,
 "columnname":"LastMaintenanceDate",
 "ad_client_id":0,
 "ad_org_id":0,
 "ad_reference_id":16,
 "ad_reference_value_id":null,
 "created":"2005-12-29T21:45:24",
 "createdby":100,
 "description":"Last Maintenance Date",
 "entitytype":"Asset Management",
 "fieldlength":7,
 "help":null,
 "isactive":"Y",
 "name":"Last Maintenance",
 "po_description":null,
 "po_help":null,
 "po_name":null,
 "po_printname":null,
 "printname":"Last Maintenance",
 "updated":"2016-04-11T16:36:04",
 "updatedby":0}, "children" : []},
 {"tablename" : "ad_element", "data" : {"ad_element_id":2932,
 "columnname":"NextMaintenenceDate",
 "ad_client_id":0,
 "ad_org_id":0,
 "ad_reference_id":16,
 "ad_reference_value_id":null,
 "created":"2005-12-29T21:45:24",
 "createdby":100,
 "description":"Next Maintenance Date",
 "entitytype":"Asset Management",
 "fieldlength":7,
 "help":null,
 "isactive":"Y",
 "name":"Next Maintenance",
 "po_description":null,
 "po_help":null,
 "po_name":null,
 "po_printname":null,
 "printname":"Next Maintenance",
 "updated":"2016-04-11T16:36:05",
 "updatedby":0}, "children" : []},
 {"tablename" : "ad_element", "data" : {"ad_element_id":2933,
 "columnname":"LastMaintenanceUnit",
 "ad_client_id":0,
 "ad_org_id":0,
 "ad_reference_id":11,
 "ad_reference_value_id":null,
 "created":"2005-12-29T21:45:25",
 "createdby":100,
 "description":"Last Maintenance Unit",
 "entitytype":"Asset Management",
 "fieldlength":10,
 "help":null,
 "isactive":"Y",
 "name":"Last Unit",
 "po_description":null,
 "po_help":null,
 "po_name":null,
 "po_printname":null,
 "printname":"Last Unit",
 "updated":"2016-04-11T16:36:04",
 "updatedby":0}, "children" : []},
 {"tablename" : "ad_element", "data" : {"ad_element_id":2934,
 "columnname":"NextMaintenenceUnit",
 "ad_client_id":0,
 "ad_org_id":0,
 "ad_reference_id":11,
 "ad_reference_value_id":null,
 "created":"2005-12-29T21:45:25",
 "createdby":100,
 "description":"Next Maintenance Unit",
 "entitytype":"Asset Management",
 "fieldlength":10,
 "help":null,
 "isactive":"Y",
 "name":"Next Unit",
 "po_description":null,
 "po_help":null,
 "po_name":null,
 "po_printname":null,
 "printname":"Next Unit",
 "updated":"2016-04-11T16:36:05",
 "updatedby":0}, "children" : []},
 {"tablename" : "ad_element", "data" : {"ad_element_id":2935,
 "columnname":"LeaseTerminationDate",
 "ad_client_id":0,
 "ad_org_id":0,
 "ad_reference_id":15,
 "ad_reference_value_id":null,
 "created":"2005-12-29T21:45:25",
 "createdby":100,
 "description":"Lease Termination Date",
 "entitytype":"Asset Management",
 "fieldlength":7,
 "help":"Last Date of Lease",
 "isactive":"Y",
 "name":"Lease Termination",
 "po_description":null,
 "po_help":null,
 "po_name":null,
 "po_printname":null,
 "printname":"Lease Termination",
 "updated":"2016-04-11T16:36:05",
 "updatedby":0}, "children" : []},
 {"tablename" : "ad_element", "data" : {"ad_element_id":2936,
 "columnname":"Lease_BPartner_ID",
 "ad_client_id":0,
 "ad_org_id":0,
 "ad_reference_id":30,
 "ad_reference_value_id":192,
 "created":"2005-12-29T21:45:25",
 "createdby":100,
 "description":"The Business Partner who rents or leases",
 "entitytype":"Asset Management",
 "fieldlength":10,
 "help":null,
 "isactive":"Y",
 "name":"Lessor",
 "po_description":null,
 "po_help":null,
 "po_name":null,
 "po_printname":null,
 "printname":"Lessor",
 "updated":"2016-04-11T16:36:05",
 "updatedby":0}, "children" : []},
 {"tablename" : "ad_element", "data" : {"ad_element_id":2937,
 "columnname":"LastMaintenanceNote",
 "ad_client_id":0,
 "ad_org_id":0,
 "ad_reference_id":10,
 "ad_reference_value_id":null,
 "created":"2005-12-29T22:02:10",
 "createdby":100,
 "description":"Last Maintenance Note",
 "entitytype":"Asset Management",
 "fieldlength":60,
 "help":null,
 "isactive":"Y",
 "name":"Last Note",
 "po_description":null,
 "po_help":null,
 "po_name":null,
 "po_printname":null,
 "printname":"Last Note",
 "updated":"2016-04-11T16:36:04",
 "updatedby":0}, "children" : []},
 {"tablename" : "ad_element", "data" : {"ad_element_id":2956,
 "columnname":"IsTrackIssues",
 "ad_client_id":0,
 "ad_org_id":0,
 "ad_reference_id":20,
 "ad_reference_value_id":null,
 "created":"2005-12-31T20:53:57",
 "createdby":100,
 "description":"Enable tracking issues for this asset",
 "entitytype":"Asset Management",
 "fieldlength":1,
 "help":"Issues created by automatic Error Reporting",
 "isactive":"Y",
 "name":"Track Issues",
 "po_description":null,
 "po_help":null,
 "po_name":null,
 "po_printname":null,
 "printname":"Track Issues",
 "updated":"2016-04-11T16:32:37",
 "updatedby":0}, "children" : []},
 {"tablename" : "ad_element", "data" : {"ad_element_id":53473,
 "columnname":"A_Depreciation_ID",
 "ad_client_id":0,
 "ad_org_id":0,
 "ad_reference_id":13,
 "ad_reference_value_id":null,
 "created":"2008-05-30T16:35:08",
 "createdby":100,
 "description":null,
 "entitytype":"Asset Management",
 "fieldlength":22,
 "help":null,
 "isactive":"Y",
 "name":"Depreciation Type",
 "po_description":null,
 "po_help":null,
 "po_name":null,
 "po_printname":null,
 "printname":"Depreciation Type",
 "updated":"2016-04-11T16:32:51",
 "updatedby":0}, "children" : []},
 {"tablename" : "ad_element", "data" : {"ad_element_id":53494,
 "columnname":"A_QTY_Current",
 "ad_client_id":0,
 "ad_org_id":0,
 "ad_reference_id":22,
 "ad_reference_value_id":null,
 "created":"2008-05-30T16:36:46",
 "createdby":100,
 "description":null,
 "entitytype":"Asset Management",
 "fieldlength":22,
 "help":null,
 "isactive":"Y",
 "name":"Quantity",
 "po_description":null,
 "po_help":null,
 "po_name":null,
 "po_printname":null,
 "printname":"Quantity",
 "updated":"2016-04-11T16:36:02",
 "updatedby":0}, "children" : []},
 {"tablename" : "ad_element", "data" : {"ad_element_id":53498,
 "columnname":"A_Base_Amount",
 "ad_client_id":0,
 "ad_org_id":0,
 "ad_reference_id":12,
 "ad_reference_value_id":null,
 "created":"2008-05-30T16:36:56",
 "createdby":100,
 "description":null,
 "entitytype":"Asset Management",
 "fieldlength":22,
 "help":null,
 "isactive":"Y",
 "name":"Base Amount",
 "po_description":null,
 "po_help":null,
 "po_name":null,
 "po_printname":null,
 "printname":"Base Amount",
 "updated":"2016-04-11T16:33:02",
 "updatedby":0}, "children" : []},
 {"tablename" : "ad_element", "data" : {"ad_element_id":53526,
 "columnname":"A_Asset_CreateDate",
 "ad_client_id":0,
 "ad_org_id":0,
 "ad_reference_id":15,
 "ad_reference_value_id":null,
 "created":"2008-05-30T16:42:52",
 "createdby":100,
 "description":null,
 "entitytype":"Asset Management",
 "fieldlength":7,
 "help":null,
 "isactive":"Y",
 "name":"Asset Creation Date",
 "po_description":null,
 "po_help":null,
 "po_name":null,
 "po_printname":null,
 "printname":"Asset Creation Date",
 "updated":"2016-04-11T16:36:01",
 "updatedby":0}, "children" : []},
 {"tablename" : "ad_element", "data" : {"ad_element_id":53527,
 "columnname":"A_Asset_RevalDate",
 "ad_client_id":0,
 "ad_org_id":0,
 "ad_reference_id":15,
 "ad_reference_value_id":null,
 "created":"2008-05-30T16:42:53",
 "createdby":100,
 "description":null,
 "entitytype":"Asset Management",
 "fieldlength":7,
 "help":null,
 "isactive":"Y",
 "name":"Asset Reval. Date",
 "po_description":null,
 "po_help":null,
 "po_name":null,
 "po_printname":null,
 "printname":"Asset Reval. Date",
 "updated":"2016-04-11T16:36:01",
 "updatedby":0}, "children" : []},
 {"tablename" : "ad_element", "data" : {"ad_element_id":53528,
 "columnname":"A_Parent_Asset_ID",
 "ad_client_id":0,
 "ad_org_id":0,
 "ad_reference_id":30,
 "ad_reference_value_id":53258,
 "created":"2008-05-30T16:42:55",
 "createdby":100,
 "description":null,
 "entitytype":"Asset Management",
 "fieldlength":22,
 "help":null,
 "isactive":"Y",
 "name":"Asset ID",
 "po_description":null,
 "po_help":null,
 "po_name":null,
 "po_printname":null,
 "printname":"Asset ID",
 "updated":"2016-04-11T16:36:02",
 "updatedby":0}, "children" : []},
 {"tablename" : "ad_element", "data" : {"ad_element_id":53529,
 "columnname":"A_QTY_Original",
 "ad_client_id":0,
 "ad_org_id":0,
 "ad_reference_id":22,
 "ad_reference_value_id":null,
 "created":"2008-05-30T16:42:59",
 "createdby":100,
 "description":null,
 "entitytype":"Asset Management",
 "fieldlength":22,
 "help":null,
 "isactive":"Y",
 "name":"Original Qty",
 "po_description":null,
 "po_help":null,
 "po_name":null,
 "po_printname":null,
 "printname":"Original Qty",
 "updated":"2016-04-11T16:36:02",
 "updatedby":0}, "children" : []},
 {"tablename" : "ad_element", "data" : {"ad_element_id":53589,
 "columnname":"A_Asset_Info_Tax_ID",
 "ad_client_id":0,
 "ad_org_id":0,
 "ad_reference_id":13,
 "ad_reference_value_id":null,
 "created":"2008-05-30T16:54:24",
 "createdby":100,
 "description":null,
 "entitytype":"Asset Management",
 "fieldlength":22,
 "help":null,
 "isactive":"Y",
 "name":"Asset Info Tax",
 "po_description":null,
 "po_help":null,
 "po_name":null,
 "po_printname":null,
 "printname":"Asset Info Tax",
 "updated":"2016-04-11T16:33:54",
 "updatedby":0}, "children" : []},
 {"tablename" : "ad_element", "data" : {"ad_element_id":53590,
 "columnname":"A_Investment_CR",
 "ad_client_id":0,
 "ad_org_id":0,
 "ad_reference_id":11,
 "ad_reference_value_id":null,
 "created":"2008-05-30T16:54:29",
 "createdby":100,
 "description":null,
 "entitytype":"Asset Management",
 "fieldlength":22,
 "help":null,
 "isactive":"Y",
 "name":"Investment Credit",
 "po_description":null,
 "po_help":null,
 "po_name":null,
 "po_printname":null,
 "printname":"Investment Credit",
 "updated":"2016-04-11T16:33:55",
 "updatedby":0}, "children" : []},
 {"tablename" : "ad_element", "data" : {"ad_element_id":53591,
 "columnname":"A_Tax_Entity",
 "ad_client_id":0,
 "ad_org_id":0,
 "ad_reference_id":10,
 "ad_reference_value_id":null,
 "created":"2008-05-30T16:54:35",
 "createdby":100,
 "description":null,
 "entitytype":"Asset Management",
 "fieldlength":22,
 "help":null,
 "isactive":"Y",
 "name":"Tax Entity",
 "po_description":null,
 "po_help":null,
 "po_name":null,
 "po_printname":null,
 "printname":"Tax Entity",
 "updated":"2016-04-11T16:33:55",
 "updatedby":0}, "children" : []},
 {"tablename" : "ad_element", "data" : {"ad_element_id":53592,
 "columnname":"A_New_Used",
 "ad_client_id":0,
 "ad_org_id":0,
 "ad_reference_id":20,
 "ad_reference_value_id":null,
 "created":"2008-05-30T16:54:36",
 "createdby":100,
 "description":null,
 "entitytype":"Asset Management",
 "fieldlength":1,
 "help":null,
 "isactive":"Y",
 "name":"Purchased New?",
 "po_description":null,
 "po_help":null,
 "po_name":null,
 "po_printname":null,
 "printname":"Purchased New?",
 "updated":"2016-04-11T16:33:55",
 "updatedby":0}, "children" : []},
 {"tablename" : "ad_element", "data" : {"ad_element_id":53593,
 "columnname":"A_Finance_Meth",
 "ad_client_id":0,
 "ad_org_id":0,
 "ad_reference_id":17,
 "ad_reference_value_id":53271,
 "created":"2008-05-30T16:54:41",
 "createdby":100,
 "description":null,
 "entitytype":"Asset Management",
 "fieldlength":2,
 "help":null,
 "isactive":"Y",
 "name":"Finance Method",
 "po_description":null,
 "po_help":null,
 "po_name":null,
 "po_printname":null,
 "printname":"Finance Method",
 "updated":"2016-04-11T16:33:44",
 "updatedby":0}, "children" : []},
 {"tablename" : "ad_element", "data" : {"ad_element_id":53594,
 "columnname":"A_Asset_Info_Fin_ID",
 "ad_client_id":0,
 "ad_org_id":0,
 "ad_reference_id":13,
 "ad_reference_value_id":null,
 "created":"2008-05-30T16:54:54",
 "createdby":100,
 "description":null,
 "entitytype":"Asset Management",
 "fieldlength":22,
 "help":null,
 "isactive":"Y",
 "name":"Asset Info Fin.",
 "po_description":null,
 "po_help":null,
 "po_name":null,
 "po_printname":null,
 "printname":"Asset Info Fin.",
 "updated":"2016-04-11T16:33:44",
 "updatedby":0}, "children" : []},
 {"tablename" : "ad_element", "data" : {"ad_element_id":53595,
 "columnname":"A_Due_On",
 "ad_client_id":0,
 "ad_org_id":0,
 "ad_reference_id":17,
 "ad_reference_value_id":53272,
 "created":"2008-05-30T16:55:01",
 "createdby":100,
 "description":null,
 "entitytype":"Asset Management",
 "fieldlength":22,
 "help":null,
 "isactive":"Y",
 "name":"Payment Due Date",
 "po_description":null,
 "po_help":null,
 "po_name":null,
 "po_printname":null,
 "printname":"Payment Due Date",
 "updated":"2016-04-11T16:33:44",
 "updatedby":0}, "children" : []},
 {"tablename" : "ad_element", "data" : {"ad_element_id":53596,
 "columnname":"A_Purchase_Option",
 "ad_client_id":0,
 "ad_org_id":0,
 "ad_reference_id":20,
 "ad_reference_value_id":null,
 "created":"2008-05-30T16:55:03",
 "createdby":100,
 "description":null,
 "entitytype":"Asset Management",
 "fieldlength":2,
 "help":null,
 "isactive":"Y",
 "name":"Purchase Option",
 "po_description":null,
 "po_help":null,
 "po_name":null,
 "po_printname":null,
 "printname":"Purchase Option",
 "updated":"2016-04-11T16:33:45",
 "updatedby":0}, "children" : []},
 {"tablename" : "ad_element", "data" : {"ad_element_id":53597,
 "columnname":"A_Purchase_Option_Credit_Per",
 "ad_client_id":0,
 "ad_org_id":0,
 "ad_reference_id":22,
 "ad_reference_value_id":null,
 "created":"2008-05-30T16:55:04",
 "createdby":100,
 "description":null,
 "entitytype":"Asset Management",
 "fieldlength":22,
 "help":null,
 "isactive":"Y",
 "name":"Purchase Option Credit %",
 "po_description":null,
 "po_help":null,
 "po_name":null,
 "po_printname":null,
 "printname":"Purchase Option Credit %",
 "updated":"2016-04-11T16:33:45",
 "updatedby":0}, "children" : []},
 {"tablename" : "ad_element", "data" : {"ad_element_id":53598,
 "columnname":"A_Purchase_Price",
 "ad_client_id":0,
 "ad_org_id":0,
 "ad_reference_id":12,
 "ad_reference_value_id":null,
 "created":"2008-05-30T16:55:12",
 "createdby":100,
 "description":null,
 "entitytype":"Asset Management",
 "fieldlength":22,
 "help":null,
 "isactive":"Y",
 "name":"Option Purchase Price",
 "po_description":null,
 "po_help":null,
 "po_name":null,
 "po_printname":null,
 "printname":"Option Purchase Price",
 "updated":"2016-04-11T16:33:45",
 "updatedby":0}, "children" : []},
 {"tablename" : "ad_element", "data" : {"ad_element_id":53599,
 "columnname":"A_Purchase_Option_Credit",
 "ad_client_id":0,
 "ad_org_id":0,
 "ad_reference_id":11,
 "ad_reference_value_id":null,
 "created":"2008-05-30T16:55:13",
 "createdby":100,
 "description":null,
 "entitytype":"Asset Management",
 "fieldlength":22,
 "help":null,
 "isactive":"Y",
 "name":"Purchase Option Credit",
 "po_description":null,
 "po_help":null,
 "po_name":null,
 "po_printname":null,
 "printname":"Purchase Option Credit",
 "updated":"2016-04-11T16:33:46",
 "updatedby":0}, "children" : []},
 {"tablename" : "ad_element", "data" : {"ad_element_id":53600,
 "columnname":"A_Monthly_Payment",
 "ad_client_id":0,
 "ad_org_id":0,
 "ad_reference_id":12,
 "ad_reference_value_id":null,
 "created":"2008-05-30T16:55:14",
 "createdby":100,
 "description":null,
 "entitytype":"Asset Management",
 "fieldlength":22,
 "help":null,
 "isactive":"Y",
 "name":"Monthly Payment",
 "po_description":null,
 "po_help":null,
 "po_name":null,
 "po_printname":null,
 "printname":"Monthly Payment",
 "updated":"2016-04-11T16:33:46",
 "updatedby":0}, "children" : []},
 {"tablename" : "ad_element", "data" : {"ad_element_id":53601,
 "columnname":"A_Expired_Date",
 "ad_client_id":0,
 "ad_org_id":0,
 "ad_reference_id":15,
 "ad_reference_value_id":null,
 "created":"2008-05-30T16:55:15",
 "createdby":100,
 "description":null,
 "entitytype":"Asset Management",
 "fieldlength":7,
 "help":null,
 "isactive":"Y",
 "name":"Contract Expiration Date",
 "po_description":null,
 "po_help":null,
 "po_name":null,
 "po_printname":null,
 "printname":"Contract Expiration Date",
 "updated":"2016-04-11T16:33:46",
 "updatedby":0}, "children" : []},
 {"tablename" : "ad_element", "data" : {"ad_element_id":53602,
 "columnname":"A_Contract_Date",
 "ad_client_id":0,
 "ad_org_id":0,
 "ad_reference_id":15,
 "ad_reference_value_id":null,
 "created":"2008-05-30T16:55:17",
 "createdby":100,
 "description":null,
 "entitytype":"Asset Management",
 "fieldlength":7,
 "help":null,
 "isactive":"Y",
 "name":"Contract Date",
 "po_description":null,
 "po_help":null,
 "po_name":null,
 "po_printname":null,
 "printname":"Contract Date",
 "updated":"2016-04-11T16:33:46",
 "updatedby":0}, "children" : []},
 {"tablename" : "ad_element", "data" : {"ad_element_id":53613,
 "columnname":"A_Asset_Info_Lic_ID",
 "ad_client_id":0,
 "ad_org_id":0,
 "ad_reference_id":13,
 "ad_reference_value_id":null,
 "created":"2008-05-30T16:57:52",
 "createdby":100,
 "description":null,
 "entitytype":"Asset Management",
 "fieldlength":22,
 "help":null,
 "isactive":"Y",
 "name":"Asset Info Lic.",
 "po_description":null,
 "po_help":null,
 "po_name":null,
 "po_printname":null,
 "printname":"Asset Info Lic.",
 "updated":"2016-04-11T16:33:49",
 "updatedby":0}, "children" : []},
 {"tablename" : "ad_element", "data" : {"ad_element_id":53614,
 "columnname":"A_License_Fee",
 "ad_client_id":0,
 "ad_org_id":0,
 "ad_reference_id":12,
 "ad_reference_value_id":null,
 "created":"2008-05-30T16:57:55",
 "createdby":100,
 "description":null,
 "entitytype":"Asset Management",
 "fieldlength":22,
 "help":null,
 "isactive":"Y",
 "name":"License Fee",
 "po_description":null,
 "po_help":null,
 "po_name":null,
 "po_printname":null,
 "printname":"License Fee",
 "updated":"2016-04-11T16:33:50",
 "updatedby":0}, "children" : []},
 {"tablename" : "ad_element", "data" : {"ad_element_id":53615,
 "columnname":"A_Renewal_Date",
 "ad_client_id":0,
 "ad_org_id":0,
 "ad_reference_id":15,
 "ad_reference_value_id":null,
 "created":"2008-05-30T16:57:56",
 "createdby":100,
 "description":null,
 "entitytype":"Asset Management",
 "fieldlength":7,
 "help":null,
 "isactive":"Y",
 "name":"Policy Renewal Date",
 "po_description":null,
 "po_help":null,
 "po_name":null,
 "po_printname":null,
 "printname":"Policy Renewal Date",
 "updated":"2016-04-11T16:33:50",
 "updatedby":0}, "children" : []},
 {"tablename" : "ad_element", "data" : {"ad_element_id":53616,
 "columnname":"A_License_No",
 "ad_client_id":0,
 "ad_org_id":0,
 "ad_reference_id":10,
 "ad_reference_value_id":null,
 "created":"2008-05-30T16:58:03",
 "createdby":100,
 "description":null,
 "entitytype":"Asset Management",
 "fieldlength":120,
 "help":null,
 "isactive":"Y",
 "name":"License No",
 "po_description":null,
 "po_help":null,
 "po_name":null,
 "po_printname":null,
 "printname":"License No",
 "updated":"2016-04-11T16:33:50",
 "updatedby":0}, "children" : []},
 {"tablename" : "ad_element", "data" : {"ad_element_id":53617,
 "columnname":"A_Issuing_Agency",
 "ad_client_id":0,
 "ad_org_id":0,
 "ad_reference_id":10,
 "ad_reference_value_id":null,
 "created":"2008-05-30T16:58:04",
 "createdby":100,
 "description":null,
 "entitytype":"Asset Management",
 "fieldlength":22,
 "help":null,
 "isactive":"Y",
 "name":"Issuing Agency",
 "po_description":null,
 "po_help":null,
 "po_name":null,
 "po_printname":null,
 "printname":"Issuing Agency",
 "updated":"2016-04-11T16:33:50",
 "updatedby":0}, "children" : []},
 {"tablename" : "ad_element", "data" : {"ad_element_id":53618,
 "columnname":"A_Asset_Info_Ins_ID",
 "ad_client_id":0,
 "ad_org_id":0,
 "ad_reference_id":13,
 "ad_reference_value_id":null,
 "created":"2008-05-30T16:58:17",
 "createdby":100,
 "description":null,
 "entitytype":"Asset Management",
 "fieldlength":22,
 "help":null,
 "isactive":"Y",
 "name":"Asset Info Ins.",
 "po_description":null,
 "po_help":null,
 "po_name":null,
 "po_printname":null,
 "printname":"Asset Info Ins.",
 "updated":"2016-04-11T16:33:52",
 "updatedby":0}, "children" : []},
 {"tablename" : "ad_element", "data" : {"ad_element_id":53619,
 "columnname":"A_Ins_Value",
 "ad_client_id":0,
 "ad_org_id":0,
 "ad_reference_id":12,
 "ad_reference_value_id":null,
 "created":"2008-05-30T16:58:21",
 "createdby":100,
 "description":null,
 "entitytype":"Asset Management",
 "fieldlength":22,
 "help":null,
 "isactive":"Y",
 "name":"Insured Value",
 "po_description":null,
 "po_help":null,
 "po_name":null,
 "po_printname":null,
 "printname":"Insured Value",
 "updated":"2016-04-11T16:36:09",
 "updatedby":0}, "children" : []},
 {"tablename" : "ad_element", "data" : {"ad_element_id":53620,
 "columnname":"A_Policy_No",
 "ad_client_id":0,
 "ad_org_id":0,
 "ad_reference_id":10,
 "ad_reference_value_id":null,
 "created":"2008-05-30T16:58:22",
 "createdby":100,
 "description":null,
 "entitytype":"Asset Management",
 "fieldlength":100,
 "help":null,
 "isactive":"Y",
 "name":"Policy Number",
 "po_description":null,
 "po_help":null,
 "po_name":null,
 "po_printname":null,
 "printname":"Policy Number",
 "updated":"2016-04-11T16:33:52",
 "updatedby":0}, "children" : []},
 {"tablename" : "ad_element", "data" : {"ad_element_id":53621,
 "columnname":"A_Replace_Cost",
 "ad_client_id":0,
 "ad_org_id":0,
 "ad_reference_id":12,
 "ad_reference_value_id":null,
 "created":"2008-05-30T16:58:24",
 "createdby":100,
 "description":null,
 "entitytype":"Asset Management",
 "fieldlength":22,
 "help":null,
 "isactive":"Y",
 "name":"Replacement Costs",
 "po_description":null,
 "po_help":null,
 "po_name":null,
 "po_printname":null,
 "printname":"Replacement Costs",
 "updated":"2016-04-11T16:33:52",
 "updatedby":0}, "children" : []},
 {"tablename" : "ad_element", "data" : {"ad_element_id":53622,
 "columnname":"A_Insurance_Co",
 "ad_client_id":0,
 "ad_org_id":0,
 "ad_reference_id":10,
 "ad_reference_value_id":null,
 "created":"2008-05-30T16:58:31",
 "createdby":100,
 "description":null,
 "entitytype":"Asset Management",
 "fieldlength":22,
 "help":null,
 "isactive":"Y",
 "name":"Insurance Company",
 "po_description":null,
 "po_help":null,
 "po_name":null,
 "po_printname":null,
 "printname":"Insurance Company",
 "updated":"2016-04-11T16:33:53",
 "updatedby":0}, "children" : []},
 {"tablename" : "ad_element", "data" : {"ad_element_id":53623,
 "columnname":"A_Ins_Premium",
 "ad_client_id":0,
 "ad_org_id":0,
 "ad_reference_id":12,
 "ad_reference_value_id":null,
 "created":"2008-05-30T16:58:33",
 "createdby":100,
 "description":null,
 "entitytype":"Asset Management",
 "fieldlength":22,
 "help":null,
 "isactive":"Y",
 "name":"Insurance Premium",
 "po_description":null,
 "po_help":null,
 "po_name":null,
 "po_printname":null,
 "printname":"Insurance Premium",
 "updated":"2016-04-11T16:33:53",
 "updatedby":0}, "children" : []},
 {"tablename" : "ad_element", "data" : {"ad_element_id":53624,
 "columnname":"A_Asset_Info_Oth_ID",
 "ad_client_id":0,
 "ad_org_id":0,
 "ad_reference_id":13,
 "ad_reference_value_id":null,
 "created":"2008-05-30T16:58:46",
 "createdby":100,
 "description":null,
 "entitytype":"Asset Management",
 "fieldlength":22,
 "help":null,
 "isactive":"Y",
 "name":"Asset Info Oth.",
 "po_description":null,
 "po_help":null,
 "po_name":null,
 "po_printname":null,
 "printname":"Asset Info Oth.",
 "updated":"2016-04-11T16:33:57",
 "updatedby":0}, "children" : []},
 {"tablename" : "ad_element", "data" : {"ad_element_id":53625,
 "columnname":"A_User1",
 "ad_client_id":0,
 "ad_org_id":0,
 "ad_reference_id":10,
 "ad_reference_value_id":null,
 "created":"2008-05-30T16:58:47",
 "createdby":100,
 "description":null,
 "entitytype":"Asset Management",
 "fieldlength":3,
 "help":null,
 "isactive":"Y",
 "name":"User 1",
 "po_description":null,
 "po_help":null,
 "po_name":null,
 "po_printname":null,
 "printname":"User 1",
 "updated":"2016-04-11T16:33:57",
 "updatedby":0}, "children" : []},
 {"tablename" : "ad_element", "data" : {"ad_element_id":53626,
 "columnname":"A_User10",
 "ad_client_id":0,
 "ad_org_id":0,
 "ad_reference_id":10,
 "ad_reference_value_id":null,
 "created":"2008-05-30T16:58:48",
 "createdby":100,
 "description":null,
 "entitytype":"Asset Management",
 "fieldlength":3,
 "help":null,
 "isactive":"Y",
 "name":"User 10",
 "po_description":null,
 "po_help":null,
 "po_name":null,
 "po_printname":null,
 "printname":"User 10",
 "updated":"2016-04-11T16:33:57",
 "updatedby":0}, "children" : []},
 {"tablename" : "ad_element", "data" : {"ad_element_id":53627,
 "columnname":"A_User11",
 "ad_client_id":0,
 "ad_org_id":0,
 "ad_reference_id":10,
 "ad_reference_value_id":null,
 "created":"2008-05-30T16:58:51",
 "createdby":100,
 "description":null,
 "entitytype":"Asset Management",
 "fieldlength":10,
 "help":null,
 "isactive":"Y",
 "name":"User 11",
 "po_description":null,
 "po_help":null,
 "po_name":null,
 "po_printname":null,
 "printname":"User 11",
 "updated":"2016-04-11T16:33:57",
 "updatedby":0}, "children" : []},
 {"tablename" : "ad_element", "data" : {"ad_element_id":53628,
 "columnname":"A_User12",
 "ad_client_id":0,
 "ad_org_id":0,
 "ad_reference_id":10,
 "ad_reference_value_id":null,
 "created":"2008-05-30T16:58:52",
 "createdby":100,
 "description":null,
 "entitytype":"Asset Management",
 "fieldlength":10,
 "help":null,
 "isactive":"Y",
 "name":"User 12",
 "po_description":null,
 "po_help":null,
 "po_name":null,
 "po_printname":null,
 "printname":"User 12",
 "updated":"2016-04-11T16:33:57",
 "updatedby":0}, "children" : []},
 {"tablename" : "ad_element", "data" : {"ad_element_id":53629,
 "columnname":"A_User13",
 "ad_client_id":0,
 "ad_org_id":0,
 "ad_reference_id":10,
 "ad_reference_value_id":null,
 "created":"2008-05-30T16:58:53",
 "createdby":100,
 "description":null,
 "entitytype":"Asset Management",
 "fieldlength":10,
 "help":null,
 "isactive":"Y",
 "name":"User 13",
 "po_description":null,
 "po_help":null,
 "po_name":null,
 "po_printname":null,
 "printname":"User 13",
 "updated":"2016-04-11T16:33:57",
 "updatedby":0}, "children" : []},
 {"tablename" : "ad_element", "data" : {"ad_element_id":53630,
 "columnname":"A_User14",
 "ad_client_id":0,
 "ad_org_id":0,
 "ad_reference_id":10,
 "ad_reference_value_id":null,
 "created":"2008-05-30T16:58:55",
 "createdby":100,
 "description":null,
 "entitytype":"Asset Management",
 "fieldlength":10,
 "help":null,
 "isactive":"Y",
 "name":"User 14",
 "po_description":null,
 "po_help":null,
 "po_name":null,
 "po_printname":null,
 "printname":"User 14",
 "updated":"2016-04-11T16:33:58",
 "updatedby":0}, "children" : []},
 {"tablename" : "ad_element", "data" : {"ad_element_id":53631,
 "columnname":"A_User15",
 "ad_client_id":0,
 "ad_org_id":0,
 "ad_reference_id":10,
 "ad_reference_value_id":null,
 "created":"2008-05-30T16:58:57",
 "createdby":100,
 "description":null,
 "entitytype":"Asset Management",
 "fieldlength":10,
 "help":null,
 "isactive":"Y",
 "name":"User 15",
 "po_description":null,
 "po_help":null,
 "po_name":null,
 "po_printname":null,
 "printname":"User 15",
 "updated":"2016-04-11T16:33:58",
 "updatedby":0}, "children" : []},
 {"tablename" : "ad_element", "data" : {"ad_element_id":53632,
 "columnname":"A_User2",
 "ad_client_id":0,
 "ad_org_id":0,
 "ad_reference_id":10,
 "ad_reference_value_id":null,
 "created":"2008-05-30T16:58:59",
 "createdby":100,
 "description":null,
 "entitytype":"Asset Management",
 "fieldlength":3,
 "help":null,
 "isactive":"Y",
 "name":"User 2",
 "po_description":null,
 "po_help":null,
 "po_name":null,
 "po_printname":null,
 "printname":"User 2",
 "updated":"2016-04-11T16:33:58",
 "updatedby":0}, "children" : []},
 {"tablename" : "ad_element", "data" : {"ad_element_id":53633,
 "columnname":"A_User3",
 "ad_client_id":0,
 "ad_org_id":0,
 "ad_reference_id":10,
 "ad_reference_value_id":null,
 "created":"2008-05-30T16:59:00",
 "createdby":100,
 "description":null,
 "entitytype":"Asset Management",
 "fieldlength":3,
 "help":null,
 "isactive":"Y",
 "name":"User 3",
 "po_description":null,
 "po_help":null,
 "po_name":null,
 "po_printname":null,
 "printname":"User 3",
 "updated":"2016-04-11T16:33:58",
 "updatedby":0}, "children" : []},
 {"tablename" : "ad_element", "data" : {"ad_element_id":53634,
 "columnname":"A_User4",
 "ad_client_id":0,
 "ad_org_id":0,
 "ad_reference_id":10,
 "ad_reference_value_id":null,
 "created":"2008-05-30T16:59:01",
 "createdby":100,
 "description":null,
 "entitytype":"Asset Management",
 "fieldlength":3,
 "help":null,
 "isactive":"Y",
 "name":"User 4",
 "po_description":null,
 "po_help":null,
 "po_name":null,
 "po_printname":null,
 "printname":"User 4",
 "updated":"2016-04-11T16:33:58",
 "updatedby":0}, "children" : []},
 {"tablename" : "ad_element", "data" : {"ad_element_id":53635,
 "columnname":"A_User5",
 "ad_client_id":0,
 "ad_org_id":0,
 "ad_reference_id":10,
 "ad_reference_value_id":null,
 "created":"2008-05-30T16:59:03",
 "createdby":100,
 "description":null,
 "entitytype":"Asset Management",
 "fieldlength":3,
 "help":null,
 "isactive":"Y",
 "name":"User 5",
 "po_description":null,
 "po_help":null,
 "po_name":null,
 "po_printname":null,
 "printname":"User 5",
 "updated":"2016-04-11T16:33:58",
 "updatedby":0}, "children" : []},
 {"tablename" : "ad_element", "data" : {"ad_element_id":53636,
 "columnname":"A_User6",
 "ad_client_id":0,
 "ad_org_id":0,
 "ad_reference_id":10,
 "ad_reference_value_id":null,
 "created":"2008-05-30T16:59:04",
 "createdby":100,
 "description":null,
 "entitytype":"Asset Management",
 "fieldlength":3,
 "help":null,
 "isactive":"Y",
 "name":"User 6",
 "po_description":null,
 "po_help":null,
 "po_name":null,
 "po_printname":null,
 "printname":"User 6",
 "updated":"2016-04-11T16:33:58",
 "updatedby":0}, "children" : []},
 {"tablename" : "ad_element", "data" : {"ad_element_id":53637,
 "columnname":"A_User7",
 "ad_client_id":0,
 "ad_org_id":0,
 "ad_reference_id":10,
 "ad_reference_value_id":null,
 "created":"2008-05-30T16:59:05",
 "createdby":100,
 "description":null,
 "entitytype":"Asset Management",
 "fieldlength":3,
 "help":null,
 "isactive":"Y",
 "name":"User 7",
 "po_description":null,
 "po_help":null,
 "po_name":null,
 "po_printname":null,
 "printname":"User 7",
 "updated":"2016-04-11T16:33:59",
 "updatedby":0}, "children" : []},
 {"tablename" : "ad_element", "data" : {"ad_element_id":53638,
 "columnname":"A_User8",
 "ad_client_id":0,
 "ad_org_id":0,
 "ad_reference_id":10,
 "ad_reference_value_id":null,
 "created":"2008-05-30T16:59:06",
 "createdby":100,
 "description":null,
 "entitytype":"Asset Management",
 "fieldlength":3,
 "help":null,
 "isactive":"Y",
 "name":"User 8",
 "po_description":null,
 "po_help":null,
 "po_name":null,
 "po_printname":null,
 "printname":"User 8",
 "updated":"2016-04-11T16:33:59",
 "updatedby":0}, "children" : []},
 {"tablename" : "ad_element", "data" : {"ad_element_id":53639,
 "columnname":"A_User9",
 "ad_client_id":0,
 "ad_org_id":0,
 "ad_reference_id":10,
 "ad_reference_value_id":null,
 "created":"2008-05-30T16:59:07",
 "createdby":100,
 "description":null,
 "entitytype":"Asset Management",
 "fieldlength":3,
 "help":null,
 "isactive":"Y",
 "name":"User 9",
 "po_description":null,
 "po_help":null,
 "po_name":null,
 "po_printname":null,
 "printname":"User 9",
 "updated":"2016-04-11T16:33:59",
 "updatedby":0}, "children" : []},
 {"tablename" : "ad_element", "data" : {"ad_element_id":56259,
 "columnname":"C_ElementValue_FA_ID",
 "ad_client_id":0,
 "ad_org_id":0,
 "ad_reference_id":null,
 "ad_reference_value_id":null,
 "created":"2014-07-14T15:12:55",
 "createdby":100,
 "description":null,
 "entitytype":"Asset Management",
 "fieldlength":null,
 "help":null,
 "isactive":"Y",
 "name":"Account Elements for Fixed Assets",
 "po_description":null,
 "po_help":null,
 "po_name":null,
 "po_printname":null,
 "printname":"Account Elements for Fixed Assets",
 "updated":"2014-07-14T15:12:55",
 "updatedby":100}, "children" : []},
 {"tablename" : "ad_element", "data" : {"ad_element_id":56260,
 "columnname":"FAAccountType",
 "ad_client_id":0,
 "ad_org_id":0,
 "ad_reference_id":null,
 "ad_reference_value_id":null,
 "created":"2014-07-14T15:11:15",
 "createdby":100,
 "description":null,
 "entitytype":"Asset Management",
 "fieldlength":null,
 "help":null,
 "isactive":"Y",
 "name":"FA Account Type",
 "po_description":null,
 "po_help":null,
 "po_name":null,
 "po_printname":null,
 "printname":"FA Account Type",
 "updated":"2016-04-11T16:36:24",
 "updatedby":0}, "children" : []},
 {"tablename" : "ad_element", "data" : {"ad_element_id":56261,
 "columnname":"GAAS_Asset_Type",
 "ad_client_id":0,
 "ad_org_id":0,
 "ad_reference_id":null,
 "ad_reference_value_id":null,
 "created":"2014-07-14T15:07:19",
 "createdby":100,
 "description":null,
 "entitytype":"Asset Management",
 "fieldlength":null,
 "help":null,
 "isactive":"Y",
 "name":"Type",
 "po_description":null,
 "po_help":null,
 "po_name":null,
 "po_printname":null,
 "printname":"Type",
 "updated":"2016-04-11T16:36:03",
 "updatedby":0}, "children" : []},
 {"tablename" : "ad_element", "data" : {"ad_element_id":56262,
 "columnname":"GAAS_DepreciateFrom",
 "ad_client_id":0,
 "ad_org_id":0,
 "ad_reference_id":null,
 "ad_reference_value_id":null,
 "created":"2014-07-14T15:08:11",
 "createdby":100,
 "description":null,
 "entitytype":"Asset Management",
 "fieldlength":null,
 "help":null,
 "isactive":"Y",
 "name":"Depreciate From",
 "po_description":null,
 "po_help":null,
 "po_name":null,
 "po_printname":null,
 "printname":"Depreciate From",
 "updated":"2014-07-14T15:08:11",
 "updatedby":100}, "children" : []},
 {"tablename" : "ad_element", "data" : {"ad_element_id":56263,
 "columnname":"GAAS_DepreciateFromAddition",
 "ad_client_id":0,
 "ad_org_id":0,
 "ad_reference_id":null,
 "ad_reference_value_id":null,
 "created":"2014-07-14T15:08:11",
 "createdby":100,
 "description":null,
 "entitytype":"Asset Management",
 "fieldlength":null,
 "help":null,
 "isactive":"Y",
 "name":"Depreciate from date of addition",
 "po_description":null,
 "po_help":null,
 "po_name":null,
 "po_printname":null,
 "printname":"Depreciate from date of addition",
 "updated":"2014-07-14T15:08:11",
 "updatedby":100}, "children" : []},
 {"tablename" : "ad_element", "data" : {"ad_element_id":56264,
 "columnname":"GAAS_SubAssetsAllowed",
 "ad_client_id":0,
 "ad_org_id":0,
 "ad_reference_id":null,
 "ad_reference_value_id":null,
 "created":"2014-07-14T15:08:12",
 "createdby":100,
 "description":null,
 "entitytype":"Asset Management",
 "fieldlength":null,
 "help":null,
 "isactive":"Y",
 "name":"Sub Assets Allowed",
 "po_description":null,
 "po_help":null,
 "po_name":null,
 "po_printname":null,
 "printname":"Sub Assets Allowed",
 "updated":"2014-07-14T15:08:12",
 "updatedby":100}, "children" : []},
 {"tablename" : "ad_element", "data" : {"ad_element_id":56265,
 "columnname":"GAAS_Asset_Group_Acct_ID",
 "ad_client_id":0,
 "ad_org_id":0,
 "ad_reference_id":null,
 "ad_reference_value_id":null,
 "created":"2014-07-14T15:08:18",
 "createdby":100,
 "description":null,
 "entitytype":"Asset Management",
 "fieldlength":null,
 "help":null,
 "isactive":"Y",
 "name":"Asset Group Accounting",
 "po_description":null,
 "po_help":null,
 "po_name":null,
 "po_printname":null,
 "printname":"Asset Group Accounting",
 "updated":"2014-07-14T15:08:18",
 "updatedby":100}, "children" : []},
 {"tablename" : "ad_element", "data" : {"ad_element_id":56266,
 "columnname":"DepreciationRate",
 "ad_client_id":0,
 "ad_org_id":0,
 "ad_reference_id":null,
 "ad_reference_value_id":null,
 "created":"2014-07-14T15:07:44",
 "createdby":100,
 "description":null,
 "entitytype":"Asset Management",
 "fieldlength":null,
 "help":null,
 "isactive":"Y",
 "name":"Depreciation Rate",
 "po_description":null,
 "po_help":null,
 "po_name":null,
 "po_printname":null,
 "printname":"Depreciation Rate",
 "updated":"2016-04-11T16:36:09",
 "updatedby":0}, "children" : []},
 {"tablename" : "ad_element", "data" : {"ad_element_id":56281,
 "columnname":"Default_Depn_Periods",
 "ad_client_id":0,
 "ad_org_id":0,
 "ad_reference_id":null,
 "ad_reference_value_id":null,
 "created":"2014-07-14T15:08:31",
 "createdby":100,
 "description":"Default Depn Periods",
 "entitytype":"Asset Management",
 "fieldlength":null,
 "help":"Standard Number of Depreciation Periods we wish to add",
 "isactive":"Y",
 "name":"Default_Depn_Periods",
 "po_description":null,
 "po_help":null,
 "po_name":null,
 "po_printname":null,
 "printname":"Default Depn Periods",
 "updated":"2014-07-14T15:08:31",
 "updatedby":100}, "children" : []},
 {"tablename" : "ad_element", "data" : {"ad_element_id":56286,
 "columnname":"GAAS_BuildDepreciation",
 "ad_client_id":0,
 "ad_org_id":0,
 "ad_reference_id":null,
 "ad_reference_value_id":null,
 "created":"2014-07-14T15:09:24",
 "createdby":100,
 "description":null,
 "entitytype":"Asset Management",
 "fieldlength":null,
 "help":null,
 "isactive":"Y",
 "name":"Build Depreciation Expense",
 "po_description":null,
 "po_help":null,
 "po_name":null,
 "po_printname":null,
 "printname":"Build Depreciation Expense",
 "updated":"2014-07-14T15:09:24",
 "updatedby":100}, "children" : []},
 {"tablename" : "ad_element", "data" : {"ad_element_id":56287,
 "columnname":"GAAS_AssetJournal_ID",
 "ad_client_id":0,
 "ad_org_id":0,
 "ad_reference_id":null,
 "ad_reference_value_id":null,
 "created":"2014-07-14T15:05:46",
 "createdby":100,
 "description":null,
 "entitytype":"Asset Management",
 "fieldlength":null,
 "help":null,
 "isactive":"Y",
 "name":"Asset Journal",
 "po_description":null,
 "po_help":null,
 "po_name":null,
 "po_printname":null,
 "printname":"Asset Journal",
 "updated":"2014-07-14T15:05:46",
 "updatedby":100}, "children" : []},
 {"tablename" : "ad_element", "data" : {"ad_element_id":56288,
 "columnname":"EntryType",
 "ad_client_id":0,
 "ad_org_id":0,
 "ad_reference_id":null,
 "ad_reference_value_id":null,
 "created":"2014-07-14T15:06:01",
 "createdby":100,
 "description":null,
 "entitytype":"Asset Management",
 "fieldlength":null,
 "help":null,
 "isactive":"Y",
 "name":"Entry Type",
 "po_description":null,
 "po_help":null,
 "po_name":null,
 "po_printname":null,
 "printname":"Entry Type",
 "updated":"2016-04-11T16:36:26",
 "updatedby":0}, "children" : []},
 {"tablename" : "ad_element", "data" : {"ad_element_id":56289,
 "columnname":"GenDepreciationEntries",
 "ad_client_id":0,
 "ad_org_id":0,
 "ad_reference_id":null,
 "ad_reference_value_id":null,
 "created":"2014-07-14T15:06:02",
 "createdby":100,
 "description":null,
 "entitytype":"Asset Management",
 "fieldlength":null,
 "help":null,
 "isactive":"Y",
 "name":"Generate Depreciation Entries",
 "po_description":null,
 "po_help":null,
 "po_name":null,
 "po_printname":null,
 "printname":"Generate Depreciation Entries",
 "updated":"2014-07-14T15:06:02",
 "updatedby":100}, "children" : []},
 {"tablename" : "ad_element", "data" : {"ad_element_id":56290,
 "columnname":"GAAS_AssetJournalLine_ID",
 "ad_client_id":0,
 "ad_org_id":0,
 "ad_reference_id":null,
 "ad_reference_value_id":null,
 "created":"2014-07-14T15:06:24",
 "createdby":100,
 "description":null,
 "entitytype":"Asset Management",
 "fieldlength":null,
 "help":null,
 "isactive":"Y",
 "name":"Asset Journal Line",
 "po_description":null,
 "po_help":null,
 "po_name":null,
 "po_printname":null,
 "printname":"Asset Journal Line",
 "updated":"2016-04-11T16:36:10",
 "updatedby":0}, "children" : []},
 {"tablename" : "ad_element", "data" : {"ad_element_id":56291,
 "columnname":"AccumulatedDepreciationAmt",
 "ad_client_id":0,
 "ad_org_id":0,
 "ad_reference_id":null,
 "ad_reference_value_id":null,
 "created":"2014-07-14T15:06:28",
 "createdby":100,
 "description":null,
 "entitytype":"Asset Management",
 "fieldlength":null,
 "help":null,
 "isactive":"Y",
 "name":"Accumulated Depreciation Amount",
 "po_description":null,
 "po_help":null,
 "po_name":null,
 "po_printname":null,
 "printname":"Accumulated Depreciation Amount",
 "updated":"2014-07-14T15:06:28",
 "updatedby":100}, "children" : []},
 {"tablename" : "ad_element", "data" : {"ad_element_id":56292,
 "columnname":"AssetCost",
 "ad_client_id":0,
 "ad_org_id":0,
 "ad_reference_id":null,
 "ad_reference_value_id":null,
 "created":"2014-07-14T15:06:28",
 "createdby":100,
 "description":null,
 "entitytype":"Asset Management",
 "fieldlength":null,
 "help":null,
 "isactive":"Y",
 "name":"Asset Cost",
 "po_description":null,
 "po_help":null,
 "po_name":null,
 "po_printname":null,
 "printname":"Asset Cost",
 "updated":"2016-04-11T16:36:07",
 "updatedby":0}, "children" : []},
 {"tablename" : "ad_element", "data" : {"ad_element_id":56293,
 "columnname":"BookAmt",
 "ad_client_id":0,
 "ad_org_id":0,
 "ad_reference_id":null,
 "ad_reference_value_id":null,
 "created":"2014-07-14T15:06:29",
 "createdby":100,
 "description":null,
 "entitytype":"Asset Management",
 "fieldlength":null,
 "help":null,
 "isactive":"Y",
 "name":"Book Amount",
 "po_description":null,
 "po_help":null,
 "po_name":null,
 "po_printname":null,
 "printname":"Book Amount",
 "updated":"2014-07-14T15:06:29",
 "updatedby":100}, "children" : []},
 {"tablename" : "ad_element", "data" : {"ad_element_id":56294,
 "columnname":"ClosingBalance",
 "ad_client_id":0,
 "ad_org_id":0,
 "ad_reference_id":null,
 "ad_reference_value_id":null,
 "created":"2014-07-14T15:06:30",
 "createdby":100,
 "description":null,
 "entitytype":"Asset Management",
 "fieldlength":null,
 "help":null,
 "isactive":"Y",
 "name":"Closing Balance",
 "po_description":null,
 "po_help":null,
 "po_name":null,
 "po_printname":null,
 "printname":"Closing Balance",
 "updated":"2014-07-14T15:06:30",
 "updatedby":100}, "children" : []},
 {"tablename" : "ad_element", "data" : {"ad_element_id":56295,
 "columnname":"DepreciationExpenseAmt",
 "ad_client_id":0,
 "ad_org_id":0,
 "ad_reference_id":null,
 "ad_reference_value_id":null,
 "created":"2014-07-14T15:06:33",
 "createdby":100,
 "description":null,
 "entitytype":"Asset Management",
 "fieldlength":null,
 "help":null,
 "isactive":"Y",
 "name":"Depreciation Expense Amount",
 "po_description":null,
 "po_help":null,
 "po_name":null,
 "po_printname":null,
 "printname":"Depreciation Expense Amount",
 "updated":"2014-07-14T15:06:33",
 "updatedby":100}, "children" : []},
 {"tablename" : "ad_element", "data" : {"ad_element_id":56296,
 "columnname":"GAAS_Depreciation_Expense_ID",
 "ad_client_id":0,
 "ad_org_id":0,
 "ad_reference_id":null,
 "ad_reference_value_id":null,
 "created":"2014-07-14T15:06:34",
 "createdby":100,
 "description":null,
 "entitytype":"Asset Management",
 "fieldlength":null,
 "help":null,
 "isactive":"Y",
 "name":"Depreciation Expense",
 "po_description":null,
 "po_help":null,
 "po_name":null,
 "po_printname":null,
 "printname":"Depreciation Expense",
 "updated":"2014-07-14T15:06:34",
 "updatedby":100}, "children" : []},
 {"tablename" : "ad_element", "data" : {"ad_element_id":56297,
 "columnname":"OpeningBalance",
 "ad_client_id":0,
 "ad_org_id":0,
 "ad_reference_id":null,
 "ad_reference_value_id":null,
 "created":"2014-07-14T15:06:35",
 "createdby":100,
 "description":null,
 "entitytype":"Asset Management",
 "fieldlength":null,
 "help":null,
 "isactive":"Y",
 "name":"Opening Balance",
 "po_description":null,
 "po_help":null,
 "po_name":null,
 "po_printname":null,
 "printname":"Opening Balance",
 "updated":"2014-07-14T15:06:35",
 "updatedby":100}, "children" : []},
 {"tablename" : "ad_element", "data" : {"ad_element_id":56298,
 "columnname":"ParentAsset_ID",
 "ad_client_id":0,
 "ad_org_id":0,
 "ad_reference_id":null,
 "ad_reference_value_id":null,
 "created":"2014-07-14T15:06:35",
 "createdby":100,
 "description":null,
 "entitytype":"Asset Management",
 "fieldlength":null,
 "help":null,
 "isactive":"Y",
 "name":"Parent Asset",
 "po_description":null,
 "po_help":null,
 "po_name":null,
 "po_printname":null,
 "printname":"Parent Asset",
 "updated":"2014-07-14T15:06:35",
 "updatedby":100}, "children" : []},
 {"tablename" : "ad_element", "data" : {"ad_element_id":56299,
 "columnname":"PostedAmt",
 "ad_client_id":0,
 "ad_org_id":0,
 "ad_reference_id":null,
 "ad_reference_value_id":null,
 "created":"2014-07-14T15:06:37",
 "createdby":100,
 "description":null,
 "entitytype":"Asset Management",
 "fieldlength":null,
 "help":null,
 "isactive":"Y",
 "name":"Posted Amount",
 "po_description":null,
 "po_help":null,
 "po_name":null,
 "po_printname":null,
 "printname":"Posted Amount",
 "updated":"2014-07-14T15:06:37",
 "updatedby":100}, "children" : []},
 {"tablename" : "ad_element", "data" : {"ad_element_id":56300,
 "columnname":"InitialCost",
 "ad_client_id":0,
 "ad_org_id":0,
 "ad_reference_id":null,
 "ad_reference_value_id":null,
 "created":"2014-07-14T15:06:38",
 "createdby":100,
 "description":null,
 "entitytype":"Asset Management",
 "fieldlength":null,
 "help":null,
 "isactive":"Y",
 "name":"Initial Cost",
 "po_description":null,
 "po_help":null,
 "po_name":null,
 "po_printname":null,
 "printname":"Initial Cost",
 "updated":"2014-07-14T15:06:38",
 "updatedby":100}, "children" : []},
 {"tablename" : "ad_element", "data" : {"ad_element_id":56301,
 "columnname":"Old_Asset_Group_ID",
 "ad_client_id":0,
 "ad_org_id":0,
 "ad_reference_id":null,
 "ad_reference_value_id":null,
 "created":"2014-07-14T15:06:39",
 "createdby":100,
 "description":null,
 "entitytype":"Asset Management",
 "fieldlength":null,
 "help":null,
 "isactive":"Y",
 "name":"Old Asset Group",
 "po_description":null,
 "po_help":null,
 "po_name":null,
 "po_printname":null,
 "printname":"Old Asset Group",
 "updated":"2014-07-14T15:06:39",
 "updatedby":100}, "children" : []},
 {"tablename" : "ad_element", "data" : {"ad_element_id":56302,
 "columnname":"New_Asset_Group_ID",
 "ad_client_id":0,
 "ad_org_id":0,
 "ad_reference_id":null,
 "ad_reference_value_id":null,
 "created":"2014-07-14T15:06:39",
 "createdby":100,
 "description":null,
 "entitytype":"Asset Management",
 "fieldlength":null,
 "help":null,
 "isactive":"Y",
 "name":"New Asset Group",
 "po_description":null,
 "po_help":null,
 "po_name":null,
 "po_printname":null,
 "printname":"New Asset Group",
 "updated":"2014-07-14T15:06:39",
 "updatedby":100}, "children" : []},
 {"tablename" : "ad_element", "data" : {"ad_element_id":56303,
 "columnname":"Old_Asset_Acct_ID",
 "ad_client_id":0,
 "ad_org_id":0,
 "ad_reference_id":null,
 "ad_reference_value_id":null,
 "created":"2014-07-14T15:06:40",
 "createdby":100,
 "description":null,
 "entitytype":"Asset Management",
 "fieldlength":null,
 "help":null,
 "isactive":"Y",
 "name":"Old Asset Acct",
 "po_description":null,
 "po_help":null,
 "po_name":null,
 "po_printname":null,
 "printname":"Old Asset Acct",
 "updated":"2014-07-14T15:06:40",
 "updatedby":100}, "children" : []},
 {"tablename" : "ad_element", "data" : {"ad_element_id":56304,
 "columnname":"New_Asset_Acct_ID",
 "ad_client_id":0,
 "ad_org_id":0,
 "ad_reference_id":null,
 "ad_reference_value_id":null,
 "created":"2014-07-14T15:06:43",
 "createdby":100,
 "description":null,
 "entitytype":"Asset Management",
 "fieldlength":null,
 "help":null,
 "isactive":"Y",
 "name":"New Asset Acct",
 "po_description":null,
 "po_help":null,
 "po_name":null,
 "po_printname":null,
 "printname":"New Asset Acct",
 "updated":"2014-07-14T15:06:43",
 "updatedby":100}, "children" : []},
 {"tablename" : "ad_element", "data" : {"ad_element_id":56305,
 "columnname":"DisposalAmt",
 "ad_client_id":0,
 "ad_org_id":0,
 "ad_reference_id":null,
 "ad_reference_value_id":null,
 "created":"2014-07-14T15:06:43",
 "createdby":100,
 "description":null,
 "entitytype":"Asset Management",
 "fieldlength":null,
 "help":null,
 "isactive":"Y",
 "name":"Disposal Amount",
 "po_description":null,
 "po_help":null,
 "po_name":null,
 "po_printname":null,
 "printname":"Disposal Amount",
 "updated":"2014-07-14T15:06:43",
 "updatedby":100}, "children" : []},
 {"tablename" : "ad_element", "data" : {"ad_element_id":56306,
 "columnname":"GAAS_AssetJournalLine_Det_ID",
 "ad_client_id":0,
 "ad_org_id":0,
 "ad_reference_id":null,
 "ad_reference_value_id":null,
 "created":"2014-07-14T15:06:59",
 "createdby":100,
 "description":null,
 "entitytype":"Asset Management",
 "fieldlength":null,
 "help":null,
 "isactive":"Y",
 "name":"Asset Journal Line Detail",
 "po_description":null,
 "po_help":null,
 "po_name":null,
 "po_printname":null,
 "printname":"Asset Journal Line Detail",
 "updated":"2014-07-14T15:06:59",
 "updatedby":100}, "children" : []},
 {"tablename" : "ad_element", "data" : {"ad_element_id":56307,
 "columnname":"GAAS_Depreciation_Workfile_ID",
 "ad_client_id":0,
 "ad_org_id":0,
 "ad_reference_id":null,
 "ad_reference_value_id":null,
 "created":"2014-07-14T15:09:12",
 "createdby":100,
 "description":null,
 "entitytype":"Asset Management",
 "fieldlength":null,
 "help":null,
 "isactive":"Y",
 "name":"Depreciation Workfile",
 "po_description":null,
 "po_help":null,
 "po_name":null,
 "po_printname":null,
 "printname":"Depreciation Workfile",
 "updated":"2014-07-14T15:09:12",
 "updatedby":100}, "children" : []},
 {"tablename" : "ad_element", "data" : {"ad_element_id":56308,
 "columnname":"AccumulatedDepr",
 "ad_client_id":0,
 "ad_org_id":0,
 "ad_reference_id":null,
 "ad_reference_value_id":null,
 "created":"2014-07-14T15:09:13",
 "createdby":100,
 "description":null,
 "entitytype":"Asset Management",
 "fieldlength":null,
 "help":null,
 "isactive":"Y",
 "name":"Accumulated Depreciation",
 "po_description":null,
 "po_help":null,
 "po_name":null,
 "po_printname":null,
 "printname":"Accumulated Depreciation",
 "updated":"2014-07-14T15:09:13",
 "updatedby":100}, "children" : []},
 {"tablename" : "ad_element", "data" : {"ad_element_id":56309,
 "columnname":"CurrentDeprExpense",
 "ad_client_id":0,
 "ad_org_id":0,
 "ad_reference_id":null,
 "ad_reference_value_id":null,
 "created":"2014-07-14T15:09:17",
 "createdby":100,
 "description":null,
 "entitytype":"Asset Management",
 "fieldlength":null,
 "help":null,
 "isactive":"Y",
 "name":"Current Depreciation Expense",
 "po_description":null,
 "po_help":null,
 "po_name":null,
 "po_printname":null,
 "printname":"Current Depreciation Expense",
 "updated":"2014-07-14T15:09:17",
 "updatedby":100}, "children" : []},
 {"tablename" : "ad_element", "data" : {"ad_element_id":56310,
 "columnname":"Expense_SL",
 "ad_client_id":0,
 "ad_org_id":0,
 "ad_reference_id":null,
 "ad_reference_value_id":null,
 "created":"2014-07-14T15:09:18",
 "createdby":100,
 "description":null,
 "entitytype":"Asset Management",
 "fieldlength":null,
 "help":null,
 "isactive":"Y",
 "name":"SL Expense/Period",
 "po_description":null,
 "po_help":null,
 "po_name":null,
 "po_printname":null,
 "printname":"SL Expense/Period",
 "updated":"2014-07-14T15:09:18",
 "updatedby":100}, "children" : []},
 {"tablename" : "ad_element", "data" : {"ad_element_id":56311,
 "columnname":"CurrentLifeYear",
 "ad_client_id":0,
 "ad_org_id":0,
 "ad_reference_id":null,
 "ad_reference_value_id":null,
 "created":"2014-07-14T15:09:19",
 "createdby":100,
 "description":null,
 "entitytype":"Asset Management",
 "fieldlength":null,
 "help":null,
 "isactive":"Y",
 "name":"Current Life Year",
 "po_description":null,
 "po_help":null,
 "po_name":null,
 "po_printname":null,
 "printname":"Current Life Year",
 "updated":"2014-07-14T15:09:19",
 "updatedby":100}, "children" : []},
 {"tablename" : "ad_element", "data" : {"ad_element_id":56312,
 "columnname":"CurrentPeriod",
 "ad_client_id":0,
 "ad_org_id":0,
 "ad_reference_id":null,
 "ad_reference_value_id":null,
 "created":"2014-07-14T15:09:19",
 "createdby":100,
 "description":null,
 "entitytype":"Asset Management",
 "fieldlength":null,
 "help":null,
 "isactive":"Y",
 "name":"Current Period",
 "po_description":null,
 "po_help":null,
 "po_name":null,
 "po_printname":null,
 "printname":"Current Period",
 "updated":"2014-07-14T15:09:19",
 "updatedby":100}, "children" : []},
 {"tablename" : "ad_element", "data" : {"ad_element_id":56313,
 "columnname":"SalvageValue",
 "ad_client_id":0,
 "ad_org_id":0,
 "ad_reference_id":null,
 "ad_reference_value_id":null,
 "created":"2014-07-14T15:09:20",
 "createdby":100,
 "description":null,
 "entitytype":"Asset Management",
 "fieldlength":null,
 "help":null,
 "isactive":"Y",
 "name":"Salvage Value",
 "po_description":null,
 "po_help":null,
 "po_name":null,
 "po_printname":null,
 "printname":"Salvage Value",
 "updated":"2014-07-14T15:09:20",
 "updatedby":100}, "children" : []},
 {"tablename" : "ad_element", "data" : {"ad_element_id":56314,
 "columnname":"StartPeriod",
 "ad_client_id":0,
 "ad_org_id":0,
 "ad_reference_id":null,
 "ad_reference_value_id":null,
 "created":"2014-07-14T15:07:37",
 "createdby":100,
 "description":null,
 "entitytype":"Asset Management",
 "fieldlength":null,
 "help":null,
 "isactive":"Y",
 "name":"Start Period",
 "po_description":null,
 "po_help":null,
 "po_name":null,
 "po_printname":null,
 "printname":"Start Period",
 "updated":"2016-04-11T16:36:07",
 "updatedby":0}, "children" : []},
 {"tablename" : "ad_element", "data" : {"ad_element_id":56315,
 "columnname":"UseLifePeriods",
 "ad_client_id":0,
 "ad_org_id":0,
 "ad_reference_id":null,
 "ad_reference_value_id":null,
 "created":"2014-07-14T15:09:21",
 "createdby":100,
 "description":null,
 "entitytype":"Asset Management",
 "fieldlength":null,
 "help":null,
 "isactive":"Y",
 "name":"UseLife Periods",
 "po_description":null,
 "po_help":null,
 "po_name":null,
 "po_printname":null,
 "printname":"UseLife Periods",
 "updated":"2014-07-14T15:09:21",
 "updatedby":100}, "children" : []},
 {"tablename" : "ad_element", "data" : {"ad_element_id":56316,
 "columnname":"LifeYears",
 "ad_client_id":0,
 "ad_org_id":0,
 "ad_reference_id":null,
 "ad_reference_value_id":null,
 "created":"2014-07-14T15:09:21",
 "createdby":100,
 "description":null,
 "entitytype":"Asset Management",
 "fieldlength":null,
 "help":null,
 "isactive":"Y",
 "name":"Life Years",
 "po_description":null,
 "po_help":null,
 "po_name":null,
 "po_printname":null,
 "printname":"Life Years",
 "updated":"2014-07-14T15:09:21",
 "updatedby":100}, "children" : []},
 {"tablename" : "ad_element", "data" : {"ad_element_id":56317,
 "columnname":"InitialAccumulatedDepr",
 "ad_client_id":0,
 "ad_org_id":0,
 "ad_reference_id":null,
 "ad_reference_value_id":null,
 "created":"2014-07-14T15:07:37",
 "createdby":100,
 "description":null,
 "entitytype":"Asset Management",
 "fieldlength":null,
 "help":null,
 "isactive":"Y",
 "name":"Initial Accumulated Depreciation",
 "po_description":null,
 "po_help":null,
 "po_name":null,
 "po_printname":null,
 "printname":"Initial Accumulated Depreciation",
 "updated":"2016-04-11T16:36:07",
 "updatedby":0}, "children" : []},
 {"tablename" : "ad_element", "data" : {"ad_element_id":56318,
 "columnname":"IsDepreciationProcessed",
 "ad_client_id":0,
 "ad_org_id":0,
 "ad_reference_id":null,
 "ad_reference_value_id":null,
 "created":"2014-07-14T15:09:25",
 "createdby":100,
 "description":null,
 "entitytype":"Asset Management",
 "fieldlength":null,
 "help":null,
 "isactive":"Y",
 "name":"Depreciation Processed",
 "po_description":null,
 "po_help":null,
 "po_name":null,
 "po_printname":null,
 "printname":"Depreciation Processed",
 "updated":"2014-07-14T15:09:25",
 "updatedby":100}, "children" : []},
 {"tablename" : "ad_element", "data" : {"ad_element_id":56319,
 "columnname":"GAAS_Asset_Acct_ID",
 "ad_client_id":0,
 "ad_org_id":0,
 "ad_reference_id":null,
 "ad_reference_value_id":null,
 "created":"2014-07-14T15:09:36",
 "createdby":100,
 "description":null,
 "entitytype":"Asset Management",
 "fieldlength":null,
 "help":null,
 "isactive":"Y",
 "name":"Asset Acct",
 "po_description":null,
 "po_help":null,
 "po_name":null,
 "po_printname":null,
 "printname":"Asset Acct",
 "updated":"2014-07-14T15:09:36",
 "updatedby":100}, "children" : []},
 {"tablename" : "ad_element", "data" : {"ad_element_id":56320,
 "columnname":"BookAmtEnd",
 "ad_client_id":0,
 "ad_org_id":0,
 "ad_reference_id":null,
 "ad_reference_value_id":null,
 "created":"2014-07-14T15:10:00",
 "createdby":100,
 "description":null,
 "entitytype":"Asset Management",
 "fieldlength":null,
 "help":null,
 "isactive":"Y",
 "name":"Book Amount at End",
 "po_description":null,
 "po_help":null,
 "po_name":null,
 "po_printname":null,
 "printname":"Book Amount at End",
 "updated":"2014-07-14T15:10:00",
 "updatedby":100}, "children" : []},
 {"tablename" : "ad_element", "data" : {"ad_element_id":56321,
 "columnname":"Processed_Flag",
 "ad_client_id":0,
 "ad_org_id":0,
 "ad_reference_id":null,
 "ad_reference_value_id":null,
 "created":"2014-07-14T15:10:02",
 "createdby":100,
 "description":null,
 "entitytype":"Asset Management",
 "fieldlength":null,
 "help":null,
 "isactive":"Y",
 "name":"Processed_Flag",
 "po_description":null,
 "po_help":null,
 "po_name":null,
 "po_printname":null,
 "printname":"Processed_Flag",
 "updated":"2014-07-14T15:10:02",
 "updatedby":100}, "children" : []},
 {"tablename" : "ad_element", "data" : {"ad_element_id":56322,
 "columnname":"InvoiceNo",
 "ad_client_id":0,
 "ad_org_id":0,
 "ad_reference_id":null,
 "ad_reference_value_id":null,
 "created":"2014-07-14T15:07:42",
 "createdby":100,
 "description":null,
 "entitytype":"Asset Management",
 "fieldlength":null,
 "help":null,
 "isactive":"Y",
 "name":"Invoice No",
 "po_description":null,
 "po_help":null,
 "po_name":null,
 "po_printname":null,
 "printname":"Invoice No",
 "updated":"2016-04-11T16:36:09",
 "updatedby":0}, "children" : []},
 {"tablename" : "ad_element", "data" : {"ad_element_id":56323,
 "columnname":"I_GAAS_Asset_ID",
 "ad_client_id":0,
 "ad_org_id":0,
 "ad_reference_id":null,
 "ad_reference_value_id":null,
 "created":"2014-07-14T15:07:09",
 "createdby":100,
 "description":null,
 "entitytype":"Asset Management",
 "fieldlength":null,
 "help":null,
 "isactive":"Y",
 "name":"Import Asset FA",
 "po_description":null,
 "po_help":null,
 "po_name":null,
 "po_printname":null,
 "printname":"Import Asset FA",
 "updated":"2016-04-11T16:36:01",
 "updatedby":0}, "children" : []},
 {"tablename" : "ad_element", "data" : {"ad_element_id":56324,
 "columnname":"A_Asset_Group_Value",
 "ad_client_id":0,
 "ad_org_id":0,
 "ad_reference_id":null,
 "ad_reference_value_id":null,
 "created":"2014-07-14T15:07:36",
 "createdby":100,
 "description":null,
 "entitytype":"Asset Management",
 "fieldlength":null,
 "help":null,
 "isactive":"Y",
 "name":"Asset Group Key",
 "po_description":null,
 "po_help":null,
 "po_name":null,
 "po_printname":null,
 "printname":"Asset Group Key",
 "updated":"2016-04-11T16:36:07",
 "updatedby":0}, "children" : []},
 {"tablename" : "ad_element", "data" : {"ad_element_id":56325,
 "columnname":"DepreciatedPeriods",
 "ad_client_id":0,
 "ad_org_id":0,
 "ad_reference_id":null,
 "ad_reference_value_id":null,
 "created":"2014-07-14T15:07:38",
 "createdby":100,
 "description":null,
 "entitytype":"Asset Management",
 "fieldlength":null,
 "help":null,
 "isactive":"Y",
 "name":"Depreciated Periods",
 "po_description":null,
 "po_help":null,
 "po_name":null,
 "po_printname":null,
 "printname":"Depreciated Periods",
 "updated":"2016-04-11T16:36:08",
 "updatedby":0}, "children" : []},
 {"tablename" : "ad_element", "data" : {"ad_element_id":56326,
 "columnname":"DepreciationPeriods",
 "ad_client_id":0,
 "ad_org_id":0,
 "ad_reference_id":null,
 "ad_reference_value_id":null,
 "created":"2014-07-14T15:07:38",
 "createdby":100,
 "description":null,
 "entitytype":"Asset Management",
 "fieldlength":null,
 "help":null,
 "isactive":"Y",
 "name":"Depreciation Periods",
 "po_description":null,
 "po_help":null,
 "po_name":null,
 "po_printname":null,
 "printname":"Depreciation Periods",
 "updated":"2016-04-11T16:36:08",
 "updatedby":0}, "children" : []},
 {"tablename" : "ad_element", "data" : {"ad_element_id":56327,
 "columnname":"LastDepreciationDate",
 "ad_client_id":0,
 "ad_org_id":0,
 "ad_reference_id":null,
 "ad_reference_value_id":null,
 "created":"2014-07-14T15:07:39",
 "createdby":100,
 "description":null,
 "entitytype":"Asset Management",
 "fieldlength":null,
 "help":null,
 "isactive":"Y",
 "name":"Last Depreciation Date",
 "po_description":null,
 "po_help":null,
 "po_name":null,
 "po_printname":null,
 "printname":"Last Depreciation Date",
 "updated":"2016-04-11T16:36:08",
 "updatedby":0}, "children" : []},
 {"tablename" : "ad_element", "data" : {"ad_element_id":56328,
 "columnname":"GAAS_Department_ID",
 "ad_client_id":0,
 "ad_org_id":0,
 "ad_reference_id":null,
 "ad_reference_value_id":null,
 "created":"2014-07-14T15:07:41",
 "createdby":100,
 "description":null,
 "entitytype":"Asset Management",
 "fieldlength":null,
 "help":null,
 "isactive":"Y",
 "name":"Department",
 "po_description":null,
 "po_help":null,
 "po_name":null,
 "po_printname":null,
 "printname":"Department",
 "updated":"2016-04-11T16:36:08",
 "updatedby":0}, "children" : []},
 {"tablename" : "ad_element", "data" : {"ad_element_id":56329,
 "columnname":"GAAS_Department_Key",
 "ad_client_id":0,
 "ad_org_id":0,
 "ad_reference_id":null,
 "ad_reference_value_id":null,
 "created":"2014-07-14T15:07:41",
 "createdby":100,
 "description":null,
 "entitytype":"Asset Management",
 "fieldlength":null,
 "help":null,
 "isactive":"Y",
 "name":"Department Value",
 "po_description":null,
 "po_help":null,
 "po_name":null,
 "po_printname":null,
 "printname":"Department Value",
 "updated":"2016-04-11T16:36:08",
 "updatedby":0}, "children" : []},
 {"tablename" : "ad_element", "data" : {"ad_element_id":56330,
 "columnname":"Fin_Comment",
 "ad_client_id":0,
 "ad_org_id":0,
 "ad_reference_id":null,
 "ad_reference_value_id":null,
 "created":"2014-07-14T15:07:42",
 "createdby":100,
 "description":null,
 "entitytype":"Asset Management",
 "fieldlength":null,
 "help":null,
 "isactive":"Y",
 "name":"Info Finance Comment",
 "po_description":null,
 "po_help":null,
 "po_name":null,
 "po_printname":null,
 "printname":"Info Finance Comment",
 "updated":"2016-04-11T16:36:09",
 "updatedby":0}, "children" : []},
 {"tablename" : "ad_element", "data" : {"ad_element_id":56336,
 "columnname":"GAAS_Depreciation_Type",
 "ad_client_id":0,
 "ad_org_id":0,
 "ad_reference_id":null,
 "ad_reference_value_id":null,
 "created":"2014-07-14T15:07:44",
 "createdby":100,
 "description":null,
 "entitytype":"Asset Management",
 "fieldlength":null,
 "help":null,
 "isactive":"Y",
 "name":"Depreciation Method",
 "po_description":null,
 "po_help":null,
 "po_name":null,
 "po_printname":null,
 "printname":"Depreciation Method",
 "updated":"2016-04-11T16:36:09",
 "updatedby":0}, "children" : []},
 {"tablename" : "ad_element", "data" : {"ad_element_id":56375,
 "columnname":"AmtAsset",
 "ad_client_id":0,
 "ad_org_id":0,
 "ad_reference_id":null,
 "ad_reference_value_id":null,
 "created":"2014-07-14T15:11:25",
 "createdby":100,
 "description":null,
 "entitytype":"Asset Management",
 "fieldlength":null,
 "help":null,
 "isactive":"Y",
 "name":"Asset Amount",
 "po_description":null,
 "po_help":null,
 "po_name":null,
 "po_printname":null,
 "printname":"Asset Amount",
 "updated":"2016-04-11T16:36:20",
 "updatedby":0}, "children" : []},
 {"tablename" : "ad_element", "data" : {"ad_element_id":56376,
 "columnname":"AmtDepreciation",
 "ad_client_id":0,
 "ad_org_id":0,
 "ad_reference_id":null,
 "ad_reference_value_id":null,
 "created":"2014-07-14T15:11:26",
 "createdby":100,
 "description":null,
 "entitytype":"Asset Management",
 "fieldlength":null,
 "help":null,
 "isactive":"Y",
 "name":"Depreciation Amount",
 "po_description":null,
 "po_help":null,
 "po_name":null,
 "po_printname":null,
 "printname":"Depreciation Amount",
 "updated":"2016-04-11T16:36:21",
 "updatedby":0}, "children" : []},
 {"tablename" : "ad_element", "data" : {"ad_element_id":57256,
 "columnname":"lastmaintenencedate",
 "ad_client_id":0,
 "ad_org_id":0,
 "ad_reference_id":null,
 "ad_reference_value_id":null,
 "created":"2014-07-14T15:08:39",
 "createdby":100,
 "description":null,
 "entitytype":"Asset Management",
 "fieldlength":null,
 "help":null,
 "isactive":"Y",
 "name":"lastmaintenencedate",
 "po_description":null,
 "po_help":null,
 "po_name":null,
 "po_printname":null,
 "printname":"lastmaintenencedate",
 "updated":"2014-07-14T15:08:39",
 "updatedby":100}, "children" : []},
 {"tablename" : "ad_element", "data" : {"ad_element_id":57257,
 "columnname":"lastmaintenanceuseunit",
 "ad_client_id":0,
 "ad_org_id":0,
 "ad_reference_id":null,
 "ad_reference_value_id":null,
 "created":"2014-07-14T15:08:39",
 "createdby":100,
 "description":null,
 "entitytype":"Asset Management",
 "fieldlength":null,
 "help":null,
 "isactive":"Y",
 "name":"lastmaintenanceuseunit",
 "po_description":null,
 "po_help":null,
 "po_name":null,
 "po_printname":null,
 "printname":"lastmaintenanceuseunit",
 "updated":"2014-07-14T15:08:39",
 "updatedby":100}, "children" : []},
 {"tablename" : "ad_element", "data" : {"ad_element_id":57258,
 "columnname":"nextmaintenanceuseunit",
 "ad_client_id":0,
 "ad_org_id":0,
 "ad_reference_id":null,
 "ad_reference_value_id":null,
 "created":"2014-07-14T15:08:40",
 "createdby":100,
 "description":null,
 "entitytype":"Asset Management",
 "fieldlength":null,
 "help":null,
 "isactive":"Y",
 "name":"nextmaintenanceuseunit",
 "po_description":null,
 "po_help":null,
 "po_name":null,
 "po_printname":null,
 "printname":"nextmaintenanceuseunit",
 "updated":"2014-07-14T15:08:40",
 "updatedby":100}, "children" : []},
 {"tablename" : "ad_element", "data" : {"ad_element_id":57263,
 "columnname":"AssetNameAndStartDate",
 "ad_client_id":0,
 "ad_org_id":0,
 "ad_reference_id":null,
 "ad_reference_value_id":null,
 "created":"2014-07-14T15:11:29",
 "createdby":100,
 "description":null,
 "entitytype":"Asset Management",
 "fieldlength":null,
 "help":null,
 "isactive":"Y",
 "name":"AssetNameAndStartDate",
 "po_description":null,
 "po_help":null,
 "po_name":null,
 "po_printname":null,
 "printname":"AssetNameAndStartDate",
 "updated":"2014-07-14T15:11:29",
 "updatedby":100}, "children" : []},
 {"tablename" : "ad_element", "data" : {"ad_element_id":57264,
 "columnname":"DepreciationStartDate",
 "ad_client_id":0,
 "ad_org_id":0,
 "ad_reference_id":null,
 "ad_reference_value_id":null,
 "created":"2014-07-14T15:11:30",
 "createdby":100,
 "description":null,
 "entitytype":"Asset Management",
 "fieldlength":null,
 "help":null,
 "isactive":"Y",
 "name":"Depreciation Start Date",
 "po_description":null,
 "po_help":null,
 "po_name":null,
 "po_printname":null,
 "printname":"Depreciation Start Date",
 "updated":"2014-07-14T15:11:30",
 "updatedby":100}, "children" : []},
 {"tablename" : "ad_element", "data" : {"ad_element_id":1000051,
 "columnname":"Acct_Warehouse_ID",
 "ad_client_id":0,
 "ad_org_id":0,
 "ad_reference_id":18,
 "ad_reference_value_id":197,
 "created":"2023-07-18T16:39:08",
 "createdby":100,
 "description":null,
 "entitytype":"Asset Management",
 "fieldlength":0,
 "help":null,
 "isactive":"Y",
 "name":"Acctg Depot",
 "po_description":null,
 "po_help":null,
 "po_name":null,
 "po_printname":null,
 "printname":"Acctg Depot",
 "updated":"2023-07-18T16:41:18",
 "updatedby":100}, "children" : []},
 {"tablename" : "ad_element", "data" : {"ad_element_id":1000052,
 "columnname":"Schd_Warehouse_ID",
 "ad_client_id":0,
 "ad_org_id":0,
 "ad_reference_id":18,
 "ad_reference_value_id":197,
 "created":"2023-07-18T16:41:03",
 "createdby":100,
 "description":null,
 "entitytype":"Asset Management",
 "fieldlength":0,
 "help":null,
 "isactive":"Y",
 "name":"Sched Depot",
 "po_description":null,
 "po_help":null,
 "po_name":null,
 "po_printname":null,
 "printname":"Sched Depot",
 "updated":"2023-07-18T16:41:03",
 "updatedby":100}, "children" : []},
 {"tablename" : "ad_element", "data" : {"ad_element_id":1000053,
 "columnname":"PurchaseDate",
 "ad_client_id":0,
 "ad_org_id":0,
 "ad_reference_id":15,
 "ad_reference_value_id":null,
 "created":"2023-07-18T16:42:54",
 "createdby":100,
 "description":null,
 "entitytype":"Asset Management",
 "fieldlength":0,
 "help":null,
 "isactive":"Y",
 "name":"Purchase Date",
 "po_description":null,
 "po_help":null,
 "po_name":null,
 "po_printname":null,
 "printname":"Purchase Date",
 "updated":"2023-07-18T16:42:54",
 "updatedby":100}, "children" : []},
 {"tablename" : "ad_element", "data" : {"ad_element_id":1000054,
 "columnname":"DisposalDate",
 "ad_client_id":0,
 "ad_org_id":0,
 "ad_reference_id":15,
 "ad_reference_value_id":null,
 "created":"2023-07-18T16:44:00",
 "createdby":100,
 "description":null,
 "entitytype":"Asset Management",
 "fieldlength":0,
 "help":null,
 "isactive":"Y",
 "name":"Disposal Date",
 "po_description":null,
 "po_help":null,
 "po_name":null,
 "po_printname":null,
 "printname":"Disposal Date",
 "updated":"2023-07-18T16:44:00",
 "updatedby":100}, "children" : []}]