[{"tablename" : "ad_element", "data" : {"ad_element_id":1136,
 "columnname":"TrxAmt",
 "ad_client_id":0,
 "ad_org_id":0,
 "ad_reference_id":12,
 "ad_reference_value_id":null,
 "created":"2000-01-24T18:04:26",
 "createdby":0,
 "description":"Amount of a transaction",
 "entitytype":"Open Items",
 "fieldlength":22,
 "help":"The Transaction Amount indicates the amount for a single transaction.",
 "isactive":"Y",
 "name":"Transaction Amount",
 "po_description":null,
 "po_help":null,
 "po_name":null,
 "po_printname":null,
 "printname":"Transaction Amt",
 "updated":"2000-01-02T00:00:00",
 "updatedby":0}, "children" : []},
 {"tablename" : "ad_element", "data" : {"ad_element_id":1378,
 "columnname":"BeginningBalance",
 "ad_client_id":0,
 "ad_org_id":0,
 "ad_reference_id":12,
 "ad_reference_value_id":null,
 "created":"2000-12-17T16:23:12",
 "createdby":0,
 "description":"Balance prior to any transactions",
 "entitytype":"Open Items",
 "fieldlength":22,
 "help":"The Beginning Balance is the balance prior to making any adjustments for payments or disbursements.",
 "isactive":"Y",
 "name":"Beginning Balance",
 "po_description":null,
 "po_help":null,
 "po_name":null,
 "po_printname":null,
 "printname":"Beginning Balance",
 "updated":"2016-04-11T16:31:41",
 "updatedby":0}, "children" : []},
 {"tablename" : "ad_element", "data" : {"ad_element_id":1381,
 "columnname":"C_BankStatement_ID",
 "ad_client_id":0,
 "ad_org_id":0,
 "ad_reference_id":13,
 "ad_reference_value_id":null,
 "created":"2000-12-17T16:23:12",
 "createdby":0,
 "description":"Bank Statement of account",
 "entitytype":"Open Items",
 "fieldlength":22,
 "help":"The Bank Statement identifies a unique Bank Statement for a defined time period.  The statement defines all transactions that occurred",
 "isactive":"Y",
 "name":"Bank Statement",
 "po_description":null,
 "po_help":null,
 "po_name":null,
 "po_printname":null,
 "printname":"Bank Statement",
 "updated":"2000-01-02T00:00:00",
 "updatedby":0}, "children" : []},
 {"tablename" : "ad_element", "data" : {"ad_element_id":1382,
 "columnname":"C_BankStatementLine_ID",
 "ad_client_id":0,
 "ad_org_id":0,
 "ad_reference_id":13,
 "ad_reference_value_id":null,
 "created":"2000-12-17T16:23:12",
 "createdby":0,
 "description":"Line on a statement from this Bank",
 "entitytype":"Open Items",
 "fieldlength":22,
 "help":"The Bank Statement Line identifies a unique transaction (Payment, Withdrawal, Charge) for the defined time period at this Bank.",
 "isactive":"Y",
 "name":"Bank statement line",
 "po_description":null,
 "po_help":null,
 "po_name":null,
 "po_printname":null,
 "printname":"Bank statement line",
 "updated":"2000-01-02T00:00:00",
 "updatedby":0}, "children" : []},
 {"tablename" : "ad_element", "data" : {"ad_element_id":1396,
 "columnname":"EndingBalance",
 "ad_client_id":0,
 "ad_org_id":0,
 "ad_reference_id":12,
 "ad_reference_value_id":null,
 "created":"2000-12-17T16:23:13",
 "createdby":0,
 "description":"Ending  or closing balance",
 "entitytype":"Open Items",
 "fieldlength":22,
 "help":"The Ending Balance is the result of adjusting the Beginning Balance by any payments or disbursements.",
 "isactive":"Y",
 "name":"Ending balance",
 "po_description":null,
 "po_help":null,
 "po_name":null,
 "po_printname":null,
 "printname":"Ending balance",
 "updated":"2016-04-11T16:31:44",
 "updatedby":0}, "children" : []},
 {"tablename" : "ad_element", "data" : {"ad_element_id":1434,
 "columnname":"StatementDate",
 "ad_client_id":0,
 "ad_org_id":0,
 "ad_reference_id":15,
 "ad_reference_value_id":null,
 "created":"2000-12-17T16:23:13",
 "createdby":0,
 "description":"Date of the statement",
 "entitytype":"Open Items",
 "fieldlength":7,
 "help":"The Statement Date field defines the date of the statement.",
 "isactive":"Y",
 "name":"Statement date",
 "po_description":null,
 "po_help":null,
 "po_name":null,
 "po_printname":null,
 "printname":"Statement date",
 "updated":"2016-04-11T16:31:47",
 "updatedby":0}, "children" : []},
 {"tablename" : "ad_element", "data" : {"ad_element_id":1435,
 "columnname":"StatementDifference",
 "ad_client_id":0,
 "ad_org_id":0,
 "ad_reference_id":12,
 "ad_reference_value_id":null,
 "created":"2000-12-17T16:23:13",
 "createdby":0,
 "description":"Difference between statement ending balance and actual ending balance",
 "entitytype":"Open Items",
 "fieldlength":22,
 "help":"The Statement Difference reflects the difference between the Statement Ending Balance and the Actual Ending Balance.",
 "isactive":"Y",
 "name":"Statement difference",
 "po_description":null,
 "po_help":null,
 "po_name":null,
 "po_printname":null,
 "printname":"Statement difference",
 "updated":"2016-04-11T16:31:47",
 "updatedby":0}, "children" : []},
 {"tablename" : "ad_element", "data" : {"ad_element_id":1457,
 "columnname":"InterestAmt",
 "ad_client_id":0,
 "ad_org_id":0,
 "ad_reference_id":12,
 "ad_reference_value_id":null,
 "created":"2000-12-18T21:43:54",
 "createdby":0,
 "description":"Interest Amount",
 "entitytype":"Open Items",
 "fieldlength":22,
 "help":"The Interest Amount indicates any interest charged or received on a Bank Statement.",
 "isactive":"Y",
 "name":"Interest Amount",
 "po_description":null,
 "po_help":null,
 "po_name":null,
 "po_printname":null,
 "printname":"Interest",
 "updated":"2000-01-02T00:00:00",
 "updatedby":0}, "children" : []},
 {"tablename" : "ad_element", "data" : {"ad_element_id":1462,
 "columnname":"C_Cash_ID",
 "ad_client_id":0,
 "ad_org_id":0,
 "ad_reference_id":13,
 "ad_reference_value_id":null,
 "created":"2000-12-22T22:27:31",
 "createdby":0,
 "description":"Cash Journal",
 "entitytype":"Open Items",
 "fieldlength":22,
 "help":"The Cash Journal uniquely identifies a Cash Journal.  The Cash Journal will record transactions for the cash bank account",
 "isactive":"Y",
 "name":"Cash Journal",
 "po_description":null,
 "po_help":null,
 "po_name":null,
 "po_printname":null,
 "printname":"Cash Journal",
 "updated":"2000-01-02T00:00:00",
 "updatedby":0}, "children" : []},
 {"tablename" : "ad_element", "data" : {"ad_element_id":1466,
 "columnname":"CashType",
 "ad_client_id":0,
 "ad_org_id":0,
 "ad_reference_id":17,
 "ad_reference_value_id":217,
 "created":"2000-12-22T22:27:31",
 "createdby":0,
 "description":"Source of Cash",
 "entitytype":"Open Items",
 "fieldlength":1,
 "help":"The Cash Type indicates the source for this Cash Journal Line.",
 "isactive":"Y",
 "name":"Cash Type",
 "po_description":null,
 "po_help":null,
 "po_name":null,
 "po_printname":null,
 "printname":"Cash Type",
 "updated":"2000-01-02T00:00:00",
 "updatedby":0}, "children" : []},
 {"tablename" : "ad_element", "data" : {"ad_element_id":1476,
 "columnname":"IsReversal",
 "ad_client_id":0,
 "ad_org_id":0,
 "ad_reference_id":20,
 "ad_reference_value_id":null,
 "created":"2000-12-22T22:27:31",
 "createdby":0,
 "description":"This is a reversing transaction",
 "entitytype":"Open Items",
 "fieldlength":1,
 "help":"The Reversal check box indicates if this is a reversal of a prior transaction.",
 "isactive":"Y",
 "name":"Reversal",
 "po_description":null,
 "po_help":null,
 "po_name":null,
 "po_printname":null,
 "printname":"Reversal",
 "updated":"2000-01-02T00:00:00",
 "updatedby":0}, "children" : []},
 {"tablename" : "ad_element", "data" : {"ad_element_id":1479,
 "columnname":"ProcessingDate",
 "ad_client_id":0,
 "ad_org_id":0,
 "ad_reference_id":15,
 "ad_reference_value_id":null,
 "created":"2000-12-22T22:27:31",
 "createdby":0,
 "description":null,
 "entitytype":"Open Items",
 "fieldlength":7,
 "help":null,
 "isactive":"Y",
 "name":"Processing date",
 "po_description":null,
 "po_help":null,
 "po_name":null,
 "po_printname":null,
 "printname":"Processing date",
 "updated":"2000-01-02T00:00:00",
 "updatedby":0}, "children" : []},
 {"tablename" : "ad_element", "data" : {"ad_element_id":1482,
 "columnname":"StmtAmt",
 "ad_client_id":0,
 "ad_org_id":0,
 "ad_reference_id":12,
 "ad_reference_value_id":null,
 "created":"2000-12-22T22:27:31",
 "createdby":0,
 "description":"Statement Amount",
 "entitytype":"Open Items",
 "fieldlength":22,
 "help":"The Statement Amount indicates the amount of a single statement line.",
 "isactive":"Y",
 "name":"Statement amount",
 "po_description":null,
 "po_help":null,
 "po_name":null,
 "po_printname":null,
 "printname":"Statement Amt",
 "updated":"2000-01-02T00:00:00",
 "updatedby":0}, "children" : []},
 {"tablename" : "ad_element", "data" : {"ad_element_id":1487,
 "columnname":"ValutaDate",
 "ad_client_id":0,
 "ad_org_id":0,
 "ad_reference_id":15,
 "ad_reference_value_id":null,
 "created":"2000-12-22T22:27:31",
 "createdby":0,
 "description":"Date when money is available",
 "entitytype":"Open Items",
 "fieldlength":7,
 "help":"The Effective Date indicates the date that money is available from the bank.",
 "isactive":"Y",
 "name":"Effective date",
 "po_description":null,
 "po_help":null,
 "po_name":null,
 "po_printname":null,
 "printname":"Effective date",
 "updated":"2000-01-02T00:00:00",
 "updatedby":0}, "children" : []},
 {"tablename" : "ad_element", "data" : {"ad_element_id":1532,
 "columnname":"C_PaySelection_ID",
 "ad_client_id":0,
 "ad_org_id":0,
 "ad_reference_id":13,
 "ad_reference_value_id":null,
 "created":"2001-02-15T16:59:42",
 "createdby":0,
 "description":"Payment Selection",
 "entitytype":"Open Items",
 "fieldlength":22,
 "help":"The Payment Selection identifies a unique Payment",
 "isactive":"Y",
 "name":"Payment Selection",
 "po_description":null,
 "po_help":null,
 "po_name":null,
 "po_printname":null,
 "printname":"Payment Selection",
 "updated":"2008-03-23T20:56:54",
 "updatedby":100}, "children" : []},
 {"tablename" : "ad_element", "data" : {"ad_element_id":1533,
 "columnname":"C_PaySelectionLine_ID",
 "ad_client_id":0,
 "ad_org_id":0,
 "ad_reference_id":13,
 "ad_reference_value_id":null,
 "created":"2001-02-15T16:59:42",
 "createdby":0,
 "description":"Payment Selection Line",
 "entitytype":"Open Items",
 "fieldlength":22,
 "help":"The Payment Selection Line identifies a unique line in a payment",
 "isactive":"Y",
 "name":"Payment Selection Line",
 "po_description":null,
 "po_help":null,
 "po_name":null,
 "po_printname":null,
 "printname":"Payment Selection Line",
 "updated":"2000-01-02T00:00:00",
 "updatedby":0}, "children" : []},
 {"tablename" : "ad_element", "data" : {"ad_element_id":1538,
 "columnname":"PayDate",
 "ad_client_id":0,
 "ad_org_id":0,
 "ad_reference_id":15,
 "ad_reference_value_id":null,
 "created":"2001-02-15T16:59:42",
 "createdby":0,
 "description":"Date Payment made",
 "entitytype":"Open Items",
 "fieldlength":7,
 "help":"The Payment Date indicates the date the payment was made.",
 "isactive":"Y",
 "name":"Payment date",
 "po_description":null,
 "po_help":null,
 "po_name":null,
 "po_printname":null,
 "printname":"Payment date",
 "updated":"2000-01-02T00:00:00",
 "updatedby":0}, "children" : []},
 {"tablename" : "ad_element", "data" : {"ad_element_id":1635,
 "columnname":"DifferenceAmt",
 "ad_client_id":0,
 "ad_org_id":0,
 "ad_reference_id":12,
 "ad_reference_value_id":null,
 "created":"2001-07-31T16:47:45",
 "createdby":0,
 "description":"Difference Amount",
 "entitytype":"Open Items",
 "fieldlength":22,
 "help":null,
 "isactive":"Y",
 "name":"Difference",
 "po_description":null,
 "po_help":null,
 "po_name":null,
 "po_printname":null,
 "printname":"Difference",
 "updated":"2000-01-02T00:00:00",
 "updatedby":0}, "children" : []},
 {"tablename" : "ad_element", "data" : {"ad_element_id":1673,
 "columnname":"OnlyDiscount",
 "ad_client_id":0,
 "ad_org_id":0,
 "ad_reference_id":null,
 "ad_reference_value_id":null,
 "created":"2001-11-18T16:27:47",
 "createdby":0,
 "description":"Include only invoices where we would get payment discount",
 "entitytype":"Open Items",
 "fieldlength":null,
 "help":null,
 "isactive":"Y",
 "name":"Only Discount",
 "po_description":null,
 "po_help":null,
 "po_name":null,
 "po_printname":null,
 "printname":"Only Discount",
 "updated":"2000-01-02T00:00:00",
 "updatedby":0}, "children" : []},
 {"tablename" : "ad_element", "data" : {"ad_element_id":1674,
 "columnname":"OnlyDue",
 "ad_client_id":0,
 "ad_org_id":0,
 "ad_reference_id":null,
 "ad_reference_value_id":null,
 "created":"2001-11-18T16:27:47",
 "createdby":0,
 "description":"Include only due invoices",
 "entitytype":"Open Items",
 "fieldlength":null,
 "help":null,
 "isactive":"Y",
 "name":"Only Due",
 "po_description":null,
 "po_help":null,
 "po_name":null,
 "po_printname":null,
 "printname":"Only Due",
 "updated":"2000-01-02T00:00:00",
 "updatedby":0}, "children" : []},
 {"tablename" : "ad_element", "data" : {"ad_element_id":1879,
 "columnname":"C_DunningRun_ID",
 "ad_client_id":0,
 "ad_org_id":0,
 "ad_reference_id":13,
 "ad_reference_value_id":null,
 "created":"2002-08-29T20:46:51",
 "createdby":0,
 "description":"Dunning Run",
 "entitytype":"Open Items",
 "fieldlength":22,
 "help":null,
 "isactive":"Y",
 "name":"Dunning Run",
 "po_description":null,
 "po_help":null,
 "po_name":null,
 "po_printname":null,
 "printname":"Dunning Run",
 "updated":"2000-01-02T00:00:00",
 "updatedby":0}, "children" : []},
 {"tablename" : "ad_element", "data" : {"ad_element_id":1880,
 "columnname":"C_DunningRunEntry_ID",
 "ad_client_id":0,
 "ad_org_id":0,
 "ad_reference_id":13,
 "ad_reference_value_id":null,
 "created":"2002-08-29T20:46:52",
 "createdby":0,
 "description":"Dunning Run Entry",
 "entitytype":"Open Items",
 "fieldlength":22,
 "help":null,
 "isactive":"Y",
 "name":"Dunning Run Entry",
 "po_description":null,
 "po_help":null,
 "po_name":null,
 "po_printname":null,
 "printname":"Dunning Run Entry",
 "updated":"2000-01-02T00:00:00",
 "updatedby":0}, "children" : []},
 {"tablename" : "ad_element", "data" : {"ad_element_id":1881,
 "columnname":"C_DunningRunLine_ID",
 "ad_client_id":0,
 "ad_org_id":0,
 "ad_reference_id":13,
 "ad_reference_value_id":null,
 "created":"2002-08-29T20:46:52",
 "createdby":0,
 "description":"Dunning Run Line",
 "entitytype":"Open Items",
 "fieldlength":22,
 "help":null,
 "isactive":"Y",
 "name":"Dunning Run Line",
 "po_description":null,
 "po_help":null,
 "po_name":null,
 "po_printname":null,
 "printname":"Dunning Run Line",
 "updated":"2000-01-02T00:00:00",
 "updatedby":0}, "children" : []},
 {"tablename" : "ad_element", "data" : {"ad_element_id":1882,
 "columnname":"C_PaySelectionCheck_ID",
 "ad_client_id":0,
 "ad_org_id":0,
 "ad_reference_id":13,
 "ad_reference_value_id":null,
 "created":"2002-08-29T20:46:52",
 "createdby":0,
 "description":"Prepared Payment",
 "entitytype":"Open Items",
 "fieldlength":22,
 "help":null,
 "isactive":"Y",
 "name":"Prepared Payment",
 "po_description":null,
 "po_help":null,
 "po_name":null,
 "po_printname":null,
 "printname":"Prepared Payment",
 "updated":"2024-06-01T12:22:53",
 "updatedby":100}, "children" : []},
 {"tablename" : "ad_element", "data" : {"ad_element_id":1883,
 "columnname":"DunningDate",
 "ad_client_id":0,
 "ad_org_id":0,
 "ad_reference_id":15,
 "ad_reference_value_id":null,
 "created":"2002-08-29T20:46:52",
 "createdby":0,
 "description":"Date of Statement",
 "entitytype":"Open Items",
 "fieldlength":7,
 "help":null,
 "isactive":"Y",
 "name":"Statement Date",
 "po_description":null,
 "po_help":null,
 "po_name":null,
 "po_printname":null,
 "printname":"Statement Date",
 "updated":"2016-04-11T16:07:04",
 "updatedby":0}, "children" : []},
 {"tablename" : "ad_element", "data" : {"ad_element_id":2107,
 "columnname":"IsDelayedCapture",
 "ad_client_id":0,
 "ad_org_id":0,
 "ad_reference_id":20,
 "ad_reference_value_id":null,
 "created":"2003-06-07T19:49:51",
 "createdby":0,
 "description":"Charge after Shipment",
 "entitytype":"Open Items",
 "fieldlength":1,
 "help":"Delayed Capture is required, if you ship products.  The first credit card transaction is the Authorization, the second is the actual transaction after the shipment of the product.",
 "isactive":"Y",
 "name":"Delayed Capture",
 "po_description":null,
 "po_help":null,
 "po_name":null,
 "po_printname":null,
 "printname":"Delayed Capture",
 "updated":"2000-01-02T00:00:00",
 "updatedby":0}, "children" : []},
 {"tablename" : "ad_element", "data" : {"ad_element_id":2112,
 "columnname":"Memo",
 "ad_client_id":0,
 "ad_org_id":0,
 "ad_reference_id":10,
 "ad_reference_value_id":null,
 "created":"2003-06-07T19:49:51",
 "createdby":0,
 "description":"Memo Text",
 "entitytype":"Open Items",
 "fieldlength":255,
 "help":null,
 "isactive":"Y",
 "name":"Memo",
 "po_description":null,
 "po_help":null,
 "po_name":null,
 "po_printname":null,
 "printname":"Memo",
 "updated":"2000-01-02T00:00:00",
 "updatedby":0}, "children" : []},
 {"tablename" : "ad_element", "data" : {"ad_element_id":2119,
 "columnname":"R_AuthCode_DC",
 "ad_client_id":0,
 "ad_org_id":0,
 "ad_reference_id":10,
 "ad_reference_value_id":null,
 "created":"2003-06-07T19:49:51",
 "createdby":0,
 "description":"Authorisation Code Delayed Capture returned",
 "entitytype":"Open Items",
 "fieldlength":20,
 "help":"The Authorisation Code indicates the code returned from the electronic transmission.",
 "isactive":"Y",
 "name":"Authorisation Code (DC)",
 "po_description":null,
 "po_help":null,
 "po_name":null,
 "po_printname":null,
 "printname":"Authorisation Code (DC)",
 "updated":"2016-04-11T16:07:00",
 "updatedby":0}, "children" : []},
 {"tablename" : "ad_element", "data" : {"ad_element_id":2120,
 "columnname":"R_CVV2Match",
 "ad_client_id":0,
 "ad_org_id":0,
 "ad_reference_id":20,
 "ad_reference_value_id":null,
 "created":"2003-06-07T19:49:51",
 "createdby":0,
 "description":"Credit Card Verification Code Match",
 "entitytype":"Open Items",
 "fieldlength":1,
 "help":"The Credit Card Verification Code was matched",
 "isactive":"Y",
 "name":"CVV Match",
 "po_description":null,
 "po_help":null,
 "po_name":null,
 "po_printname":null,
 "printname":"CVV Match",
 "updated":"2000-01-02T00:00:00",
 "updatedby":0}, "children" : []},
 {"tablename" : "ad_element", "data" : {"ad_element_id":2121,
 "columnname":"R_PnRef_DC",
 "ad_client_id":0,
 "ad_org_id":0,
 "ad_reference_id":10,
 "ad_reference_value_id":null,
 "created":"2003-06-07T19:49:51",
 "createdby":0,
 "description":"Payment Reference Delayed Capture",
 "entitytype":"Open Items",
 "fieldlength":20,
 "help":"The Payment Reference indicates the reference returned from the Credit Card Company for a payment",
 "isactive":"Y",
 "name":"Reference (DC)",
 "po_description":null,
 "po_help":null,
 "po_name":null,
 "po_printname":null,
 "printname":"Reference (DC)",
 "updated":"2000-01-02T00:00:00",
 "updatedby":0}, "children" : []},
 {"tablename" : "ad_element", "data" : {"ad_element_id":2125,
 "columnname":"Swipe",
 "ad_client_id":0,
 "ad_org_id":0,
 "ad_reference_id":10,
 "ad_reference_value_id":null,
 "created":"2003-06-07T19:49:51",
 "createdby":0,
 "description":"Track 1 and 2 of the Credit Card",
 "entitytype":"Open Items",
 "fieldlength":80,
 "help":"Swiped information for Credit Card Presence Transactions",
 "isactive":"Y",
 "name":"Swipe",
 "po_description":null,
 "po_help":null,
 "po_name":null,
 "po_printname":null,
 "printname":"Swipe",
 "updated":"2000-01-02T00:00:00",
 "updatedby":0}, "children" : []},
 {"tablename" : "ad_element", "data" : {"ad_element_id":2229,
 "columnname":"CreatePayment",
 "ad_client_id":0,
 "ad_org_id":0,
 "ad_reference_id":28,
 "ad_reference_value_id":null,
 "created":"2003-11-20T15:22:16",
 "createdby":0,
 "description":null,
 "entitytype":"Open Items",
 "fieldlength":1,
 "help":null,
 "isactive":"Y",
 "name":"Create Payment",
 "po_description":null,
 "po_help":null,
 "po_name":null,
 "po_printname":null,
 "printname":"Create Payment",
 "updated":"2000-01-02T00:00:00",
 "updatedby":0}, "children" : []},
 {"tablename" : "ad_element", "data" : {"ad_element_id":2231,
 "columnname":"EftMemo",
 "ad_client_id":0,
 "ad_org_id":0,
 "ad_reference_id":10,
 "ad_reference_value_id":null,
 "created":"2003-11-20T15:22:16",
 "createdby":0,
 "description":"Electronic Funds Transfer Memo",
 "entitytype":"Open Items",
 "fieldlength":2000,
 "help":"Information from EFT media",
 "isactive":"Y",
 "name":"EFT Memo",
 "po_description":null,
 "po_help":null,
 "po_name":null,
 "po_printname":null,
 "printname":"EFT Memo",
 "updated":"2000-01-02T00:00:00",
 "updatedby":0}, "children" : []},
 {"tablename" : "ad_element", "data" : {"ad_element_id":2232,
 "columnname":"EftPayee",
 "ad_client_id":0,
 "ad_org_id":0,
 "ad_reference_id":10,
 "ad_reference_value_id":null,
 "created":"2003-11-20T15:22:16",
 "createdby":0,
 "description":"Electronic Funds Transfer Payee information",
 "entitytype":"Open Items",
 "fieldlength":255,
 "help":"Information from EFT media",
 "isactive":"Y",
 "name":"EFT Payee",
 "po_description":null,
 "po_help":null,
 "po_name":null,
 "po_printname":null,
 "printname":"EFT Payee",
 "updated":"2000-01-02T00:00:00",
 "updatedby":0}, "children" : []},
 {"tablename" : "ad_element", "data" : {"ad_element_id":2233,
 "columnname":"EftPayeeAccount",
 "ad_client_id":0,
 "ad_org_id":0,
 "ad_reference_id":10,
 "ad_reference_value_id":null,
 "created":"2003-11-20T15:22:16",
 "createdby":0,
 "description":"Electronic Funds Transfer Payee Account Information",
 "entitytype":"Open Items",
 "fieldlength":40,
 "help":"Information from EFT media",
 "isactive":"Y",
 "name":"EFT Payee Account",
 "po_description":null,
 "po_help":null,
 "po_name":null,
 "po_printname":null,
 "printname":"EFT Payee Account",
 "updated":"2010-01-13T10:38:15",
 "updatedby":0}, "children" : []},
 {"tablename" : "ad_element", "data" : {"ad_element_id":2234,
 "columnname":"EftReference",
 "ad_client_id":0,
 "ad_org_id":0,
 "ad_reference_id":10,
 "ad_reference_value_id":null,
 "created":"2003-11-20T15:22:16",
 "createdby":0,
 "description":"Electronic Funds Transfer Reference",
 "entitytype":"Open Items",
 "fieldlength":60,
 "help":"Information from EFT media",
 "isactive":"Y",
 "name":"EFT Reference",
 "po_description":null,
 "po_help":null,
 "po_name":null,
 "po_printname":null,
 "printname":"EFT Reference",
 "updated":"2000-01-02T00:00:00",
 "updatedby":0}, "children" : []},
 {"tablename" : "ad_element", "data" : {"ad_element_id":2235,
 "columnname":"EftTrxID",
 "ad_client_id":0,
 "ad_org_id":0,
 "ad_reference_id":10,
 "ad_reference_value_id":null,
 "created":"2003-11-20T15:22:16",
 "createdby":0,
 "description":"Electronic Funds Transfer Transaction ID",
 "entitytype":"Open Items",
 "fieldlength":40,
 "help":"Information from EFT media",
 "isactive":"Y",
 "name":"EFT Trx ID",
 "po_description":null,
 "po_help":null,
 "po_name":null,
 "po_printname":null,
 "printname":"EFT Trx ID",
 "updated":"2000-01-02T00:00:00",
 "updatedby":0}, "children" : []},
 {"tablename" : "ad_element", "data" : {"ad_element_id":2236,
 "columnname":"EftTrxType",
 "ad_client_id":0,
 "ad_org_id":0,
 "ad_reference_id":10,
 "ad_reference_value_id":null,
 "created":"2003-11-20T15:22:16",
 "createdby":0,
 "description":"Electronic Funds Transfer Transaction Type",
 "entitytype":"Open Items",
 "fieldlength":20,
 "help":"Information from EFT media",
 "isactive":"Y",
 "name":"EFT Trx Type",
 "po_description":null,
 "po_help":null,
 "po_name":null,
 "po_printname":null,
 "printname":"EFT Trx Type",
 "updated":"2000-01-02T00:00:00",
 "updatedby":0}, "children" : []},
 {"tablename" : "ad_element", "data" : {"ad_element_id":2241,
 "columnname":"Due0",
 "ad_client_id":0,
 "ad_org_id":0,
 "ad_reference_id":12,
 "ad_reference_value_id":null,
 "created":"2003-12-05T13:38:20",
 "createdby":0,
 "description":null,
 "entitytype":"Open Items",
 "fieldlength":22,
 "help":null,
 "isactive":"Y",
 "name":"Due Today",
 "po_description":null,
 "po_help":null,
 "po_name":null,
 "po_printname":null,
 "printname":"Due Today",
 "updated":"2000-01-02T00:00:00",
 "updatedby":0}, "children" : []},
 {"tablename" : "ad_element", "data" : {"ad_element_id":2242,
 "columnname":"Due0_30",
 "ad_client_id":0,
 "ad_org_id":0,
 "ad_reference_id":12,
 "ad_reference_value_id":null,
 "created":"2003-12-05T13:38:20",
 "createdby":0,
 "description":null,
 "entitytype":"Open Items",
 "fieldlength":22,
 "help":null,
 "isactive":"Y",
 "name":"Due Today-30",
 "po_description":null,
 "po_help":null,
 "po_name":null,
 "po_printname":null,
 "printname":"Due Today-30",
 "updated":"2000-01-02T00:00:00",
 "updatedby":0}, "children" : []},
 {"tablename" : "ad_element", "data" : {"ad_element_id":2243,
 "columnname":"Due0_7",
 "ad_client_id":0,
 "ad_org_id":0,
 "ad_reference_id":12,
 "ad_reference_value_id":null,
 "created":"2003-12-05T13:38:20",
 "createdby":0,
 "description":null,
 "entitytype":"Open Items",
 "fieldlength":22,
 "help":null,
 "isactive":"Y",
 "name":"Due Today-7",
 "po_description":null,
 "po_help":null,
 "po_name":null,
 "po_printname":null,
 "printname":"Due Today-7",
 "updated":"2000-01-02T00:00:00",
 "updatedby":0}, "children" : []},
 {"tablename" : "ad_element", "data" : {"ad_element_id":2244,
 "columnname":"Due1_7",
 "ad_client_id":0,
 "ad_org_id":0,
 "ad_reference_id":12,
 "ad_reference_value_id":null,
 "created":"2003-12-05T13:38:20",
 "createdby":0,
 "description":null,
 "entitytype":"Open Items",
 "fieldlength":22,
 "help":null,
 "isactive":"Y",
 "name":"Due 1-7",
 "po_description":null,
 "po_help":null,
 "po_name":null,
 "po_printname":null,
 "printname":"Due 1-7",
 "updated":"2000-01-02T00:00:00",
 "updatedby":0}, "children" : []},
 {"tablename" : "ad_element", "data" : {"ad_element_id":2245,
 "columnname":"Due31_60",
 "ad_client_id":0,
 "ad_org_id":0,
 "ad_reference_id":12,
 "ad_reference_value_id":null,
 "created":"2003-12-05T13:38:20",
 "createdby":0,
 "description":null,
 "entitytype":"Open Items",
 "fieldlength":22,
 "help":null,
 "isactive":"Y",
 "name":"Due 31-60",
 "po_description":null,
 "po_help":null,
 "po_name":null,
 "po_printname":null,
 "printname":"Due 31-60",
 "updated":"2000-01-02T00:00:00",
 "updatedby":0}, "children" : []},
 {"tablename" : "ad_element", "data" : {"ad_element_id":2246,
 "columnname":"Due31_Plus",
 "ad_client_id":0,
 "ad_org_id":0,
 "ad_reference_id":12,
 "ad_reference_value_id":null,
 "created":"2003-12-05T13:38:20",
 "createdby":0,
 "description":null,
 "entitytype":"Open Items",
 "fieldlength":22,
 "help":null,
 "isactive":"Y",
 "name":"Due > 31",
 "po_description":null,
 "po_help":null,
 "po_name":null,
 "po_printname":null,
 "printname":"Due > 31",
 "updated":"2000-01-02T00:00:00",
 "updatedby":0}, "children" : []},
 {"tablename" : "ad_element", "data" : {"ad_element_id":2247,
 "columnname":"Due61_90",
 "ad_client_id":0,
 "ad_org_id":0,
 "ad_reference_id":12,
 "ad_reference_value_id":null,
 "created":"2003-12-05T13:38:20",
 "createdby":0,
 "description":null,
 "entitytype":"Open Items",
 "fieldlength":22,
 "help":null,
 "isactive":"Y",
 "name":"Due 61-90",
 "po_description":null,
 "po_help":null,
 "po_name":null,
 "po_printname":null,
 "printname":"Due 61-90",
 "updated":"2000-01-02T00:00:00",
 "updatedby":0}, "children" : []},
 {"tablename" : "ad_element", "data" : {"ad_element_id":2248,
 "columnname":"Due61_Plus",
 "ad_client_id":0,
 "ad_org_id":0,
 "ad_reference_id":12,
 "ad_reference_value_id":null,
 "created":"2003-12-05T13:38:20",
 "createdby":0,
 "description":null,
 "entitytype":"Open Items",
 "fieldlength":22,
 "help":null,
 "isactive":"Y",
 "name":"Due > 61",
 "po_description":null,
 "po_help":null,
 "po_name":null,
 "po_printname":null,
 "printname":"Due > 61",
 "updated":"2000-01-02T00:00:00",
 "updatedby":0}, "children" : []},
 {"tablename" : "ad_element", "data" : {"ad_element_id":2249,
 "columnname":"Due8_30",
 "ad_client_id":0,
 "ad_org_id":0,
 "ad_reference_id":12,
 "ad_reference_value_id":null,
 "created":"2003-12-05T13:38:20",
 "createdby":0,
 "description":null,
 "entitytype":"Open Items",
 "fieldlength":22,
 "help":null,
 "isactive":"Y",
 "name":"Due 8-30",
 "po_description":null,
 "po_help":null,
 "po_name":null,
 "po_printname":null,
 "printname":"Due 8-30",
 "updated":"2000-01-02T00:00:00",
 "updatedby":0}, "children" : []},
 {"tablename" : "ad_element", "data" : {"ad_element_id":2250,
 "columnname":"Due91_Plus",
 "ad_client_id":0,
 "ad_org_id":0,
 "ad_reference_id":12,
 "ad_reference_value_id":null,
 "created":"2003-12-05T13:38:20",
 "createdby":0,
 "description":null,
 "entitytype":"Open Items",
 "fieldlength":22,
 "help":null,
 "isactive":"Y",
 "name":"Due > 91",
 "po_description":null,
 "po_help":null,
 "po_name":null,
 "po_printname":null,
 "printname":"Due > 91",
 "updated":"2000-01-02T00:00:00",
 "updatedby":0}, "children" : []},
 {"tablename" : "ad_element", "data" : {"ad_element_id":2251,
 "columnname":"PastDue1_30",
 "ad_client_id":0,
 "ad_org_id":0,
 "ad_reference_id":12,
 "ad_reference_value_id":null,
 "created":"2003-12-05T13:38:20",
 "createdby":0,
 "description":null,
 "entitytype":"Open Items",
 "fieldlength":22,
 "help":null,
 "isactive":"Y",
 "name":"Past Due 1-30",
 "po_description":null,
 "po_help":null,
 "po_name":null,
 "po_printname":null,
 "printname":"Past Due 1-30",
 "updated":"2000-01-02T00:00:00",
 "updatedby":0}, "children" : []},
 {"tablename" : "ad_element", "data" : {"ad_element_id":2252,
 "columnname":"PastDue1_7",
 "ad_client_id":0,
 "ad_org_id":0,
 "ad_reference_id":12,
 "ad_reference_value_id":null,
 "created":"2003-12-05T13:38:20",
 "createdby":0,
 "description":null,
 "entitytype":"Open Items",
 "fieldlength":22,
 "help":null,
 "isactive":"Y",
 "name":"Past Due 1-7",
 "po_description":null,
 "po_help":null,
 "po_name":null,
 "po_printname":null,
 "printname":"Past Due 1-7",
 "updated":"2000-01-02T00:00:00",
 "updatedby":0}, "children" : []},
 {"tablename" : "ad_element", "data" : {"ad_element_id":2253,
 "columnname":"PastDue31_60",
 "ad_client_id":0,
 "ad_org_id":0,
 "ad_reference_id":12,
 "ad_reference_value_id":null,
 "created":"2003-12-05T13:38:20",
 "createdby":0,
 "description":null,
 "entitytype":"Open Items",
 "fieldlength":22,
 "help":null,
 "isactive":"Y",
 "name":"Past Due 31-60",
 "po_description":null,
 "po_help":null,
 "po_name":null,
 "po_printname":null,
 "printname":"Past Due 31-60",
 "updated":"2000-01-02T00:00:00",
 "updatedby":0}, "children" : []},
 {"tablename" : "ad_element", "data" : {"ad_element_id":2254,
 "columnname":"PastDue31_Plus",
 "ad_client_id":0,
 "ad_org_id":0,
 "ad_reference_id":12,
 "ad_reference_value_id":null,
 "created":"2003-12-05T13:38:20",
 "createdby":0,
 "description":null,
 "entitytype":"Open Items",
 "fieldlength":22,
 "help":null,
 "isactive":"Y",
 "name":"Past Due > 31",
 "po_description":null,
 "po_help":null,
 "po_name":null,
 "po_printname":null,
 "printname":"Past Due > 31",
 "updated":"2000-01-02T00:00:00",
 "updatedby":0}, "children" : []},
 {"tablename" : "ad_element", "data" : {"ad_element_id":2255,
 "columnname":"PastDue61_90",
 "ad_client_id":0,
 "ad_org_id":0,
 "ad_reference_id":12,
 "ad_reference_value_id":null,
 "created":"2003-12-05T13:38:20",
 "createdby":0,
 "description":null,
 "entitytype":"Open Items",
 "fieldlength":22,
 "help":null,
 "isactive":"Y",
 "name":"Past Due 61-90",
 "po_description":null,
 "po_help":null,
 "po_name":null,
 "po_printname":null,
 "printname":"Past Due 61-90",
 "updated":"2000-01-02T00:00:00",
 "updatedby":0}, "children" : []},
 {"tablename" : "ad_element", "data" : {"ad_element_id":2256,
 "columnname":"PastDue61_Plus",
 "ad_client_id":0,
 "ad_org_id":0,
 "ad_reference_id":12,
 "ad_reference_value_id":null,
 "created":"2003-12-05T13:38:20",
 "createdby":0,
 "description":null,
 "entitytype":"Open Items",
 "fieldlength":22,
 "help":null,
 "isactive":"Y",
 "name":"Past Due > 61",
 "po_description":null,
 "po_help":null,
 "po_name":null,
 "po_printname":null,
 "printname":"Past Due > 61",
 "updated":"2000-01-02T00:00:00",
 "updatedby":0}, "children" : []},
 {"tablename" : "ad_element", "data" : {"ad_element_id":2257,
 "columnname":"PastDue8_30",
 "ad_client_id":0,
 "ad_org_id":0,
 "ad_reference_id":12,
 "ad_reference_value_id":null,
 "created":"2003-12-05T13:38:20",
 "createdby":0,
 "description":null,
 "entitytype":"Open Items",
 "fieldlength":22,
 "help":null,
 "isactive":"Y",
 "name":"Past Due 8-30",
 "po_description":null,
 "po_help":null,
 "po_name":null,
 "po_printname":null,
 "printname":"Past Due 8-30",
 "updated":"2000-01-02T00:00:00",
 "updatedby":0}, "children" : []},
 {"tablename" : "ad_element", "data" : {"ad_element_id":2258,
 "columnname":"PastDue91_Plus",
 "ad_client_id":0,
 "ad_org_id":0,
 "ad_reference_id":12,
 "ad_reference_value_id":null,
 "created":"2003-12-05T13:38:20",
 "createdby":0,
 "description":null,
 "entitytype":"Open Items",
 "fieldlength":22,
 "help":null,
 "isactive":"Y",
 "name":"Past Due > 91",
 "po_description":null,
 "po_help":null,
 "po_name":null,
 "po_printname":null,
 "printname":"Past Due > 91",
 "updated":"2000-01-02T00:00:00",
 "updatedby":0}, "children" : []},
 {"tablename" : "ad_element", "data" : {"ad_element_id":2259,
 "columnname":"PastDueAmt",
 "ad_client_id":0,
 "ad_org_id":0,
 "ad_reference_id":12,
 "ad_reference_value_id":null,
 "created":"2003-12-05T13:38:20",
 "createdby":0,
 "description":null,
 "entitytype":"Open Items",
 "fieldlength":22,
 "help":null,
 "isactive":"Y",
 "name":"Past Due",
 "po_description":null,
 "po_help":null,
 "po_name":null,
 "po_printname":null,
 "printname":"Past Due",
 "updated":"2000-01-02T00:00:00",
 "updatedby":0}, "children" : []},
 {"tablename" : "ad_element", "data" : {"ad_element_id":2260,
 "columnname":"IsListInvoices",
 "ad_client_id":0,
 "ad_org_id":0,
 "ad_reference_id":20,
 "ad_reference_value_id":null,
 "created":"2003-12-05T14:31:40",
 "createdby":0,
 "description":"Include List of Invoices",
 "entitytype":"Open Items",
 "fieldlength":1,
 "help":null,
 "isactive":"Y",
 "name":"List Invoices",
 "po_description":null,
 "po_help":null,
 "po_name":null,
 "po_printname":null,
 "printname":"List Invoices",
 "updated":"2000-01-02T00:00:00",
 "updatedby":0}, "children" : []},
 {"tablename" : "ad_element", "data" : {"ad_element_id":2287,
 "columnname":"EftAmt",
 "ad_client_id":0,
 "ad_org_id":0,
 "ad_reference_id":12,
 "ad_reference_value_id":null,
 "created":"2003-12-25T14:02:45",
 "createdby":0,
 "description":"Electronic Funds Transfer Amount",
 "entitytype":"Open Items",
 "fieldlength":22,
 "help":null,
 "isactive":"Y",
 "name":"EFT Amount",
 "po_description":null,
 "po_help":null,
 "po_name":null,
 "po_printname":null,
 "printname":"EFT Amount",
 "updated":"2000-01-02T00:00:00",
 "updatedby":0}, "children" : []},
 {"tablename" : "ad_element", "data" : {"ad_element_id":2289,
 "columnname":"EftCheckNo",
 "ad_client_id":0,
 "ad_org_id":0,
 "ad_reference_id":10,
 "ad_reference_value_id":null,
 "created":"2003-12-25T14:02:45",
 "createdby":0,
 "description":"Electronic Funds Transfer Check No",
 "entitytype":"Open Items",
 "fieldlength":20,
 "help":"Information from EFT media",
 "isactive":"Y",
 "name":"EFT Check No",
 "po_description":null,
 "po_help":null,
 "po_name":null,
 "po_printname":null,
 "printname":"EFT Check No",
 "updated":"2000-01-02T00:00:00",
 "updatedby":0}, "children" : []},
 {"tablename" : "ad_element", "data" : {"ad_element_id":2290,
 "columnname":"EftCurrency",
 "ad_client_id":0,
 "ad_org_id":0,
 "ad_reference_id":10,
 "ad_reference_value_id":null,
 "created":"2003-12-25T14:02:45",
 "createdby":0,
 "description":"Electronic Funds Transfer Currency",
 "entitytype":"Open Items",
 "fieldlength":20,
 "help":"Information from EFT media",
 "isactive":"Y",
 "name":"EFT Currency",
 "po_description":null,
 "po_help":null,
 "po_name":null,
 "po_printname":null,
 "printname":"EFT Currency",
 "updated":"2000-01-02T00:00:00",
 "updatedby":0}, "children" : []},
 {"tablename" : "ad_element", "data" : {"ad_element_id":2291,
 "columnname":"EftStatementDate",
 "ad_client_id":0,
 "ad_org_id":0,
 "ad_reference_id":15,
 "ad_reference_value_id":null,
 "created":"2003-12-25T14:02:45",
 "createdby":0,
 "description":"Electronic Funds Transfer Statement Date",
 "entitytype":"Open Items",
 "fieldlength":7,
 "help":"Information from EFT media",
 "isactive":"Y",
 "name":"EFT Statement Date",
 "po_description":null,
 "po_help":null,
 "po_name":null,
 "po_printname":null,
 "printname":"EFT Statement Date",
 "updated":"2000-01-02T00:00:00",
 "updatedby":0}, "children" : []},
 {"tablename" : "ad_element", "data" : {"ad_element_id":2292,
 "columnname":"EftStatementLineDate",
 "ad_client_id":0,
 "ad_org_id":0,
 "ad_reference_id":15,
 "ad_reference_value_id":null,
 "created":"2003-12-25T14:02:45",
 "createdby":0,
 "description":"Electronic Funds Transfer Statement Line Date",
 "entitytype":"Open Items",
 "fieldlength":7,
 "help":"Information from EFT media",
 "isactive":"Y",
 "name":"EFT Statement Line Date",
 "po_description":null,
 "po_help":null,
 "po_name":null,
 "po_printname":null,
 "printname":"EFT Statement Line Date",
 "updated":"2000-01-02T00:00:00",
 "updatedby":0}, "children" : []},
 {"tablename" : "ad_element", "data" : {"ad_element_id":2293,
 "columnname":"EftStatementReference",
 "ad_client_id":0,
 "ad_org_id":0,
 "ad_reference_id":10,
 "ad_reference_value_id":null,
 "created":"2003-12-25T14:02:45",
 "createdby":0,
 "description":"Electronic Funds Transfer Statement Reference",
 "entitytype":"Open Items",
 "fieldlength":60,
 "help":"Information from EFT media",
 "isactive":"Y",
 "name":"EFT Statement Reference",
 "po_description":null,
 "po_help":null,
 "po_name":null,
 "po_printname":null,
 "printname":"EFT Statement Reference",
 "updated":"2000-01-02T00:00:00",
 "updatedby":0}, "children" : []},
 {"tablename" : "ad_element", "data" : {"ad_element_id":2294,
 "columnname":"EftValutaDate",
 "ad_client_id":0,
 "ad_org_id":0,
 "ad_reference_id":15,
 "ad_reference_value_id":null,
 "created":"2003-12-25T14:02:45",
 "createdby":0,
 "description":"Electronic Funds Transfer Valuta (effective) Date",
 "entitytype":"Open Items",
 "fieldlength":7,
 "help":"Information from EFT media",
 "isactive":"Y",
 "name":"EFT Effective Date",
 "po_description":null,
 "po_help":null,
 "po_name":null,
 "po_printname":null,
 "printname":"EFT Effective Date",
 "updated":"2000-01-02T00:00:00",
 "updatedby":0}, "children" : []},
 {"tablename" : "ad_element", "data" : {"ad_element_id":2300,
 "columnname":"StatementLineDate",
 "ad_client_id":0,
 "ad_org_id":0,
 "ad_reference_id":15,
 "ad_reference_value_id":null,
 "created":"2003-12-25T14:02:45",
 "createdby":0,
 "description":"Date of the Statement Line",
 "entitytype":"Open Items",
 "fieldlength":7,
 "help":null,
 "isactive":"Y",
 "name":"Statement Line Date",
 "po_description":null,
 "po_help":null,
 "po_name":null,
 "po_printname":null,
 "printname":"Statement Line Date",
 "updated":"2000-01-02T00:00:00",
 "updatedby":0}, "children" : []},
 {"tablename" : "ad_element", "data" : {"ad_element_id":2341,
 "columnname":"TaxLineTotal",
 "ad_client_id":0,
 "ad_org_id":0,
 "ad_reference_id":12,
 "ad_reference_value_id":null,
 "created":"2004-01-09T14:06:11",
 "createdby":0,
 "description":"Tax Line Total Amount",
 "entitytype":"Open Items",
 "fieldlength":22,
 "help":null,
 "isactive":"Y",
 "name":"Tax Line Total",
 "po_description":null,
 "po_help":null,
 "po_name":null,
 "po_printname":null,
 "printname":"Line Total",
 "updated":"2000-01-02T00:00:00",
 "updatedby":0}, "children" : []},
 {"tablename" : "ad_element", "data" : {"ad_element_id":2348,
 "columnname":"MatchStatement",
 "ad_client_id":0,
 "ad_org_id":0,
 "ad_reference_id":28,
 "ad_reference_value_id":null,
 "created":"2004-01-25T13:10:04",
 "createdby":0,
 "description":null,
 "entitytype":"Open Items",
 "fieldlength":1,
 "help":null,
 "isactive":"Y",
 "name":"Match Statement",
 "po_description":null,
 "po_help":null,
 "po_name":null,
 "po_printname":null,
 "printname":"Match Statement",
 "updated":"2000-01-02T00:00:00",
 "updatedby":0}, "children" : []},
 {"tablename" : "ad_element", "data" : {"ad_element_id":2564,
 "columnname":"SendIt",
 "ad_client_id":0,
 "ad_org_id":0,
 "ad_reference_id":28,
 "ad_reference_value_id":null,
 "created":"2004-07-04T00:40:28",
 "createdby":0,
 "description":null,
 "entitytype":"Open Items",
 "fieldlength":1,
 "help":null,
 "isactive":"Y",
 "name":"Send",
 "po_description":null,
 "po_help":null,
 "po_name":null,
 "po_printname":null,
 "printname":"Send",
 "updated":"2000-01-02T00:00:00",
 "updatedby":0}, "children" : []},
 {"tablename" : "ad_element", "data" : {"ad_element_id":2565,
 "columnname":"TimesDunned",
 "ad_client_id":0,
 "ad_org_id":0,
 "ad_reference_id":11,
 "ad_reference_value_id":null,
 "created":"2004-07-04T00:40:28",
 "createdby":0,
 "description":"Number of times dunned previously",
 "entitytype":"Open Items",
 "fieldlength":22,
 "help":null,
 "isactive":"Y",
 "name":"Times Dunned",
 "po_description":null,
 "po_help":null,
 "po_name":null,
 "po_printname":null,
 "printname":"# Dunned",
 "updated":"2000-01-02T00:00:00",
 "updatedby":0}, "children" : []},
 {"tablename" : "ad_element", "data" : {"ad_element_id":2572,
 "columnname":"IncludeInDispute",
 "ad_client_id":0,
 "ad_org_id":0,
 "ad_reference_id":null,
 "ad_reference_value_id":null,
 "created":"2004-07-04T18:26:14",
 "createdby":0,
 "description":"Include disputed Invoices",
 "entitytype":"Open Items",
 "fieldlength":null,
 "help":null,
 "isactive":"Y",
 "name":"Include Disputed",
 "po_description":null,
 "po_help":null,
 "po_name":null,
 "po_printname":null,
 "printname":"Include Disputed",
 "updated":"2000-01-02T00:00:00",
 "updatedby":0}, "children" : []},
 {"tablename" : "ad_element", "data" : {"ad_element_id":2661,
 "columnname":"APAR",
 "ad_client_id":0,
 "ad_org_id":0,
 "ad_reference_id":17,
 "ad_reference_value_id":332,
 "created":"2004-11-30T01:52:41",
 "createdby":0,
 "description":"Include Receivables and/or Payables transactions",
 "entitytype":"Open Items",
 "fieldlength":1,
 "help":null,
 "isactive":"Y",
 "name":"AP - AR",
 "po_description":null,
 "po_help":null,
 "po_name":null,
 "po_printname":null,
 "printname":"AP - AR",
 "updated":"2000-01-02T00:00:00",
 "updatedby":0}, "children" : []},
 {"tablename" : "ad_element", "data" : {"ad_element_id":2753,
 "columnname":"Ref_Payment_ID",
 "ad_client_id":0,
 "ad_org_id":0,
 "ad_reference_id":18,
 "ad_reference_value_id":343,
 "created":"2005-05-08T21:05:45",
 "createdby":100,
 "description":null,
 "entitytype":"Open Items",
 "fieldlength":10,
 "help":null,
 "isactive":"Y",
 "name":"Referenced Payment",
 "po_description":null,
 "po_help":null,
 "po_name":null,
 "po_printname":null,
 "printname":"Ref Payment",
 "updated":"2005-05-08T21:10:58",
 "updatedby":100}, "children" : []},
 {"tablename" : "ad_element", "data" : {"ad_element_id":2798,
 "columnname":"IsOnlyIfBPBalance",
 "ad_client_id":0,
 "ad_org_id":0,
 "ad_reference_id":null,
 "ad_reference_value_id":null,
 "created":"2005-05-22T02:14:02",
 "createdby":100,
 "description":"Include only if Business Partner has outstanding Balance",
 "entitytype":"Open Items",
 "fieldlength":null,
 "help":null,
 "isactive":"Y",
 "name":"Only If BP has Balance",
 "po_description":null,
 "po_help":null,
 "po_name":null,
 "po_printname":null,
 "printname":"Only If BP has Balance",
 "updated":"2005-05-22T02:14:02",
 "updatedby":100}, "children" : []},
 {"tablename" : "ad_element", "data" : {"ad_element_id":2800,
 "columnname":"AmtRevalCr",
 "ad_client_id":0,
 "ad_org_id":0,
 "ad_reference_id":12,
 "ad_reference_value_id":null,
 "created":"2005-05-30T13:31:57",
 "createdby":0,
 "description":"Restated Cr Amount",
 "entitytype":"Open Items",
 "fieldlength":22,
 "help":null,
 "isactive":"Y",
 "name":"Restated Amount Cr",
 "po_description":null,
 "po_help":null,
 "po_name":null,
 "po_printname":null,
 "printname":"Restated Amt Cr",
 "updated":"2016-04-11T16:07:04",
 "updatedby":0}, "children" : []},
 {"tablename" : "ad_element", "data" : {"ad_element_id":2801,
 "columnname":"AmtRevalCrDiff",
 "ad_client_id":0,
 "ad_org_id":0,
 "ad_reference_id":12,
 "ad_reference_value_id":null,
 "created":"2005-05-30T13:31:57",
 "createdby":0,
 "description":"Restated Cr Amount Difference",
 "entitytype":"Open Items",
 "fieldlength":22,
 "help":null,
 "isactive":"Y",
 "name":"Restated Difference Cr",
 "po_description":null,
 "po_help":null,
 "po_name":null,
 "po_printname":null,
 "printname":"Difference Cr",
 "updated":"2016-04-11T16:07:04",
 "updatedby":0}, "children" : []},
 {"tablename" : "ad_element", "data" : {"ad_element_id":2802,
 "columnname":"AmtRevalDr",
 "ad_client_id":0,
 "ad_org_id":0,
 "ad_reference_id":12,
 "ad_reference_value_id":null,
 "created":"2005-05-30T13:31:57",
 "createdby":0,
 "description":"Restated Dr Amount",
 "entitytype":"Open Items",
 "fieldlength":22,
 "help":null,
 "isactive":"Y",
 "name":"Restated Amount Dr",
 "po_description":null,
 "po_help":null,
 "po_name":null,
 "po_printname":null,
 "printname":"Restated Amt Dr",
 "updated":"2016-04-11T16:07:04",
 "updatedby":0}, "children" : []},
 {"tablename" : "ad_element", "data" : {"ad_element_id":2803,
 "columnname":"AmtRevalDrDiff",
 "ad_client_id":0,
 "ad_org_id":0,
 "ad_reference_id":12,
 "ad_reference_value_id":null,
 "created":"2005-05-30T13:31:57",
 "createdby":0,
 "description":"Restated Dr Amount Difference",
 "entitytype":"Open Items",
 "fieldlength":22,
 "help":null,
 "isactive":"Y",
 "name":"Restated Difference Dr",
 "po_description":null,
 "po_help":null,
 "po_name":null,
 "po_printname":null,
 "printname":"Difference Dr",
 "updated":"2016-04-11T16:07:04",
 "updatedby":0}, "children" : []},
 {"tablename" : "ad_element", "data" : {"ad_element_id":2804,
 "columnname":"C_ConversionTypeReval_ID",
 "ad_client_id":0,
 "ad_org_id":0,
 "ad_reference_id":18,
 "ad_reference_value_id":352,
 "created":"2005-05-30T13:31:57",
 "createdby":0,
 "description":"Revaluation Currency Conversion Type",
 "entitytype":"Open Items",
 "fieldlength":22,
 "help":null,
 "isactive":"Y",
 "name":"Revaluation Conversion Type",
 "po_description":null,
 "po_help":null,
 "po_name":null,
 "po_printname":null,
 "printname":"Reval Conversion Type",
 "updated":"2005-05-30T14:37:58",
 "updatedby":100}, "children" : []},
 {"tablename" : "ad_element", "data" : {"ad_element_id":2805,
 "columnname":"DateReval",
 "ad_client_id":0,
 "ad_org_id":0,
 "ad_reference_id":15,
 "ad_reference_value_id":null,
 "created":"2005-05-30T13:31:57",
 "createdby":0,
 "description":"Date of Revaluation",
 "entitytype":"Open Items",
 "fieldlength":7,
 "help":null,
 "isactive":"Y",
 "name":"Revaluation Date",
 "po_description":null,
 "po_help":null,
 "po_name":null,
 "po_printname":null,
 "printname":"Reval Date",
 "updated":"2005-05-30T14:43:45",
 "updatedby":100}, "children" : []},
 {"tablename" : "ad_element", "data" : {"ad_element_id":2832,
 "columnname":"C_PaymentAllocate_ID",
 "ad_client_id":0,
 "ad_org_id":0,
 "ad_reference_id":13,
 "ad_reference_value_id":null,
 "created":"2005-09-03T08:25:35",
 "createdby":100,
 "description":"Allocate Payment to Invoices",
 "entitytype":"Open Items",
 "fieldlength":10,
 "help":"You can directly allocate payments to invoices when creating the Payment. \nNote that you can over- or under-allocate the payment.  When processing the payment, the allocation is created.",
 "isactive":"Y",
 "name":"Allocate Payment",
 "po_description":null,
 "po_help":null,
 "po_name":null,
 "po_printname":null,
 "printname":"Allocate Payment",
 "updated":"2005-09-03T08:33:43",
 "updatedby":100}, "children" : []},
 {"tablename" : "ad_element", "data" : {"ad_element_id":2833,
 "columnname":"InvoiceAmt",
 "ad_client_id":0,
 "ad_org_id":0,
 "ad_reference_id":12,
 "ad_reference_value_id":null,
 "created":"2005-09-03T08:57:39",
 "createdby":100,
 "description":null,
 "entitytype":"Open Items",
 "fieldlength":22,
 "help":null,
 "isactive":"Y",
 "name":"Invoice Amt",
 "po_description":null,
 "po_help":null,
 "po_name":null,
 "po_printname":null,
 "printname":"Invoice Amt",
 "updated":"2005-09-03T08:58:17",
 "updatedby":100}, "children" : []},
 {"tablename" : "ad_element", "data" : {"ad_element_id":2834,
 "columnname":"RemainingAmt",
 "ad_client_id":0,
 "ad_org_id":0,
 "ad_reference_id":12,
 "ad_reference_value_id":null,
 "created":"2005-09-03T09:25:39",
 "createdby":100,
 "description":"Remaining Amount",
 "entitytype":"Open Items",
 "fieldlength":22,
 "help":null,
 "isactive":"Y",
 "name":"Remaining Amt",
 "po_description":null,
 "po_help":null,
 "po_name":null,
 "po_printname":null,
 "printname":"Remaining Amt",
 "updated":"2016-04-11T16:33:05",
 "updatedby":0}, "children" : []},
 {"tablename" : "ad_element", "data" : {"ad_element_id":2866,
 "columnname":"MatchRequirement",
 "ad_client_id":0,
 "ad_org_id":0,
 "ad_reference_id":null,
 "ad_reference_value_id":null,
 "created":"2005-10-19T21:12:45",
 "createdby":100,
 "description":"Matching Requirement for Invoice",
 "entitytype":"Open Items",
 "fieldlength":null,
 "help":null,
 "isactive":"Y",
 "name":"Match Requirement",
 "po_description":null,
 "po_help":null,
 "po_name":null,
 "po_printname":null,
 "printname":"Match",
 "updated":"2005-10-19T21:35:01",
 "updatedby":100}, "children" : []},
 {"tablename" : "ad_element", "data" : {"ad_element_id":2896,
 "columnname":"C_DocTypeReval_ID",
 "ad_client_id":0,
 "ad_org_id":0,
 "ad_reference_id":18,
 "ad_reference_value_id":170,
 "created":"2005-12-18T15:37:15",
 "createdby":100,
 "description":"Document Type for Revaluation Journal",
 "entitytype":"Open Items",
 "fieldlength":10,
 "help":null,
 "isactive":"Y",
 "name":"Revaluation Document Type",
 "po_description":null,
 "po_help":null,
 "po_name":null,
 "po_printname":null,
 "printname":"Doc Type Reval",
 "updated":"2005-12-18T15:45:01",
 "updatedby":100}, "children" : []},
 {"tablename" : "ad_element", "data" : {"ad_element_id":2897,
 "columnname":"IsAllCurrencies",
 "ad_client_id":0,
 "ad_org_id":0,
 "ad_reference_id":20,
 "ad_reference_value_id":null,
 "created":"2005-12-19T18:06:47",
 "createdby":100,
 "description":"Report not just foreign currency Invoices",
 "entitytype":"Open Items",
 "fieldlength":1,
 "help":null,
 "isactive":"Y",
 "name":"Include All Currencies",
 "po_description":null,
 "po_help":null,
 "po_name":null,
 "po_printname":null,
 "printname":"All Currencies",
 "updated":"2005-12-19T18:06:47",
 "updatedby":100}, "children" : []},
 {"tablename" : "ad_element", "data" : {"ad_element_id":3083,
 "columnname":"AmtAcctOpenDr",
 "ad_client_id":0,
 "ad_org_id":0,
 "ad_reference_id":12,
 "ad_reference_value_id":null,
 "created":"2006-10-25T00:00:00",
 "createdby":0,
 "description":"Open Debit in document currency & rate",
 "entitytype":"Open Items",
 "fieldlength":22,
 "help":null,
 "isactive":"Y",
 "name":"Acct Open Dr",
 "po_description":null,
 "po_help":null,
 "po_name":null,
 "po_printname":null,
 "printname":"Acct Open Dr",
 "updated":"2010-01-13T10:38:15",
 "updatedby":0}, "children" : []},
 {"tablename" : "ad_element", "data" : {"ad_element_id":3084,
 "columnname":"AmtAcctOpenCr",
 "ad_client_id":0,
 "ad_org_id":0,
 "ad_reference_id":12,
 "ad_reference_value_id":null,
 "created":"2006-10-25T00:00:00",
 "createdby":0,
 "description":"Open Credit in document currency & rate",
 "entitytype":"Open Items",
 "fieldlength":22,
 "help":null,
 "isactive":"Y",
 "name":"Acct Open Cr",
 "po_description":null,
 "po_help":null,
 "po_name":null,
 "po_printname":null,
 "printname":"Acct Open Cr",
 "updated":"2010-01-13T10:38:15",
 "updatedby":0}, "children" : []},
 {"tablename" : "ad_element", "data" : {"ad_element_id":3085,
 "columnname":"AmtAcctOpenBalance",
 "ad_client_id":0,
 "ad_org_id":0,
 "ad_reference_id":12,
 "ad_reference_value_id":null,
 "created":"2006-10-25T00:00:00",
 "createdby":0,
 "description":"Open Balance in document currency & rate",
 "entitytype":"Open Items",
 "fieldlength":22,
 "help":null,
 "isactive":"Y",
 "name":"Acct Open Balance",
 "po_description":null,
 "po_help":null,
 "po_name":null,
 "po_printname":null,
 "printname":"Acct Open Balance",
 "updated":"2010-01-13T10:38:15",
 "updatedby":0}, "children" : []},
 {"tablename" : "ad_element", "data" : {"ad_element_id":53224,
 "columnname":"PrintUnprocessedOnly",
 "ad_client_id":0,
 "ad_org_id":0,
 "ad_reference_id":null,
 "ad_reference_value_id":null,
 "created":"2007-09-28T00:00:00",
 "createdby":100,
 "description":null,
 "entitytype":"Open Items",
 "fieldlength":null,
 "help":null,
 "isactive":"Y",
 "name":"Print Unprocessed Entries Only",
 "po_description":null,
 "po_help":null,
 "po_name":null,
 "po_printname":null,
 "printname":"Print Unprocessed Entries Only",
 "updated":"2007-09-28T00:00:00",
 "updatedby":100}, "children" : []},
 {"tablename" : "ad_element", "data" : {"ad_element_id":53334,
 "columnname":"IsGeneratedDraft",
 "ad_client_id":0,
 "ad_org_id":0,
 "ad_reference_id":20,
 "ad_reference_value_id":null,
 "created":"2008-01-24T17:45:27",
 "createdby":100,
 "description":null,
 "entitytype":"Open Items",
 "fieldlength":1,
 "help":null,
 "isactive":"Y",
 "name":"Generated Draft",
 "po_description":null,
 "po_help":null,
 "po_name":null,
 "po_printname":null,
 "printname":"Generated Draft",
 "updated":"2008-01-24T17:45:27",
 "updatedby":100}, "children" : []},
 {"tablename" : "ad_element", "data" : {"ad_element_id":54099,
 "columnname":"AllAllocations",
 "ad_client_id":0,
 "ad_org_id":0,
 "ad_reference_id":null,
 "ad_reference_value_id":null,
 "created":"2009-12-14T17:43:06",
 "createdby":100,
 "description":null,
 "entitytype":"Open Items",
 "fieldlength":null,
 "help":null,
 "isactive":"Y",
 "name":"All Allocations",
 "po_description":null,
 "po_help":null,
 "po_name":null,
 "po_printname":null,
 "printname":"All Allocations",
 "updated":"2009-12-14T17:43:06",
 "updatedby":100}, "children" : []},
 {"tablename" : "ad_element", "data" : {"ad_element_id":54393,
 "columnname":"C_CashPlan_ID",
 "ad_client_id":0,
 "ad_org_id":0,
 "ad_reference_id":13,
 "ad_reference_value_id":null,
 "created":"2010-12-08T21:22:04",
 "createdby":100,
 "description":null,
 "entitytype":"Open Items",
 "fieldlength":22,
 "help":null,
 "isactive":"Y",
 "name":"Cash Plan",
 "po_description":null,
 "po_help":null,
 "po_name":null,
 "po_printname":null,
 "printname":"Cash Plan",
 "updated":"2010-12-08T21:22:04",
 "updatedby":100}, "children" : []},
 {"tablename" : "ad_element", "data" : {"ad_element_id":54394,
 "columnname":"CashFlowType",
 "ad_client_id":0,
 "ad_org_id":0,
 "ad_reference_id":17,
 "ad_reference_value_id":53385,
 "created":"2010-12-08T21:22:08",
 "createdby":100,
 "description":null,
 "entitytype":"Open Items",
 "fieldlength":1,
 "help":null,
 "isactive":"Y",
 "name":"Cash Flow Type",
 "po_description":null,
 "po_help":null,
 "po_name":null,
 "po_printname":null,
 "printname":"Cash Flow Type",
 "updated":"2010-12-08T21:22:08",
 "updatedby":100}, "children" : []},
 {"tablename" : "ad_element", "data" : {"ad_element_id":54395,
 "columnname":"GeneratePeriodic",
 "ad_client_id":0,
 "ad_org_id":0,
 "ad_reference_id":28,
 "ad_reference_value_id":null,
 "created":"2010-12-08T21:22:21",
 "createdby":100,
 "description":null,
 "entitytype":"Open Items",
 "fieldlength":1,
 "help":null,
 "isactive":"Y",
 "name":"Generate Periodic Plan",
 "po_description":null,
 "po_help":null,
 "po_name":null,
 "po_printname":null,
 "printname":"Generate Periodic Plan",
 "updated":"2010-12-08T21:22:21",
 "updatedby":100}, "children" : []},
 {"tablename" : "ad_element", "data" : {"ad_element_id":54398,
 "columnname":"T_CashFlow_ID",
 "ad_client_id":0,
 "ad_org_id":0,
 "ad_reference_id":13,
 "ad_reference_value_id":null,
 "created":"2010-12-08T21:23:44",
 "createdby":100,
 "description":null,
 "entitytype":"Open Items",
 "fieldlength":10,
 "help":null,
 "isactive":"Y",
 "name":"T_CashFlow_ID",
 "po_description":null,
 "po_help":null,
 "po_name":null,
 "po_printname":null,
 "printname":"T_CashFlow_ID",
 "updated":"2010-12-08T21:23:44",
 "updatedby":100}, "children" : []},
 {"tablename" : "ad_element", "data" : {"ad_element_id":54399,
 "columnname":"CashFlowSource",
 "ad_client_id":0,
 "ad_org_id":0,
 "ad_reference_id":17,
 "ad_reference_value_id":53387,
 "created":"2010-12-08T21:23:49",
 "createdby":100,
 "description":null,
 "entitytype":"Open Items",
 "fieldlength":1,
 "help":null,
 "isactive":"Y",
 "name":"Cash Flow Source",
 "po_description":null,
 "po_help":null,
 "po_name":null,
 "po_printname":null,
 "printname":"Cash Flow Source",
 "updated":"2010-12-08T21:23:49",
 "updatedby":100}, "children" : []},
 {"tablename" : "ad_element", "data" : {"ad_element_id":55220,
 "columnname":"IsIncludePayments",
 "ad_client_id":0,
 "ad_org_id":0,
 "ad_reference_id":20,
 "ad_reference_value_id":null,
 "created":"2011-07-01T16:44:04",
 "createdby":100,
 "description":"Include payments in the aging report",
 "entitytype":"Open Items",
 "fieldlength":1,
 "help":null,
 "isactive":"Y",
 "name":"Include Payments",
 "po_description":null,
 "po_help":null,
 "po_name":null,
 "po_printname":null,
 "printname":"Include Payments",
 "updated":"2011-07-01T16:44:04",
 "updatedby":100}, "children" : []},
 {"tablename" : "ad_element", "data" : {"ad_element_id":55506,
 "columnname":"IncludeFutureDocs",
 "ad_client_id":0,
 "ad_org_id":0,
 "ad_reference_id":null,
 "ad_reference_value_id":null,
 "created":"2012-06-15T14:21:58",
 "createdby":100,
 "description":"Include payments and invoices later than the dunning date",
 "entitytype":"Open Items",
 "fieldlength":null,
 "help":null,
 "isactive":"Y",
 "name":"Include Future Documents",
 "po_description":null,
 "po_help":null,
 "po_name":null,
 "po_printname":null,
 "printname":"Include Future Documents",
 "updated":"2012-06-15T14:21:58",
 "updatedby":100}, "children" : []},
 {"tablename" : "ad_element", "data" : {"ad_element_id":56613,
 "columnname":"AmtAcctOpenPosted",
 "ad_client_id":0,
 "ad_org_id":0,
 "ad_reference_id":null,
 "ad_reference_value_id":null,
 "created":"2013-11-21T10:59:28",
 "createdby":100,
 "description":null,
 "entitytype":"Open Items",
 "fieldlength":null,
 "help":null,
 "isactive":"Y",
 "name":"Open Posted Amount",
 "po_description":null,
 "po_help":null,
 "po_name":null,
 "po_printname":null,
 "printname":"Open Posted Amount",
 "updated":"2013-10-18T16:42:39",
 "updatedby":100}, "children" : []},
 {"tablename" : "ad_element", "data" : {"ad_element_id":56614,
 "columnname":"AmtAcctOpenSource",
 "ad_client_id":0,
 "ad_org_id":0,
 "ad_reference_id":null,
 "ad_reference_value_id":null,
 "created":"2013-11-21T11:01:04",
 "createdby":100,
 "description":null,
 "entitytype":"Open Items",
 "fieldlength":null,
 "help":null,
 "isactive":"Y",
 "name":"Open Source Amount",
 "po_description":null,
 "po_help":null,
 "po_name":null,
 "po_printname":null,
 "printname":"Open Source Amount",
 "updated":"2013-11-21T11:01:04",
 "updatedby":100}, "children" : []},
 {"tablename" : "ad_element", "data" : {"ad_element_id":56615,
 "columnname":"AmtRevalDiff",
 "ad_client_id":0,
 "ad_org_id":0,
 "ad_reference_id":null,
 "ad_reference_value_id":null,
 "created":"2013-11-21T11:01:50",
 "createdby":100,
 "description":"Revaluation difference",
 "entitytype":"Open Items",
 "fieldlength":null,
 "help":null,
 "isactive":"Y",
 "name":"Revalue Diff",
 "po_description":null,
 "po_help":null,
 "po_name":null,
 "po_printname":null,
 "printname":"Revalue Diff",
 "updated":"2013-11-21T11:01:50",
 "updatedby":100}, "children" : []},
 {"tablename" : "ad_element", "data" : {"ad_element_id":57093,
 "columnname":"Delete",
 "ad_client_id":0,
 "ad_org_id":0,
 "ad_reference_id":null,
 "ad_reference_value_id":null,
 "created":"2014-03-19T17:13:03",
 "createdby":100,
 "description":"Delete the current item",
 "entitytype":"Open Items",
 "fieldlength":null,
 "help":null,
 "isactive":"Y",
 "name":"Delete",
 "po_description":null,
 "po_help":null,
 "po_name":null,
 "po_printname":null,
 "printname":"Delete",
 "updated":"2016-04-11T16:40:04",
 "updatedby":0}, "children" : []},
 {"tablename" : "ad_element", "data" : {"ad_element_id":57538,
 "columnname":"IsDebtorStatement",
 "ad_client_id":0,
 "ad_org_id":0,
 "ad_reference_id":null,
 "ad_reference_value_id":null,
 "created":"2014-11-07T17:40:12",
 "createdby":100,
 "description":null,
 "entitytype":"Open Items",
 "fieldlength":null,
 "help":null,
 "isactive":"Y",
 "name":"IsDebtorStatement",
 "po_description":null,
 "po_help":null,
 "po_name":null,
 "po_printname":null,
 "printname":"IsDebtorStatement",
 "updated":"2014-11-07T17:40:12",
 "updatedby":100}, "children" : []},
 {"tablename" : "ad_element", "data" : {"ad_element_id":57541,
 "columnname":"Remittance_Printed",
 "ad_client_id":0,
 "ad_org_id":0,
 "ad_reference_id":null,
 "ad_reference_value_id":null,
 "created":"2014-11-07T18:07:41",
 "createdby":100,
 "description":null,
 "entitytype":"Open Items",
 "fieldlength":null,
 "help":null,
 "isactive":"Y",
 "name":"Remittance_Printed",
 "po_description":null,
 "po_help":null,
 "po_name":null,
 "po_printname":null,
 "printname":"Remittance_Printed",
 "updated":"2014-11-07T18:07:41",
 "updatedby":100}, "children" : []},
 {"tablename" : "ad_element", "data" : {"ad_element_id":58027,
 "columnname":"CreateAllocation",
 "ad_client_id":0,
 "ad_org_id":0,
 "ad_reference_id":null,
 "ad_reference_value_id":null,
 "created":"2015-07-17T17:50:02",
 "createdby":100,
 "description":null,
 "entitytype":"Open Items",
 "fieldlength":null,
 "help":null,
 "isactive":"Y",
 "name":"Create Allocation",
 "po_description":null,
 "po_help":null,
 "po_name":null,
 "po_printname":null,
 "printname":"Create Allocation",
 "updated":"2015-07-17T17:50:02",
 "updatedby":100}, "children" : []}]