[{"tablename" : "ad_element", "data" : {"ad_element_id":53280,
 "columnname":"DateStart",
 "ad_client_id":0,
 "ad_org_id":0,
 "ad_reference_id":16,
 "ad_reference_value_id":null,
 "created":"2007-12-17T04:55:22",
 "createdby":0,
 "description":"Date Start for this Order",
 "entitytype":"Manufacturing Processes",
 "fieldlength":29,
 "help":null,
 "isactive":"Y",
 "name":"Date Start",
 "po_description":null,
 "po_help":null,
 "po_name":null,
 "po_printname":null,
 "printname":"Date Start",
 "updated":"2016-04-11T16:43:07",
 "updatedby":0}, "children" : []},
 {"tablename" : "ad_element", "data" : {"ad_element_id":56403,
 "columnname":"Month_0",
 "ad_client_id":0,
 "ad_org_id":0,
 "ad_reference_id":null,
 "ad_reference_value_id":null,
 "created":"2013-09-28T14:54:31",
 "createdby":100,
 "description":null,
 "entitytype":"Manufacturing Processes",
 "fieldlength":null,
 "help":null,
 "isactive":"Y",
 "name":"Month_0",
 "po_description":null,
 "po_help":null,
 "po_name":null,
 "po_printname":null,
 "printname":"Month_0",
 "updated":"2013-09-28T14:54:31",
 "updatedby":100}, "children" : []},
 {"tablename" : "ad_element", "data" : {"ad_element_id":56404,
 "columnname":"Month_1",
 "ad_client_id":0,
 "ad_org_id":0,
 "ad_reference_id":null,
 "ad_reference_value_id":null,
 "created":"2013-09-28T14:55:01",
 "createdby":100,
 "description":null,
 "entitytype":"Manufacturing Processes",
 "fieldlength":null,
 "help":null,
 "isactive":"Y",
 "name":"Month_1",
 "po_description":null,
 "po_help":null,
 "po_name":null,
 "po_printname":null,
 "printname":"Month_1",
 "updated":"2013-09-28T14:55:01",
 "updatedby":100}, "children" : []},
 {"tablename" : "ad_element", "data" : {"ad_element_id":56405,
 "columnname":"Month_2",
 "ad_client_id":0,
 "ad_org_id":0,
 "ad_reference_id":null,
 "ad_reference_value_id":null,
 "created":"2013-09-28T14:55:24",
 "createdby":100,
 "description":null,
 "entitytype":"Manufacturing Processes",
 "fieldlength":null,
 "help":null,
 "isactive":"Y",
 "name":"Month_2",
 "po_description":null,
 "po_help":null,
 "po_name":null,
 "po_printname":null,
 "printname":"Month_2",
 "updated":"2013-09-28T14:55:24",
 "updatedby":100}, "children" : []},
 {"tablename" : "ad_element", "data" : {"ad_element_id":56406,
 "columnname":"Month_3",
 "ad_client_id":0,
 "ad_org_id":0,
 "ad_reference_id":null,
 "ad_reference_value_id":null,
 "created":"2013-09-28T14:55:51",
 "createdby":100,
 "description":null,
 "entitytype":"Manufacturing Processes",
 "fieldlength":null,
 "help":null,
 "isactive":"Y",
 "name":"Month_3",
 "po_description":null,
 "po_help":null,
 "po_name":null,
 "po_printname":null,
 "printname":"Month_3",
 "updated":"2013-09-28T14:55:51",
 "updatedby":100}, "children" : []},
 {"tablename" : "ad_element", "data" : {"ad_element_id":56407,
 "columnname":"Month_4",
 "ad_client_id":0,
 "ad_org_id":0,
 "ad_reference_id":null,
 "ad_reference_value_id":null,
 "created":"2013-09-28T14:56:22",
 "createdby":100,
 "description":null,
 "entitytype":"Manufacturing Processes",
 "fieldlength":null,
 "help":null,
 "isactive":"Y",
 "name":"Month_4",
 "po_description":null,
 "po_help":null,
 "po_name":null,
 "po_printname":null,
 "printname":"Month_4",
 "updated":"2013-09-28T14:56:22",
 "updatedby":100}, "children" : []},
 {"tablename" : "ad_element", "data" : {"ad_element_id":56408,
 "columnname":"Month_5",
 "ad_client_id":0,
 "ad_org_id":0,
 "ad_reference_id":null,
 "ad_reference_value_id":null,
 "created":"2013-09-28T14:56:48",
 "createdby":100,
 "description":null,
 "entitytype":"Manufacturing Processes",
 "fieldlength":null,
 "help":null,
 "isactive":"Y",
 "name":"Month_5",
 "po_description":null,
 "po_help":null,
 "po_name":null,
 "po_printname":null,
 "printname":"Month_5",
 "updated":"2013-09-28T14:56:48",
 "updatedby":100}, "children" : []},
 {"tablename" : "ad_element", "data" : {"ad_element_id":56409,
 "columnname":"Month_6",
 "ad_client_id":0,
 "ad_org_id":0,
 "ad_reference_id":null,
 "ad_reference_value_id":null,
 "created":"2013-09-28T14:57:22",
 "createdby":100,
 "description":null,
 "entitytype":"Manufacturing Processes",
 "fieldlength":null,
 "help":null,
 "isactive":"Y",
 "name":"Month_6",
 "po_description":null,
 "po_help":null,
 "po_name":null,
 "po_printname":null,
 "printname":"Month_6",
 "updated":"2013-09-28T14:57:22",
 "updatedby":100}, "children" : []},
 {"tablename" : "ad_element", "data" : {"ad_element_id":56410,
 "columnname":"Month_7",
 "ad_client_id":0,
 "ad_org_id":0,
 "ad_reference_id":null,
 "ad_reference_value_id":null,
 "created":"2013-09-28T14:57:48",
 "createdby":100,
 "description":null,
 "entitytype":"Manufacturing Processes",
 "fieldlength":null,
 "help":null,
 "isactive":"Y",
 "name":"Month_7",
 "po_description":null,
 "po_help":null,
 "po_name":null,
 "po_printname":null,
 "printname":"Month_7",
 "updated":"2013-09-28T14:57:48",
 "updatedby":100}, "children" : []},
 {"tablename" : "ad_element", "data" : {"ad_element_id":56411,
 "columnname":"Month_8",
 "ad_client_id":0,
 "ad_org_id":0,
 "ad_reference_id":null,
 "ad_reference_value_id":null,
 "created":"2013-09-28T14:58:17",
 "createdby":100,
 "description":null,
 "entitytype":"Manufacturing Processes",
 "fieldlength":null,
 "help":null,
 "isactive":"Y",
 "name":"Month_8",
 "po_description":null,
 "po_help":null,
 "po_name":null,
 "po_printname":null,
 "printname":"Month_8",
 "updated":"2013-09-28T14:58:17",
 "updatedby":100}, "children" : []},
 {"tablename" : "ad_element", "data" : {"ad_element_id":56412,
 "columnname":"Month_9",
 "ad_client_id":0,
 "ad_org_id":0,
 "ad_reference_id":null,
 "ad_reference_value_id":null,
 "created":"2013-09-28T14:58:50",
 "createdby":100,
 "description":null,
 "entitytype":"Manufacturing Processes",
 "fieldlength":null,
 "help":null,
 "isactive":"Y",
 "name":"Month_9",
 "po_description":null,
 "po_help":null,
 "po_name":null,
 "po_printname":null,
 "printname":"Month_9",
 "updated":"2013-09-28T14:58:50",
 "updatedby":100}, "children" : []},
 {"tablename" : "ad_element", "data" : {"ad_element_id":56413,
 "columnname":"Month_10",
 "ad_client_id":0,
 "ad_org_id":0,
 "ad_reference_id":null,
 "ad_reference_value_id":null,
 "created":"2013-09-28T14:59:59",
 "createdby":100,
 "description":null,
 "entitytype":"Manufacturing Processes",
 "fieldlength":null,
 "help":null,
 "isactive":"Y",
 "name":"Month_10",
 "po_description":null,
 "po_help":null,
 "po_name":null,
 "po_printname":null,
 "printname":"Month_10",
 "updated":"2013-09-28T14:59:59",
 "updatedby":100}, "children" : []},
 {"tablename" : "ad_element", "data" : {"ad_element_id":56414,
 "columnname":"Month_11",
 "ad_client_id":0,
 "ad_org_id":0,
 "ad_reference_id":null,
 "ad_reference_value_id":null,
 "created":"2013-09-28T15:00:28",
 "createdby":100,
 "description":null,
 "entitytype":"Manufacturing Processes",
 "fieldlength":null,
 "help":null,
 "isactive":"Y",
 "name":"Month_11",
 "po_description":null,
 "po_help":null,
 "po_name":null,
 "po_printname":null,
 "printname":"Month_11",
 "updated":"2013-09-28T15:00:28",
 "updatedby":100}, "children" : []},
 {"tablename" : "ad_element", "data" : {"ad_element_id":56415,
 "columnname":"Total",
 "ad_client_id":0,
 "ad_org_id":0,
 "ad_reference_id":null,
 "ad_reference_value_id":null,
 "created":"2013-09-28T15:01:07",
 "createdby":100,
 "description":null,
 "entitytype":"Manufacturing Processes",
 "fieldlength":null,
 "help":null,
 "isactive":"Y",
 "name":"Total",
 "po_description":null,
 "po_help":null,
 "po_name":null,
 "po_printname":null,
 "printname":"Total",
 "updated":"2013-09-28T15:01:07",
 "updatedby":100}, "children" : []},
 {"tablename" : "ad_element", "data" : {"ad_element_id":56416,
 "columnname":"TotalValue",
 "ad_client_id":0,
 "ad_org_id":0,
 "ad_reference_id":null,
 "ad_reference_value_id":null,
 "created":"2013-09-28T15:01:42",
 "createdby":100,
 "description":null,
 "entitytype":"Manufacturing Processes",
 "fieldlength":null,
 "help":null,
 "isactive":"Y",
 "name":"TotalValue",
 "po_description":null,
 "po_help":null,
 "po_name":null,
 "po_printname":null,
 "printname":"TotalValue",
 "updated":"2013-09-28T15:01:42",
 "updatedby":100}, "children" : []},
 {"tablename" : "ad_element", "data" : {"ad_element_id":56417,
 "columnname":"Usage_3_Months",
 "ad_client_id":0,
 "ad_org_id":0,
 "ad_reference_id":null,
 "ad_reference_value_id":null,
 "created":"2013-09-28T15:02:18",
 "createdby":100,
 "description":null,
 "entitytype":"Manufacturing Processes",
 "fieldlength":null,
 "help":null,
 "isactive":"Y",
 "name":"Usage_3_Months",
 "po_description":null,
 "po_help":null,
 "po_name":null,
 "po_printname":null,
 "printname":"Usage_3_Months",
 "updated":"2013-09-28T15:02:18",
 "updatedby":100}, "children" : []},
 {"tablename" : "ad_element", "data" : {"ad_element_id":56418,
 "columnname":"Usage_6_Months",
 "ad_client_id":0,
 "ad_org_id":0,
 "ad_reference_id":null,
 "ad_reference_value_id":null,
 "created":"2013-09-28T15:02:47",
 "createdby":100,
 "description":null,
 "entitytype":"Manufacturing Processes",
 "fieldlength":null,
 "help":null,
 "isactive":"Y",
 "name":"Usage_6_Months",
 "po_description":null,
 "po_help":null,
 "po_name":null,
 "po_printname":null,
 "printname":"Usage_6_Months",
 "updated":"2013-09-28T15:02:47",
 "updatedby":100}, "children" : []},
 {"tablename" : "ad_element", "data" : {"ad_element_id":56419,
 "columnname":"Usage_12_Months",
 "ad_client_id":0,
 "ad_org_id":0,
 "ad_reference_id":null,
 "ad_reference_value_id":null,
 "created":"2013-09-28T15:03:14",
 "createdby":100,
 "description":null,
 "entitytype":"Manufacturing Processes",
 "fieldlength":null,
 "help":null,
 "isactive":"Y",
 "name":"Usage_12_Months",
 "po_description":null,
 "po_help":null,
 "po_name":null,
 "po_printname":null,
 "printname":"Usage_12_Months",
 "updated":"2013-09-28T15:03:14",
 "updatedby":100}, "children" : []},
 {"tablename" : "ad_element", "data" : {"ad_element_id":56420,
 "columnname":"Usage_18_Months",
 "ad_client_id":0,
 "ad_org_id":0,
 "ad_reference_id":null,
 "ad_reference_value_id":null,
 "created":"2013-09-28T15:03:49",
 "createdby":100,
 "description":null,
 "entitytype":"Manufacturing Processes",
 "fieldlength":null,
 "help":null,
 "isactive":"Y",
 "name":"Usage_18_Months",
 "po_description":null,
 "po_help":null,
 "po_name":null,
 "po_printname":null,
 "printname":"Usage_18_Months",
 "updated":"2013-09-28T15:03:49",
 "updatedby":100}, "children" : []},
 {"tablename" : "ad_element", "data" : {"ad_element_id":56421,
 "columnname":"Usage_24_Months",
 "ad_client_id":0,
 "ad_org_id":0,
 "ad_reference_id":null,
 "ad_reference_value_id":null,
 "created":"2013-09-28T15:04:24",
 "createdby":100,
 "description":null,
 "entitytype":"Manufacturing Processes",
 "fieldlength":null,
 "help":null,
 "isactive":"Y",
 "name":"Usage_24_Months",
 "po_description":null,
 "po_help":null,
 "po_name":null,
 "po_printname":null,
 "printname":"Usage_24_Months",
 "updated":"2013-09-28T15:04:24",
 "updatedby":100}, "children" : []},
 {"tablename" : "ad_element", "data" : {"ad_element_id":57374,
 "columnname":"RecordType",
 "ad_client_id":0,
 "ad_org_id":0,
 "ad_reference_id":null,
 "ad_reference_value_id":null,
 "created":"2014-08-01T14:43:23",
 "createdby":100,
 "description":null,
 "entitytype":"Manufacturing Processes",
 "fieldlength":null,
 "help":null,
 "isactive":"Y",
 "name":"RecordType",
 "po_description":null,
 "po_help":null,
 "po_name":null,
 "po_printname":null,
 "printname":"RecordType",
 "updated":"2016-04-11T16:43:11",
 "updatedby":0}, "children" : []},
 {"tablename" : "ad_element", "data" : {"ad_element_id":57375,
 "columnname":"Week1",
 "ad_client_id":0,
 "ad_org_id":0,
 "ad_reference_id":null,
 "ad_reference_value_id":null,
 "created":"2014-08-01T14:43:26",
 "createdby":100,
 "description":null,
 "entitytype":"Manufacturing Processes",
 "fieldlength":null,
 "help":null,
 "isactive":"Y",
 "name":"Week1",
 "po_description":null,
 "po_help":null,
 "po_name":null,
 "po_printname":null,
 "printname":"Week1",
 "updated":"2016-04-11T16:43:11",
 "updatedby":0}, "children" : []},
 {"tablename" : "ad_element", "data" : {"ad_element_id":57376,
 "columnname":"Week2",
 "ad_client_id":0,
 "ad_org_id":0,
 "ad_reference_id":null,
 "ad_reference_value_id":null,
 "created":"2014-08-01T14:43:29",
 "createdby":100,
 "description":null,
 "entitytype":"Manufacturing Processes",
 "fieldlength":null,
 "help":null,
 "isactive":"Y",
 "name":"Week2",
 "po_description":null,
 "po_help":null,
 "po_name":null,
 "po_printname":null,
 "printname":"Week2",
 "updated":"2016-04-11T16:43:15",
 "updatedby":0}, "children" : []},
 {"tablename" : "ad_element", "data" : {"ad_element_id":57377,
 "columnname":"Week3",
 "ad_client_id":0,
 "ad_org_id":0,
 "ad_reference_id":null,
 "ad_reference_value_id":null,
 "created":"2014-08-01T14:43:31",
 "createdby":100,
 "description":null,
 "entitytype":"Manufacturing Processes",
 "fieldlength":null,
 "help":null,
 "isactive":"Y",
 "name":"Week3",
 "po_description":null,
 "po_help":null,
 "po_name":null,
 "po_printname":null,
 "printname":"Week3",
 "updated":"2016-04-11T16:43:17",
 "updatedby":0}, "children" : []},
 {"tablename" : "ad_element", "data" : {"ad_element_id":57378,
 "columnname":"Week4",
 "ad_client_id":0,
 "ad_org_id":0,
 "ad_reference_id":null,
 "ad_reference_value_id":null,
 "created":"2014-08-01T14:43:33",
 "createdby":100,
 "description":null,
 "entitytype":"Manufacturing Processes",
 "fieldlength":null,
 "help":null,
 "isactive":"Y",
 "name":"Week4",
 "po_description":null,
 "po_help":null,
 "po_name":null,
 "po_printname":null,
 "printname":"Week4",
 "updated":"2016-04-11T16:43:18",
 "updatedby":0}, "children" : []},
 {"tablename" : "ad_element", "data" : {"ad_element_id":57379,
 "columnname":"Week5",
 "ad_client_id":0,
 "ad_org_id":0,
 "ad_reference_id":null,
 "ad_reference_value_id":null,
 "created":"2014-08-01T14:43:35",
 "createdby":100,
 "description":null,
 "entitytype":"Manufacturing Processes",
 "fieldlength":null,
 "help":null,
 "isactive":"Y",
 "name":"Week5",
 "po_description":null,
 "po_help":null,
 "po_name":null,
 "po_printname":null,
 "printname":"Week5",
 "updated":"2016-04-11T16:43:18",
 "updatedby":0}, "children" : []},
 {"tablename" : "ad_element", "data" : {"ad_element_id":57380,
 "columnname":"Week6",
 "ad_client_id":0,
 "ad_org_id":0,
 "ad_reference_id":null,
 "ad_reference_value_id":null,
 "created":"2014-08-01T14:43:37",
 "createdby":100,
 "description":null,
 "entitytype":"Manufacturing Processes",
 "fieldlength":null,
 "help":null,
 "isactive":"Y",
 "name":"Week6",
 "po_description":null,
 "po_help":null,
 "po_name":null,
 "po_printname":null,
 "printname":"Week6",
 "updated":"2016-04-11T16:43:19",
 "updatedby":0}, "children" : []},
 {"tablename" : "ad_element", "data" : {"ad_element_id":57381,
 "columnname":"Week7",
 "ad_client_id":0,
 "ad_org_id":0,
 "ad_reference_id":null,
 "ad_reference_value_id":null,
 "created":"2014-08-01T14:43:40",
 "createdby":100,
 "description":null,
 "entitytype":"Manufacturing Processes",
 "fieldlength":null,
 "help":null,
 "isactive":"Y",
 "name":"Week7",
 "po_description":null,
 "po_help":null,
 "po_name":null,
 "po_printname":null,
 "printname":"Week7",
 "updated":"2016-04-11T16:43:19",
 "updatedby":0}, "children" : []},
 {"tablename" : "ad_element", "data" : {"ad_element_id":57382,
 "columnname":"Week8",
 "ad_client_id":0,
 "ad_org_id":0,
 "ad_reference_id":null,
 "ad_reference_value_id":null,
 "created":"2014-08-01T14:43:42",
 "createdby":100,
 "description":null,
 "entitytype":"Manufacturing Processes",
 "fieldlength":null,
 "help":null,
 "isactive":"Y",
 "name":"Week8",
 "po_description":null,
 "po_help":null,
 "po_name":null,
 "po_printname":null,
 "printname":"Week8",
 "updated":"2016-04-11T16:43:19",
 "updatedby":0}, "children" : []},
 {"tablename" : "ad_element", "data" : {"ad_element_id":57383,
 "columnname":"Week9",
 "ad_client_id":0,
 "ad_org_id":0,
 "ad_reference_id":null,
 "ad_reference_value_id":null,
 "created":"2014-08-01T14:43:44",
 "createdby":100,
 "description":null,
 "entitytype":"Manufacturing Processes",
 "fieldlength":null,
 "help":null,
 "isactive":"Y",
 "name":"Week9",
 "po_description":null,
 "po_help":null,
 "po_name":null,
 "po_printname":null,
 "printname":"Week9",
 "updated":"2016-04-11T16:43:20",
 "updatedby":0}, "children" : []},
 {"tablename" : "ad_element", "data" : {"ad_element_id":57384,
 "columnname":"Week10",
 "ad_client_id":0,
 "ad_org_id":0,
 "ad_reference_id":null,
 "ad_reference_value_id":null,
 "created":"2014-08-01T14:43:47",
 "createdby":100,
 "description":null,
 "entitytype":"Manufacturing Processes",
 "fieldlength":null,
 "help":null,
 "isactive":"Y",
 "name":"Week10",
 "po_description":null,
 "po_help":null,
 "po_name":null,
 "po_printname":null,
 "printname":"Week10",
 "updated":"2016-04-11T16:43:11",
 "updatedby":0}, "children" : []},
 {"tablename" : "ad_element", "data" : {"ad_element_id":57385,
 "columnname":"Week11",
 "ad_client_id":0,
 "ad_org_id":0,
 "ad_reference_id":null,
 "ad_reference_value_id":null,
 "created":"2014-08-01T14:43:49",
 "createdby":100,
 "description":null,
 "entitytype":"Manufacturing Processes",
 "fieldlength":null,
 "help":null,
 "isactive":"Y",
 "name":"Week11",
 "po_description":null,
 "po_help":null,
 "po_name":null,
 "po_printname":null,
 "printname":"Week11",
 "updated":"2016-04-11T16:43:12",
 "updatedby":0}, "children" : []},
 {"tablename" : "ad_element", "data" : {"ad_element_id":57386,
 "columnname":"Week12",
 "ad_client_id":0,
 "ad_org_id":0,
 "ad_reference_id":null,
 "ad_reference_value_id":null,
 "created":"2014-08-01T14:43:52",
 "createdby":100,
 "description":null,
 "entitytype":"Manufacturing Processes",
 "fieldlength":null,
 "help":null,
 "isactive":"Y",
 "name":"Week12",
 "po_description":null,
 "po_help":null,
 "po_name":null,
 "po_printname":null,
 "printname":"Week12",
 "updated":"2016-04-11T16:43:12",
 "updatedby":0}, "children" : []},
 {"tablename" : "ad_element", "data" : {"ad_element_id":57387,
 "columnname":"Week13",
 "ad_client_id":0,
 "ad_org_id":0,
 "ad_reference_id":null,
 "ad_reference_value_id":null,
 "created":"2014-08-01T14:43:54",
 "createdby":100,
 "description":null,
 "entitytype":"Manufacturing Processes",
 "fieldlength":null,
 "help":null,
 "isactive":"Y",
 "name":"Week13",
 "po_description":null,
 "po_help":null,
 "po_name":null,
 "po_printname":null,
 "printname":"Week13",
 "updated":"2016-04-11T16:43:12",
 "updatedby":0}, "children" : []},
 {"tablename" : "ad_element", "data" : {"ad_element_id":57388,
 "columnname":"Week14",
 "ad_client_id":0,
 "ad_org_id":0,
 "ad_reference_id":null,
 "ad_reference_value_id":null,
 "created":"2014-08-01T14:43:57",
 "createdby":100,
 "description":null,
 "entitytype":"Manufacturing Processes",
 "fieldlength":null,
 "help":null,
 "isactive":"Y",
 "name":"Week14",
 "po_description":null,
 "po_help":null,
 "po_name":null,
 "po_printname":null,
 "printname":"Week14",
 "updated":"2016-04-11T16:43:13",
 "updatedby":0}, "children" : []},
 {"tablename" : "ad_element", "data" : {"ad_element_id":57389,
 "columnname":"Week15",
 "ad_client_id":0,
 "ad_org_id":0,
 "ad_reference_id":null,
 "ad_reference_value_id":null,
 "created":"2014-08-01T14:43:59",
 "createdby":100,
 "description":null,
 "entitytype":"Manufacturing Processes",
 "fieldlength":null,
 "help":null,
 "isactive":"Y",
 "name":"Week15",
 "po_description":null,
 "po_help":null,
 "po_name":null,
 "po_printname":null,
 "printname":"Week15",
 "updated":"2016-04-11T16:43:13",
 "updatedby":0}, "children" : []},
 {"tablename" : "ad_element", "data" : {"ad_element_id":57390,
 "columnname":"Week16",
 "ad_client_id":0,
 "ad_org_id":0,
 "ad_reference_id":null,
 "ad_reference_value_id":null,
 "created":"2014-08-01T14:44:01",
 "createdby":100,
 "description":null,
 "entitytype":"Manufacturing Processes",
 "fieldlength":null,
 "help":null,
 "isactive":"Y",
 "name":"Week16",
 "po_description":null,
 "po_help":null,
 "po_name":null,
 "po_printname":null,
 "printname":"Week16",
 "updated":"2016-04-11T16:43:14",
 "updatedby":0}, "children" : []},
 {"tablename" : "ad_element", "data" : {"ad_element_id":57391,
 "columnname":"Week17",
 "ad_client_id":0,
 "ad_org_id":0,
 "ad_reference_id":null,
 "ad_reference_value_id":null,
 "created":"2014-08-01T14:44:04",
 "createdby":100,
 "description":null,
 "entitytype":"Manufacturing Processes",
 "fieldlength":null,
 "help":null,
 "isactive":"Y",
 "name":"Week17",
 "po_description":null,
 "po_help":null,
 "po_name":null,
 "po_printname":null,
 "printname":"Week17",
 "updated":"2016-04-11T16:43:14",
 "updatedby":0}, "children" : []},
 {"tablename" : "ad_element", "data" : {"ad_element_id":57392,
 "columnname":"Week18",
 "ad_client_id":0,
 "ad_org_id":0,
 "ad_reference_id":null,
 "ad_reference_value_id":null,
 "created":"2014-08-01T14:44:06",
 "createdby":100,
 "description":null,
 "entitytype":"Manufacturing Processes",
 "fieldlength":null,
 "help":null,
 "isactive":"Y",
 "name":"Week18",
 "po_description":null,
 "po_help":null,
 "po_name":null,
 "po_printname":null,
 "printname":"Week18",
 "updated":"2016-04-11T16:43:14",
 "updatedby":0}, "children" : []},
 {"tablename" : "ad_element", "data" : {"ad_element_id":57393,
 "columnname":"Week19",
 "ad_client_id":0,
 "ad_org_id":0,
 "ad_reference_id":null,
 "ad_reference_value_id":null,
 "created":"2014-08-01T14:44:08",
 "createdby":100,
 "description":null,
 "entitytype":"Manufacturing Processes",
 "fieldlength":null,
 "help":null,
 "isactive":"Y",
 "name":"Week19",
 "po_description":null,
 "po_help":null,
 "po_name":null,
 "po_printname":null,
 "printname":"Week19",
 "updated":"2016-04-11T16:43:15",
 "updatedby":0}, "children" : []},
 {"tablename" : "ad_element", "data" : {"ad_element_id":57394,
 "columnname":"Week20",
 "ad_client_id":0,
 "ad_org_id":0,
 "ad_reference_id":null,
 "ad_reference_value_id":null,
 "created":"2014-08-01T14:44:11",
 "createdby":100,
 "description":null,
 "entitytype":"Manufacturing Processes",
 "fieldlength":null,
 "help":null,
 "isactive":"Y",
 "name":"Week20",
 "po_description":null,
 "po_help":null,
 "po_name":null,
 "po_printname":null,
 "printname":"Week20",
 "updated":"2016-04-11T16:43:16",
 "updatedby":0}, "children" : []},
 {"tablename" : "ad_element", "data" : {"ad_element_id":57395,
 "columnname":"Week21",
 "ad_client_id":0,
 "ad_org_id":0,
 "ad_reference_id":null,
 "ad_reference_value_id":null,
 "created":"2014-08-01T14:44:14",
 "createdby":100,
 "description":null,
 "entitytype":"Manufacturing Processes",
 "fieldlength":null,
 "help":null,
 "isactive":"Y",
 "name":"Week21",
 "po_description":null,
 "po_help":null,
 "po_name":null,
 "po_printname":null,
 "printname":"Week21",
 "updated":"2016-04-11T16:43:16",
 "updatedby":0}, "children" : []},
 {"tablename" : "ad_element", "data" : {"ad_element_id":57396,
 "columnname":"Week22",
 "ad_client_id":0,
 "ad_org_id":0,
 "ad_reference_id":null,
 "ad_reference_value_id":null,
 "created":"2014-08-01T14:44:17",
 "createdby":100,
 "description":null,
 "entitytype":"Manufacturing Processes",
 "fieldlength":null,
 "help":null,
 "isactive":"Y",
 "name":"Week22",
 "po_description":null,
 "po_help":null,
 "po_name":null,
 "po_printname":null,
 "printname":"Week22",
 "updated":"2016-04-11T16:43:16",
 "updatedby":0}, "children" : []},
 {"tablename" : "ad_element", "data" : {"ad_element_id":57397,
 "columnname":"Week24",
 "ad_client_id":0,
 "ad_org_id":0,
 "ad_reference_id":null,
 "ad_reference_value_id":null,
 "created":"2014-08-01T14:44:20",
 "createdby":100,
 "description":null,
 "entitytype":"Manufacturing Processes",
 "fieldlength":null,
 "help":null,
 "isactive":"Y",
 "name":"Week24",
 "po_description":null,
 "po_help":null,
 "po_name":null,
 "po_printname":null,
 "printname":"Week24",
 "updated":"2016-04-11T16:43:17",
 "updatedby":0}, "children" : []},
 {"tablename" : "ad_element", "data" : {"ad_element_id":57398,
 "columnname":"Week23",
 "ad_client_id":0,
 "ad_org_id":0,
 "ad_reference_id":null,
 "ad_reference_value_id":null,
 "created":"2014-08-01T14:44:23",
 "createdby":100,
 "description":null,
 "entitytype":"Manufacturing Processes",
 "fieldlength":null,
 "help":null,
 "isactive":"Y",
 "name":"Week23",
 "po_description":null,
 "po_help":null,
 "po_name":null,
 "po_printname":null,
 "printname":"Week23",
 "updated":"2016-04-11T16:43:17",
 "updatedby":0}, "children" : []},
 {"tablename" : "ad_element", "data" : {"ad_element_id":58006,
 "columnname":"MRP_Run_ID",
 "ad_client_id":0,
 "ad_org_id":0,
 "ad_reference_id":null,
 "ad_reference_value_id":null,
 "created":"2015-06-02T13:25:29",
 "createdby":100,
 "description":null,
 "entitytype":"Manufacturing Processes",
 "fieldlength":null,
 "help":null,
 "isactive":"Y",
 "name":"MRP_Run ID",
 "po_description":null,
 "po_help":null,
 "po_name":null,
 "po_printname":null,
 "printname":"MRP_Run ID",
 "updated":"2016-04-11T16:43:03",
 "updatedby":0}, "children" : []},
 {"tablename" : "ad_element", "data" : {"ad_element_id":58007,
 "columnname":"GenerateReport",
 "ad_client_id":0,
 "ad_org_id":0,
 "ad_reference_id":null,
 "ad_reference_value_id":null,
 "created":"2015-06-02T13:25:43",
 "createdby":100,
 "description":null,
 "entitytype":"Manufacturing Processes",
 "fieldlength":null,
 "help":null,
 "isactive":"Y",
 "name":"Generate Report",
 "po_description":null,
 "po_help":null,
 "po_name":null,
 "po_printname":null,
 "printname":"Generate Report",
 "updated":"2015-06-02T13:25:43",
 "updatedby":100}, "children" : []},
 {"tablename" : "ad_element", "data" : {"ad_element_id":58008,
 "columnname":"MRP_RunLine_ID",
 "ad_client_id":0,
 "ad_org_id":0,
 "ad_reference_id":null,
 "ad_reference_value_id":null,
 "created":"2015-06-02T13:25:52",
 "createdby":100,
 "description":null,
 "entitytype":"Manufacturing Processes",
 "fieldlength":null,
 "help":null,
 "isactive":"Y",
 "name":"MRP_RunLine ID",
 "po_description":null,
 "po_help":null,
 "po_name":null,
 "po_printname":null,
 "printname":"MRP_RunLine ID",
 "updated":"2016-04-11T16:43:09",
 "updatedby":0}, "children" : []},
 {"tablename" : "ad_element", "data" : {"ad_element_id":58022,
 "columnname":"OrderInfo",
 "ad_client_id":0,
 "ad_org_id":0,
 "ad_reference_id":null,
 "ad_reference_value_id":null,
 "created":"2015-06-29T17:50:43",
 "createdby":100,
 "description":null,
 "entitytype":"Manufacturing Processes",
 "fieldlength":null,
 "help":null,
 "isactive":"Y",
 "name":"Order Info",
 "po_description":null,
 "po_help":null,
 "po_name":null,
 "po_printname":null,
 "printname":"Order Info",
 "updated":"2015-06-29T17:50:43",
 "updatedby":100}, "children" : []},
 {"tablename" : "ad_element", "data" : {"ad_element_id":58023,
 "columnname":"ProductionInfo",
 "ad_client_id":0,
 "ad_org_id":0,
 "ad_reference_id":null,
 "ad_reference_value_id":null,
 "created":"2015-06-29T17:56:39",
 "createdby":100,
 "description":null,
 "entitytype":"Manufacturing Processes",
 "fieldlength":null,
 "help":null,
 "isactive":"Y",
 "name":"Production Info",
 "po_description":null,
 "po_help":null,
 "po_name":null,
 "po_printname":null,
 "printname":"Production Info",
 "updated":"2015-06-29T17:56:39",
 "updatedby":100}, "children" : []},
 {"tablename" : "ad_element", "data" : {"ad_element_id":58334,
 "columnname":"IsDeleteUnconfirmedProduction",
 "ad_client_id":0,
 "ad_org_id":0,
 "ad_reference_id":null,
 "ad_reference_value_id":null,
 "created":"2015-10-13T15:38:55",
 "createdby":100,
 "description":null,
 "entitytype":"Manufacturing Processes",
 "fieldlength":null,
 "help":null,
 "isactive":"Y",
 "name":"Delete Unconfirmed Production",
 "po_description":null,
 "po_help":null,
 "po_name":null,
 "po_printname":null,
 "printname":"Delete Unconfirmed Production",
 "updated":"2015-10-13T15:38:55",
 "updatedby":100}, "children" : []},
 {"tablename" : "ad_element", "data" : {"ad_element_id":58348,
 "columnname":"IsDeletePlannedPO",
 "ad_client_id":0,
 "ad_org_id":0,
 "ad_reference_id":null,
 "ad_reference_value_id":null,
 "created":"2015-10-28T13:59:31",
 "createdby":100,
 "description":null,
 "entitytype":"Manufacturing Processes",
 "fieldlength":null,
 "help":null,
 "isactive":"Y",
 "name":"Delete Planned Purchase Orders",
 "po_description":null,
 "po_help":null,
 "po_name":null,
 "po_printname":null,
 "printname":"Delete Planned Purchase Orders",
 "updated":"2015-10-28T13:59:31",
 "updatedby":100}, "children" : []},
 {"tablename" : "ad_element", "data" : {"ad_element_id":58367,
 "columnname":"PlannedProductionReport",
 "ad_client_id":0,
 "ad_org_id":0,
 "ad_reference_id":null,
 "ad_reference_value_id":null,
 "created":"2016-01-06T17:12:02",
 "createdby":100,
 "description":null,
 "entitytype":"Manufacturing Processes",
 "fieldlength":0,
 "help":null,
 "isactive":"Y",
 "name":"Generate Planned Production Report",
 "po_description":null,
 "po_help":null,
 "po_name":null,
 "po_printname":null,
 "printname":"Generate Planned Production Report",
 "updated":"2016-01-06T17:12:02",
 "updatedby":100}, "children" : []},
 {"tablename" : "ad_element", "data" : {"ad_element_id":58368,
 "columnname":"SuggestedRequisitionReport",
 "ad_client_id":0,
 "ad_org_id":0,
 "ad_reference_id":null,
 "ad_reference_value_id":null,
 "created":"2016-01-06T17:12:54",
 "createdby":100,
 "description":null,
 "entitytype":"Manufacturing Processes",
 "fieldlength":0,
 "help":null,
 "isactive":"Y",
 "name":"Generate Suggested Requisition Report",
 "po_description":null,
 "po_help":null,
 "po_name":null,
 "po_printname":null,
 "printname":"Generate Suggested Requisition Report",
 "updated":"2016-01-06T17:12:54",
 "updatedby":100}, "children" : []},
 {"tablename" : "ad_element", "data" : {"ad_element_id":58372,
 "columnname":"HasSupplyDemand",
 "ad_client_id":0,
 "ad_org_id":0,
 "ad_reference_id":20,
 "ad_reference_value_id":null,
 "created":"2016-01-08T09:29:40",
 "createdby":0,
 "description":"This product has supply or demand in the current MRP run.",
 "entitytype":"Manufacturing Processes",
 "fieldlength":1,
 "help":null,
 "isactive":"Y",
 "name":"Has Supply/Demand",
 "po_description":null,
 "po_help":null,
 "po_name":null,
 "po_printname":null,
 "printname":"Has Supply/Demand",
 "updated":"2016-01-08T09:29:40",
 "updatedby":0}, "children" : []},
 {"tablename" : "ad_element", "data" : {"ad_element_id":58638,
 "columnname":"ChartCapacity",
 "ad_client_id":0,
 "ad_org_id":0,
 "ad_reference_id":53370,
 "ad_reference_value_id":null,
 "created":"2016-05-13T17:12:27",
 "createdby":100,
 "description":null,
 "entitytype":"Manufacturing Processes",
 "fieldlength":0,
 "help":null,
 "isactive":"Y",
 "name":"Chart Capacity",
 "po_description":null,
 "po_help":null,
 "po_name":null,
 "po_printname":null,
 "printname":"Chart Capacity",
 "updated":"2016-07-01T00:51:56",
 "updatedby":0}, "children" : []},
 {"tablename" : "ad_element", "data" : {"ad_element_id":58932,
 "columnname":"C_DocType_PlannedOrder_ID",
 "ad_client_id":0,
 "ad_org_id":0,
 "ad_reference_id":18,
 "ad_reference_value_id":170,
 "created":"2016-06-03T11:09:43",
 "createdby":100,
 "description":null,
 "entitytype":"Manufacturing Processes",
 "fieldlength":0,
 "help":null,
 "isactive":"Y",
 "name":"Planned Mfg Order Doc Type",
 "po_description":null,
 "po_help":null,
 "po_name":null,
 "po_printname":null,
 "printname":"Planned Mfg Order Doc Type",
 "updated":"2019-02-04T13:38:48",
 "updatedby":0}, "children" : []},
 {"tablename" : "ad_element", "data" : {"ad_element_id":58933,
 "columnname":"C_DocType_MRPRequisition_ID",
 "ad_client_id":0,
 "ad_org_id":0,
 "ad_reference_id":18,
 "ad_reference_value_id":170,
 "created":"2016-06-03T11:12:05",
 "createdby":100,
 "description":null,
 "entitytype":"Manufacturing Processes",
 "fieldlength":0,
 "help":null,
 "isactive":"Y",
 "name":"MRP Requisition Doc Type",
 "po_description":null,
 "po_help":null,
 "po_name":null,
 "po_printname":null,
 "printname":"MRP Requisition Doc Type",
 "updated":"2019-02-04T13:38:48",
 "updatedby":0}, "children" : []},
 {"tablename" : "ad_element", "data" : {"ad_element_id":58934,
 "columnname":"C_DocType_PO_ID",
 "ad_client_id":0,
 "ad_org_id":0,
 "ad_reference_id":18,
 "ad_reference_value_id":170,
 "created":"2016-06-03T11:12:42",
 "createdby":100,
 "description":null,
 "entitytype":"Manufacturing Processes",
 "fieldlength":0,
 "help":null,
 "isactive":"Y",
 "name":"Purchase Order Doc Type",
 "po_description":null,
 "po_help":null,
 "po_name":null,
 "po_printname":null,
 "printname":"Purchase Order Doc Type",
 "updated":"2019-02-04T13:38:48",
 "updatedby":0}, "children" : []},
 {"tablename" : "ad_element", "data" : {"ad_element_id":58935,
 "columnname":"C_DocType_ConfirmedOrder_ID",
 "ad_client_id":0,
 "ad_org_id":0,
 "ad_reference_id":18,
 "ad_reference_value_id":170,
 "created":"2016-06-03T11:13:40",
 "createdby":100,
 "description":null,
 "entitytype":"Manufacturing Processes",
 "fieldlength":0,
 "help":null,
 "isactive":"Y",
 "name":"Confirmed Mfg Order Doc Type",
 "po_description":null,
 "po_help":null,
 "po_name":null,
 "po_printname":null,
 "printname":"Confirmed Mfg Order Doc Type",
 "updated":"2019-02-04T13:38:48",
 "updatedby":0}, "children" : []},
 {"tablename" : "ad_element", "data" : {"ad_element_id":58936,
 "columnname":"MRPInitialSetup",
 "ad_client_id":0,
 "ad_org_id":0,
 "ad_reference_id":28,
 "ad_reference_value_id":null,
 "created":"2016-06-03T18:08:57",
 "createdby":100,
 "description":null,
 "entitytype":"Manufacturing Processes",
 "fieldlength":1,
 "help":null,
 "isactive":"Y",
 "name":"MRP Initial Setup",
 "po_description":null,
 "po_help":null,
 "po_name":null,
 "po_printname":null,
 "printname":"MRP Initial Setup",
 "updated":"2016-07-01T00:52:06",
 "updatedby":0}, "children" : []},
 {"tablename" : "ad_element", "data" : {"ad_element_id":59199,
 "columnname":"IsExcludeKanbanProduct",
 "ad_client_id":0,
 "ad_org_id":0,
 "ad_reference_id":20,
 "ad_reference_value_id":null,
 "created":"2017-02-13T14:29:43",
 "createdby":100,
 "description":null,
 "entitytype":"Manufacturing Processes",
 "fieldlength":1,
 "help":null,
 "isactive":"Y",
 "name":"Exclude Kanban Product",
 "po_description":null,
 "po_help":null,
 "po_name":null,
 "po_printname":null,
 "printname":"Exclude Kanban Product",
 "updated":"2017-02-13T14:29:43",
 "updatedby":100}, "children" : []},
 {"tablename" : "ad_element", "data" : {"ad_element_id":59200,
 "columnname":"AggregateRequisition",
 "ad_client_id":0,
 "ad_org_id":0,
 "ad_reference_id":17,
 "ad_reference_value_id":53868,
 "created":"2017-02-13T15:33:03",
 "createdby":100,
 "description":null,
 "entitytype":"Manufacturing Processes",
 "fieldlength":1,
 "help":null,
 "isactive":"Y",
 "name":"Aggregate Requisition",
 "po_description":null,
 "po_help":null,
 "po_name":null,
 "po_printname":null,
 "printname":"Aggregate Requisition",
 "updated":"2017-02-13T15:33:03",
 "updatedby":100}, "children" : []},
 {"tablename" : "ad_element", "data" : {"ad_element_id":59201,
 "columnname":"AggregateReqByPeriod",
 "ad_client_id":0,
 "ad_org_id":0,
 "ad_reference_id":17,
 "ad_reference_value_id":53869,
 "created":"2017-02-13T15:34:05",
 "createdby":100,
 "description":"Aggregate Requisition Into Period",
 "entitytype":"Manufacturing Processes",
 "fieldlength":1,
 "help":null,
 "isactive":"Y",
 "name":"Aggregate Requisition By Period",
 "po_description":null,
 "po_help":null,
 "po_name":null,
 "po_printname":null,
 "printname":"Aggregate Requisition By Period",
 "updated":"2017-02-13T15:34:05",
 "updatedby":100}, "children" : []},
 {"tablename" : "ad_element", "data" : {"ad_element_id":59266,
 "columnname":"ChartCumulatedCapacity",
 "ad_client_id":0,
 "ad_org_id":0,
 "ad_reference_id":53370,
 "ad_reference_value_id":null,
 "created":"2017-03-15T16:46:43",
 "createdby":100,
 "description":null,
 "entitytype":"Manufacturing Processes",
 "fieldlength":0,
 "help":null,
 "isactive":"Y",
 "name":"Chart Cumulated Capacity",
 "po_description":null,
 "po_help":null,
 "po_name":null,
 "po_printname":null,
 "printname":"Chart Cumulated Capacity",
 "updated":"2017-03-15T16:46:43",
 "updatedby":100}, "children" : []},
 {"tablename" : "ad_element", "data" : {"ad_element_id":59327,
 "columnname":"CapacityReport",
 "ad_client_id":0,
 "ad_org_id":0,
 "ad_reference_id":null,
 "ad_reference_value_id":null,
 "created":"2017-04-12T18:49:59",
 "createdby":100,
 "description":null,
 "entitytype":"Manufacturing Processes",
 "fieldlength":0,
 "help":null,
 "isactive":"Y",
 "name":"Capacity Report",
 "po_description":null,
 "po_help":null,
 "po_name":null,
 "po_printname":null,
 "printname":"Capacity Report",
 "updated":"2017-04-12T18:49:59",
 "updatedby":100}, "children" : []}]