[{"tablename" : "ad_element", "data" : {"ad_element_id":400015,
 "columnname":"Carrier_Product_ID",
 "ad_client_id":0,
 "ad_org_id":0,
 "ad_reference_id":30,
 "ad_reference_value_id":null,
 "created":"2024-03-21T16:47:41",
 "createdby":100,
 "description":null,
 "entitytype":"JTT",
 "fieldlength":0,
 "help":null,
 "isactive":"Y",
 "name":"Carrier Product",
 "po_description":null,
 "po_help":null,
 "po_name":null,
 "po_printname":null,
 "printname":"Carrier Product",
 "updated":"2024-03-21T16:47:41",
 "updatedby":100}, "children" : []},
 {"tablename" : "ad_element", "data" : {"ad_element_id":400016,
 "columnname":"IsCarrierProduct",
 "ad_client_id":0,
 "ad_org_id":0,
 "ad_reference_id":20,
 "ad_reference_value_id":null,
 "created":"2024-03-21T16:53:24",
 "createdby":100,
 "description":null,
 "entitytype":"JTT",
 "fieldlength":1,
 "help":null,
 "isactive":"Y",
 "name":"Is Carrier",
 "po_description":null,
 "po_help":null,
 "po_name":null,
 "po_printname":null,
 "printname":"Is Carrier",
 "updated":"2024-03-21T16:53:24",
 "updatedby":100}, "children" : []},
 {"tablename" : "ad_element", "data" : {"ad_element_id":400017,
 "columnname":"CreateItineraryPL",
 "ad_client_id":0,
 "ad_org_id":0,
 "ad_reference_id":28,
 "ad_reference_value_id":null,
 "created":"2024-03-21T17:45:22",
 "createdby":100,
 "description":null,
 "entitytype":"JTT",
 "fieldlength":1,
 "help":null,
 "isactive":"Y",
 "name":"Create Itinerary PL",
 "po_description":null,
 "po_help":null,
 "po_name":null,
 "po_printname":null,
 "printname":"Create Itinerary PL",
 "updated":"2024-03-21T17:45:22",
 "updatedby":100}, "children" : []},
 {"tablename" : "ad_element", "data" : {"ad_element_id":400018,
 "columnname":"VVehHrs",
 "ad_client_id":0,
 "ad_org_id":0,
 "ad_reference_id":12,
 "ad_reference_value_id":null,
 "created":"2024-03-22T12:53:37",
 "createdby":100,
 "description":null,
 "entitytype":"JTT",
 "fieldlength":22,
 "help":null,
 "isactive":"Y",
 "name":"Veh Hrs",
 "po_description":null,
 "po_help":null,
 "po_name":null,
 "po_printname":null,
 "printname":"Veh Hrs",
 "updated":"2024-03-22T12:53:37",
 "updatedby":100}, "children" : []},
 {"tablename" : "ad_element", "data" : {"ad_element_id":400023,
 "columnname":"Cost_PriceList_ID",
 "ad_client_id":0,
 "ad_org_id":0,
 "ad_reference_id":18,
 "ad_reference_value_id":166,
 "created":"2024-03-22T15:21:03",
 "createdby":100,
 "description":null,
 "entitytype":"JTT",
 "fieldlength":22,
 "help":null,
 "isactive":"Y",
 "name":"Cost PriceList",
 "po_description":null,
 "po_help":null,
 "po_name":null,
 "po_printname":null,
 "printname":"Cost PriceList",
 "updated":"2024-03-22T15:21:03",
 "updatedby":100}, "children" : []},
 {"tablename" : "ad_element", "data" : {"ad_element_id":400024,
 "columnname":"DateTripStart",
 "ad_client_id":0,
 "ad_org_id":0,
 "ad_reference_id":16,
 "ad_reference_value_id":null,
 "created":"2024-03-22T15:32:10",
 "createdby":100,
 "description":null,
 "entitytype":"JTT",
 "fieldlength":22,
 "help":null,
 "isactive":"Y",
 "name":"Trip Start Date",
 "po_description":null,
 "po_help":null,
 "po_name":null,
 "po_printname":null,
 "printname":"Trip Start Date",
 "updated":"2024-03-22T15:32:10",
 "updatedby":100}, "children" : []},
 {"tablename" : "ad_element", "data" : {"ad_element_id":400025,
 "columnname":"DateTripEnd",
 "ad_client_id":0,
 "ad_org_id":0,
 "ad_reference_id":16,
 "ad_reference_value_id":null,
 "created":"2024-03-22T15:32:38",
 "createdby":100,
 "description":null,
 "entitytype":"JTT",
 "fieldlength":22,
 "help":null,
 "isactive":"Y",
 "name":"Trip End Date",
 "po_description":null,
 "po_help":null,
 "po_name":null,
 "po_printname":null,
 "printname":"Trip End Date",
 "updated":"2024-03-22T15:32:38",
 "updatedby":100}, "children" : []},
 {"tablename" : "ad_element", "data" : {"ad_element_id":400026,
 "columnname":"NoOfPassenger",
 "ad_client_id":0,
 "ad_org_id":0,
 "ad_reference_id":11,
 "ad_reference_value_id":null,
 "created":"2024-03-22T15:33:45",
 "createdby":100,
 "description":null,
 "entitytype":"JTT",
 "fieldlength":22,
 "help":null,
 "isactive":"Y",
 "name":"No of Passengers",
 "po_description":null,
 "po_help":null,
 "po_name":null,
 "po_printname":null,
 "printname":"No of Passengers",
 "updated":"2024-03-22T15:33:45",
 "updatedby":100}, "children" : []},
 {"tablename" : "ad_element", "data" : {"ad_element_id":400027,
 "columnname":"CopyQuote",
 "ad_client_id":0,
 "ad_org_id":0,
 "ad_reference_id":28,
 "ad_reference_value_id":null,
 "created":"2024-03-22T15:34:59",
 "createdby":100,
 "description":null,
 "entitytype":"JTT",
 "fieldlength":1,
 "help":null,
 "isactive":"Y",
 "name":"Copy Quote",
 "po_description":null,
 "po_help":null,
 "po_name":null,
 "po_printname":null,
 "printname":"Copy Quote",
 "updated":"2024-03-22T15:34:59",
 "updatedby":100}, "children" : []},
 {"tablename" : "ad_element", "data" : {"ad_element_id":400028,
 "columnname":"S_ResourceTypeBP_ID",
 "ad_client_id":0,
 "ad_org_id":0,
 "ad_reference_id":null,
 "ad_reference_value_id":null,
 "created":"2024-04-08T11:44:43",
 "createdby":100,
 "description":null,
 "entitytype":"JTT",
 "fieldlength":null,
 "help":null,
 "isactive":"Y",
 "name":"BPartner Resource Type ID",
 "po_description":null,
 "po_help":null,
 "po_name":null,
 "po_printname":null,
 "printname":"BPartner Resource Type ID",
 "updated":"2024-04-08T11:44:43",
 "updatedby":100}, "children" : []},
 {"tablename" : "ad_element", "data" : {"ad_element_id":400029,
 "columnname":"Req_ResourceType_ID",
 "ad_client_id":0,
 "ad_org_id":0,
 "ad_reference_id":18,
 "ad_reference_value_id":400005,
 "created":"2024-04-08T15:51:21",
 "createdby":100,
 "description":null,
 "entitytype":"JTT",
 "fieldlength":22,
 "help":null,
 "isactive":"Y",
 "name":"Req Resource Type",
 "po_description":null,
 "po_help":null,
 "po_name":null,
 "po_printname":null,
 "printname":"Req Resource Type",
 "updated":"2024-04-08T15:51:28",
 "updatedby":100}, "children" : []},
 {"tablename" : "ad_element", "data" : {"ad_element_id":400030,
 "columnname":"QuoteAction",
 "ad_client_id":0,
 "ad_org_id":0,
 "ad_reference_id":28,
 "ad_reference_value_id":null,
 "created":"2024-04-08T17:32:39",
 "createdby":100,
 "description":null,
 "entitytype":"JTT",
 "fieldlength":1,
 "help":null,
 "isactive":"Y",
 "name":"Quote Action",
 "po_description":null,
 "po_help":null,
 "po_name":null,
 "po_printname":null,
 "printname":"Quote Action",
 "updated":"2024-04-08T17:32:39",
 "updatedby":100}, "children" : []},
 {"tablename" : "ad_element", "data" : {"ad_element_id":400031,
 "columnname":"CreateChildQuote",
 "ad_client_id":0,
 "ad_org_id":0,
 "ad_reference_id":28,
 "ad_reference_value_id":null,
 "created":"2024-04-15T10:29:33",
 "createdby":100,
 "description":null,
 "entitytype":"JTT",
 "fieldlength":1,
 "help":null,
 "isactive":"Y",
 "name":"Create Child Quote",
 "po_description":null,
 "po_help":null,
 "po_name":null,
 "po_printname":null,
 "printname":"Create Child Quote",
 "updated":"2024-04-15T10:29:33",
 "updatedby":100}, "children" : []},
 {"tablename" : "ad_element", "data" : {"ad_element_id":400032,
 "columnname":"Parent_Order_ID",
 "ad_client_id":0,
 "ad_org_id":0,
 "ad_reference_id":30,
 "ad_reference_value_id":290,
 "created":"2024-04-16T13:35:20",
 "createdby":100,
 "description":null,
 "entitytype":"JTT",
 "fieldlength":22,
 "help":null,
 "isactive":"Y",
 "name":"Parent Order",
 "po_description":null,
 "po_help":null,
 "po_name":null,
 "po_printname":null,
 "printname":"Parent Order",
 "updated":"2024-04-16T13:35:20",
 "updatedby":100}, "children" : []},
 {"tablename" : "ad_element", "data" : {"ad_element_id":400034,
 "columnname":"CopyQuoteLeg",
 "ad_client_id":0,
 "ad_org_id":0,
 "ad_reference_id":28,
 "ad_reference_value_id":null,
 "created":"2024-04-22T17:02:09",
 "createdby":100,
 "description":null,
 "entitytype":"JTT",
 "fieldlength":1,
 "help":null,
 "isactive":"Y",
 "name":"Copy Quote Leg",
 "po_description":null,
 "po_help":null,
 "po_name":null,
 "po_printname":null,
 "printname":"Copy Quote Leg",
 "updated":"2024-04-22T17:02:09",
 "updatedby":100}, "children" : []},
 {"tablename" : "ad_element", "data" : {"ad_element_id":400035,
 "columnname":"JourneyTime",
 "ad_client_id":0,
 "ad_org_id":0,
 "ad_reference_id":29,
 "ad_reference_value_id":null,
 "created":"2024-04-23T10:51:09",
 "createdby":100,
 "description":null,
 "entitytype":"JTT",
 "fieldlength":22,
 "help":null,
 "isactive":"Y",
 "name":"Journey Time",
 "po_description":null,
 "po_help":null,
 "po_name":null,
 "po_printname":null,
 "printname":"Journey Time",
 "updated":"2024-04-23T10:51:09",
 "updatedby":100}, "children" : []},
 {"tablename" : "ad_element", "data" : {"ad_element_id":400037,
 "columnname":"PSAdult",
 "ad_client_id":0,
 "ad_org_id":0,
 "ad_reference_id":11,
 "ad_reference_value_id":null,
 "created":"2024-05-01T12:12:24",
 "createdby":100,
 "description":null,
 "entitytype":"JTT",
 "fieldlength":22,
 "help":null,
 "isactive":"Y",
 "name":"Ps Adult",
 "po_description":null,
 "po_help":null,
 "po_name":null,
 "po_printname":null,
 "printname":"Ps Adult",
 "updated":"2024-05-01T12:12:24",
 "updatedby":100}, "children" : []},
 {"tablename" : "ad_element", "data" : {"ad_element_id":400038,
 "columnname":"PSChild",
 "ad_client_id":0,
 "ad_org_id":0,
 "ad_reference_id":11,
 "ad_reference_value_id":null,
 "created":"2024-05-01T12:13:01",
 "createdby":100,
 "description":null,
 "entitytype":"JTT",
 "fieldlength":22,
 "help":null,
 "isactive":"Y",
 "name":"Ps Child",
 "po_description":null,
 "po_help":null,
 "po_name":null,
 "po_printname":null,
 "printname":"Ps Child",
 "updated":"2024-05-01T12:13:01",
 "updatedby":100}, "children" : []},
 {"tablename" : "ad_element", "data" : {"ad_element_id":400039,
 "columnname":"PSEscort",
 "ad_client_id":0,
 "ad_org_id":0,
 "ad_reference_id":11,
 "ad_reference_value_id":null,
 "created":"2024-05-01T12:13:24",
 "createdby":100,
 "description":null,
 "entitytype":"JTT",
 "fieldlength":22,
 "help":null,
 "isactive":"Y",
 "name":"Ps Escort",
 "po_description":null,
 "po_help":null,
 "po_name":null,
 "po_printname":null,
 "printname":"Ps Escort",
 "updated":"2024-05-01T12:13:24",
 "updatedby":100}, "children" : []},
 {"tablename" : "ad_element", "data" : {"ad_element_id":400040,
 "columnname":"PsStatus",
 "ad_client_id":0,
 "ad_org_id":0,
 "ad_reference_id":17,
 "ad_reference_value_id":400008,
 "created":"2024-05-01T13:37:03",
 "createdby":100,
 "description":null,
 "entitytype":"JTT",
 "fieldlength":1,
 "help":null,
 "isactive":"Y",
 "name":"Ps Status",
 "po_description":null,
 "po_help":null,
 "po_name":null,
 "po_printname":null,
 "printname":"Ps Status",
 "updated":"2024-05-01T13:37:03",
 "updatedby":100}, "children" : []},
 {"tablename" : "ad_element", "data" : {"ad_element_id":400041,
 "columnname":"CreateAEFPL",
 "ad_client_id":0,
 "ad_org_id":0,
 "ad_reference_id":28,
 "ad_reference_value_id":null,
 "created":"2024-05-01T14:29:02",
 "createdby":100,
 "description":null,
 "entitytype":"JTT",
 "fieldlength":1,
 "help":null,
 "isactive":"Y",
 "name":"Create A&EF PL",
 "po_description":null,
 "po_help":null,
 "po_name":null,
 "po_printname":null,
 "printname":"Create A&EF PL",
 "updated":"2024-05-01T14:29:02",
 "updatedby":100}, "children" : []},
 {"tablename" : "ad_element", "data" : {"ad_element_id":400042,
 "columnname":"CreateAEFOrderLine",
 "ad_client_id":0,
 "ad_org_id":0,
 "ad_reference_id":28,
 "ad_reference_value_id":null,
 "created":"2024-05-02T09:58:06",
 "createdby":100,
 "description":null,
 "entitytype":"JTT",
 "fieldlength":1,
 "help":null,
 "isactive":"Y",
 "name":"Create A&EF Line",
 "po_description":null,
 "po_help":null,
 "po_name":null,
 "po_printname":null,
 "printname":"Create A&EF Line",
 "updated":"2024-05-02T09:58:06",
 "updatedby":100}, "children" : []},
 {"tablename" : "ad_element", "data" : {"ad_element_id":400043,
 "columnname":"OQAdult",
 "ad_client_id":0,
 "ad_org_id":0,
 "ad_reference_id":11,
 "ad_reference_value_id":null,
 "created":"2024-05-03T08:29:25",
 "createdby":100,
 "description":null,
 "entitytype":"JTT",
 "fieldlength":22,
 "help":null,
 "isactive":"Y",
 "name":"OQ Adult",
 "po_description":null,
 "po_help":null,
 "po_name":null,
 "po_printname":null,
 "printname":"OQ Adult",
 "updated":"2024-05-03T08:29:25",
 "updatedby":100}, "children" : []},
 {"tablename" : "ad_element", "data" : {"ad_element_id":400044,
 "columnname":"OQChild",
 "ad_client_id":0,
 "ad_org_id":0,
 "ad_reference_id":11,
 "ad_reference_value_id":null,
 "created":"2024-05-03T08:29:47",
 "createdby":100,
 "description":null,
 "entitytype":"JTT",
 "fieldlength":22,
 "help":null,
 "isactive":"Y",
 "name":"OQ Child",
 "po_description":null,
 "po_help":null,
 "po_name":null,
 "po_printname":null,
 "printname":"OQ Child",
 "updated":"2024-05-03T08:29:47",
 "updatedby":100}, "children" : []},
 {"tablename" : "ad_element", "data" : {"ad_element_id":400045,
 "columnname":"OQEscort",
 "ad_client_id":0,
 "ad_org_id":0,
 "ad_reference_id":11,
 "ad_reference_value_id":null,
 "created":"2024-05-03T08:31:08",
 "createdby":100,
 "description":null,
 "entitytype":"JTT",
 "fieldlength":22,
 "help":null,
 "isactive":"Y",
 "name":"OQ Escort",
 "po_description":null,
 "po_help":null,
 "po_name":null,
 "po_printname":null,
 "printname":"OQ Escort",
 "updated":"2024-05-03T08:31:08",
 "updatedby":100}, "children" : []},
 {"tablename" : "ad_element", "data" : {"ad_element_id":400047,
 "columnname":"JTT_PCCRHeader_ID",
 "ad_client_id":0,
 "ad_org_id":0,
 "ad_reference_id":null,
 "ad_reference_value_id":null,
 "created":"2024-05-07T11:10:30",
 "createdby":100,
 "description":null,
 "entitytype":"JTT",
 "fieldlength":null,
 "help":null,
 "isactive":"Y",
 "name":"PCCR Header",
 "po_description":null,
 "po_help":null,
 "po_name":null,
 "po_printname":null,
 "printname":"PCCR Header",
 "updated":"2024-05-07T11:57:21",
 "updatedby":100}, "children" : []},
 {"tablename" : "ad_element", "data" : {"ad_element_id":400048,
 "columnname":"JTT_PCCRLine_ID",
 "ad_client_id":0,
 "ad_org_id":0,
 "ad_reference_id":null,
 "ad_reference_value_id":null,
 "created":"2024-05-07T11:19:05",
 "createdby":100,
 "description":null,
 "entitytype":"JTT",
 "fieldlength":null,
 "help":null,
 "isactive":"Y",
 "name":"Packaged Tour",
 "po_description":null,
 "po_help":null,
 "po_name":null,
 "po_printname":null,
 "printname":"Packaged Tour",
 "updated":"2024-05-07T15:21:02",
 "updatedby":100}, "children" : []},
 {"tablename" : "ad_element", "data" : {"ad_element_id":400049,
 "columnname":"VSRMINI",
 "ad_client_id":0,
 "ad_org_id":0,
 "ad_reference_id":12,
 "ad_reference_value_id":null,
 "created":"2024-05-07T11:40:20",
 "createdby":100,
 "description":"Rate for Mini Vehicle",
 "entitytype":"JTT",
 "fieldlength":22,
 "help":null,
 "isactive":"Y",
 "name":"Small",
 "po_description":null,
 "po_help":null,
 "po_name":null,
 "po_printname":null,
 "printname":"Small",
 "updated":"2024-05-07T11:41:42",
 "updatedby":100}, "children" : []},
 {"tablename" : "ad_element", "data" : {"ad_element_id":400050,
 "columnname":"VSRL",
 "ad_client_id":0,
 "ad_org_id":0,
 "ad_reference_id":12,
 "ad_reference_value_id":null,
 "created":"2024-05-07T11:41:34",
 "createdby":100,
 "description":"Rate for Large Vehicle",
 "entitytype":"JTT",
 "fieldlength":22,
 "help":null,
 "isactive":"Y",
 "name":"Large",
 "po_description":null,
 "po_help":null,
 "po_name":null,
 "po_printname":null,
 "printname":"Large",
 "updated":"2024-05-07T11:41:38",
 "updatedby":100}, "children" : []},
 {"tablename" : "ad_element", "data" : {"ad_element_id":400051,
 "columnname":"PackagedPrice",
 "ad_client_id":0,
 "ad_org_id":0,
 "ad_reference_id":12,
 "ad_reference_value_id":null,
 "created":"2024-05-07T15:22:18",
 "createdby":100,
 "description":null,
 "entitytype":"JTT",
 "fieldlength":22,
 "help":null,
 "isactive":"Y",
 "name":"Published Price",
 "po_description":null,
 "po_help":null,
 "po_name":null,
 "po_printname":null,
 "printname":"Published Price",
 "updated":"2024-05-10T10:52:39",
 "updatedby":100}, "children" : []},
 {"tablename" : "ad_element", "data" : {"ad_element_id":400052,
 "columnname":"Seed_OrderLine_ID",
 "ad_client_id":0,
 "ad_org_id":0,
 "ad_reference_id":30,
 "ad_reference_value_id":271,
 "created":"2024-05-08T16:06:41",
 "createdby":100,
 "description":null,
 "entitytype":"JTT",
 "fieldlength":22,
 "help":null,
 "isactive":"Y",
 "name":"Seed Leg",
 "po_description":null,
 "po_help":null,
 "po_name":null,
 "po_printname":null,
 "printname":"Seed Leg",
 "updated":"2024-05-08T16:06:41",
 "updatedby":100}, "children" : []},
 {"tablename" : "ad_element", "data" : {"ad_element_id":400053,
 "columnname":"JTT_VMPlan_ID",
 "ad_client_id":0,
 "ad_org_id":0,
 "ad_reference_id":null,
 "ad_reference_value_id":null,
 "created":"2024-05-14T09:30:28",
 "createdby":100,
 "description":null,
 "entitytype":"JTT",
 "fieldlength":null,
 "help":null,
 "isactive":"Y",
 "name":"Veh Maint. Plan",
 "po_description":null,
 "po_help":null,
 "po_name":null,
 "po_printname":null,
 "printname":"Veh Maint. Plan",
 "updated":"2024-05-14T11:11:53",
 "updatedby":100}, "children" : []},
 {"tablename" : "ad_element", "data" : {"ad_element_id":400054,
 "columnname":"JTT_VMPlanSchedule_ID",
 "ad_client_id":0,
 "ad_org_id":0,
 "ad_reference_id":null,
 "ad_reference_value_id":null,
 "created":"2024-05-14T09:31:05",
 "createdby":100,
 "description":null,
 "entitytype":"JTT",
 "fieldlength":null,
 "help":null,
 "isactive":"Y",
 "name":"Veh Maint. Plan Schedule",
 "po_description":null,
 "po_help":null,
 "po_name":null,
 "po_printname":null,
 "printname":"Veh Maint. Plan Schedule",
 "updated":"2024-05-14T13:09:18",
 "updatedby":100}, "children" : []},
 {"tablename" : "ad_element", "data" : {"ad_element_id":400055,
 "columnname":"JTT_VMPlanAssignment_ID",
 "ad_client_id":0,
 "ad_org_id":0,
 "ad_reference_id":null,
 "ad_reference_value_id":null,
 "created":"2024-05-14T09:33:39",
 "createdby":100,
 "description":null,
 "entitytype":"JTT",
 "fieldlength":null,
 "help":null,
 "isactive":"Y",
 "name":"Veh Maint. Plan Assignment ID",
 "po_description":null,
 "po_help":null,
 "po_name":null,
 "po_printname":null,
 "printname":"Veh Maint. Plan Assignment ID",
 "updated":"2024-05-14T09:33:39",
 "updatedby":100}, "children" : []},
 {"tablename" : "ad_element", "data" : {"ad_element_id":400056,
 "columnname":"IntervalKM",
 "ad_client_id":0,
 "ad_org_id":0,
 "ad_reference_id":11,
 "ad_reference_value_id":null,
 "created":"2024-05-14T09:51:40",
 "createdby":100,
 "description":"Must set to 0 if Interval in Months takes precedence",
 "entitytype":"JTT",
 "fieldlength":22,
 "help":null,
 "isactive":"Y",
 "name":"Interval KM",
 "po_description":null,
 "po_help":null,
 "po_name":null,
 "po_printname":null,
 "printname":"Interval KM",
 "updated":"2024-05-14T09:53:49",
 "updatedby":100}, "children" : []},
 {"tablename" : "ad_element", "data" : {"ad_element_id":400057,
 "columnname":"IntervalMo",
 "ad_client_id":0,
 "ad_org_id":0,
 "ad_reference_id":null,
 "ad_reference_value_id":null,
 "created":"2024-05-14T09:52:49",
 "createdby":100,
 "description":null,
 "entitytype":"JTT",
 "fieldlength":0,
 "help":null,
 "isactive":"Y",
 "name":"Interval in Months",
 "po_description":null,
 "po_help":null,
 "po_name":null,
 "po_printname":null,
 "printname":"Interval in Months",
 "updated":"2024-05-14T09:52:49",
 "updatedby":100}, "children" : []},
 {"tablename" : "ad_element", "data" : {"ad_element_id":400058,
 "columnname":"AltGroup",
 "ad_client_id":0,
 "ad_org_id":0,
 "ad_reference_id":10,
 "ad_reference_value_id":null,
 "created":"2024-05-14T09:56:41",
 "createdby":100,
 "description":"Must set to particular name if this maint. schedule can be replaced if it overlaps with another schedule of the same group",
 "entitytype":"JTT",
 "fieldlength":10,
 "help":null,
 "isactive":"Y",
 "name":"Alt Group",
 "po_description":null,
 "po_help":null,
 "po_name":null,
 "po_printname":null,
 "printname":"Alt Group",
 "updated":"2024-05-14T09:56:41",
 "updatedby":100}, "children" : []},
 {"tablename" : "ad_element", "data" : {"ad_element_id":400059,
 "columnname":"Assign",
 "ad_client_id":0,
 "ad_org_id":0,
 "ad_reference_id":28,
 "ad_reference_value_id":null,
 "created":"2024-05-14T11:30:15",
 "createdby":100,
 "description":null,
 "entitytype":"JTT",
 "fieldlength":1,
 "help":null,
 "isactive":"Y",
 "name":"Assign",
 "po_description":null,
 "po_help":null,
 "po_name":null,
 "po_printname":null,
 "printname":"Assign",
 "updated":"2024-05-14T11:30:22",
 "updatedby":100}, "children" : []},
 {"tablename" : "ad_element", "data" : {"ad_element_id":400060,
 "columnname":"JTT_VMSvcSchedule_ID",
 "ad_client_id":0,
 "ad_org_id":0,
 "ad_reference_id":null,
 "ad_reference_value_id":null,
 "created":"2024-05-14T11:36:56",
 "createdby":100,
 "description":null,
 "entitytype":"JTT",
 "fieldlength":null,
 "help":null,
 "isactive":"Y",
 "name":"Veh Maint Svc Schedule ID",
 "po_description":null,
 "po_help":null,
 "po_name":null,
 "po_printname":null,
 "printname":"Veh Maint Svc Schedule ID",
 "updated":"2024-05-14T11:36:56",
 "updatedby":100}, "children" : []},
 {"tablename" : "ad_element", "data" : {"ad_element_id":400061,
 "columnname":"ExpiryKM",
 "ad_client_id":0,
 "ad_org_id":0,
 "ad_reference_id":11,
 "ad_reference_value_id":null,
 "created":"2024-05-14T11:41:59",
 "createdby":100,
 "description":null,
 "entitytype":"JTT",
 "fieldlength":22,
 "help":null,
 "isactive":"Y",
 "name":"Expiry KM",
 "po_description":null,
 "po_help":null,
 "po_name":null,
 "po_printname":null,
 "printname":"Expiry KM",
 "updated":"2024-05-14T11:41:59",
 "updatedby":100}, "children" : []},
 {"tablename" : "ad_element", "data" : {"ad_element_id":400062,
 "columnname":"WarningKM",
 "ad_client_id":0,
 "ad_org_id":0,
 "ad_reference_id":11,
 "ad_reference_value_id":null,
 "created":"2024-05-14T11:42:20",
 "createdby":100,
 "description":null,
 "entitytype":"JTT",
 "fieldlength":22,
 "help":null,
 "isactive":"Y",
 "name":"Warning KM",
 "po_description":null,
 "po_help":null,
 "po_name":null,
 "po_printname":null,
 "printname":"Warning KM",
 "updated":"2024-05-14T11:42:20",
 "updatedby":100}, "children" : []},
 {"tablename" : "ad_element", "data" : {"ad_element_id":400063,
 "columnname":"WarningNoDay",
 "ad_client_id":0,
 "ad_org_id":0,
 "ad_reference_id":11,
 "ad_reference_value_id":null,
 "created":"2024-05-14T11:44:20",
 "createdby":100,
 "description":"No of days before due date to warn",
 "entitytype":"JTT",
 "fieldlength":22,
 "help":null,
 "isactive":"Y",
 "name":"Warning No Day",
 "po_description":null,
 "po_help":null,
 "po_name":null,
 "po_printname":null,
 "printname":"Warning No Day",
 "updated":"2024-05-14T11:44:20",
 "updatedby":100}, "children" : []},
 {"tablename" : "ad_element", "data" : {"ad_element_id":400064,
 "columnname":"ExpiryDate",
 "ad_client_id":0,
 "ad_org_id":0,
 "ad_reference_id":15,
 "ad_reference_value_id":null,
 "created":"2024-05-14T11:45:46",
 "createdby":100,
 "description":"Date when Vehicle is due for service",
 "entitytype":"JTT",
 "fieldlength":22,
 "help":null,
 "isactive":"Y",
 "name":"Expiry Date",
 "po_description":null,
 "po_help":null,
 "po_name":null,
 "po_printname":null,
 "printname":"Expiry Date",
 "updated":"2024-05-14T11:46:02",
 "updatedby":100}, "children" : []},
 {"tablename" : "ad_element", "data" : {"ad_element_id":400065,
 "columnname":"KMReading",
 "ad_client_id":0,
 "ad_org_id":0,
 "ad_reference_id":11,
 "ad_reference_value_id":null,
 "created":"2024-05-14T11:51:08",
 "createdby":100,
 "description":null,
 "entitytype":"JTT",
 "fieldlength":22,
 "help":null,
 "isactive":"Y",
 "name":"KM Reading",
 "po_description":null,
 "po_help":null,
 "po_name":null,
 "po_printname":null,
 "printname":"KM Reading",
 "updated":"2024-05-14T11:51:08",
 "updatedby":100}, "children" : []},
 {"tablename" : "ad_element", "data" : {"ad_element_id":400066,
 "columnname":"ActualSvcDate",
 "ad_client_id":0,
 "ad_org_id":0,
 "ad_reference_id":15,
 "ad_reference_value_id":null,
 "created":"2024-05-14T11:52:03",
 "createdby":100,
 "description":null,
 "entitytype":"JTT",
 "fieldlength":22,
 "help":null,
 "isactive":"Y",
 "name":"Actual Service Date",
 "po_description":null,
 "po_help":null,
 "po_name":null,
 "po_printname":null,
 "printname":"Actual Service Date",
 "updated":"2024-05-14T11:52:03",
 "updatedby":100}, "children" : []},
 {"tablename" : "ad_element", "data" : {"ad_element_id":400067,
 "columnname":"VMPerformedBy",
 "ad_client_id":0,
 "ad_org_id":0,
 "ad_reference_id":18,
 "ad_reference_value_id":252,
 "created":"2024-05-14T11:56:28",
 "createdby":100,
 "description":null,
 "entitytype":"JTT",
 "fieldlength":22,
 "help":null,
 "isactive":"Y",
 "name":"Veh Maint Performed By",
 "po_description":null,
 "po_help":null,
 "po_name":null,
 "po_printname":null,
 "printname":"Veh Maint Performed By",
 "updated":"2024-05-14T11:56:28",
 "updatedby":100}, "children" : []},
 {"tablename" : "ad_element", "data" : {"ad_element_id":400068,
 "columnname":"JTT_VMVehReading_ID",
 "ad_client_id":0,
 "ad_org_id":0,
 "ad_reference_id":null,
 "ad_reference_value_id":null,
 "created":"2024-05-14T12:05:58",
 "createdby":100,
 "description":null,
 "entitytype":"JTT",
 "fieldlength":null,
 "help":null,
 "isactive":"Y",
 "name":"VM Veh Reading",
 "po_description":null,
 "po_help":null,
 "po_name":null,
 "po_printname":null,
 "printname":"VM Veh Reading",
 "updated":"2024-05-14T12:06:46",
 "updatedby":100}, "children" : []},
 {"tablename" : "ad_element", "data" : {"ad_element_id":400069,
 "columnname":"VehKMSource",
 "ad_client_id":0,
 "ad_org_id":0,
 "ad_reference_id":17,
 "ad_reference_value_id":400012,
 "created":"2024-05-14T12:09:51",
 "createdby":100,
 "description":"source of KM reading - Fuel, Job or Tele",
 "entitytype":"JTT",
 "fieldlength":1,
 "help":null,
 "isactive":"Y",
 "name":"Veh KM Reading Src",
 "po_description":null,
 "po_help":null,
 "po_name":null,
 "po_printname":null,
 "printname":"Veh KM Reading Src",
 "updated":"2024-05-14T12:09:51",
 "updatedby":100}, "children" : []},
 {"tablename" : "ad_element", "data" : {"ad_element_id":400070,
 "columnname":"WarningDate",
 "ad_client_id":0,
 "ad_org_id":0,
 "ad_reference_id":15,
 "ad_reference_value_id":null,
 "created":"2024-05-14T13:10:46",
 "createdby":100,
 "description":null,
 "entitytype":"JTT",
 "fieldlength":22,
 "help":null,
 "isactive":"Y",
 "name":"Warning Date",
 "po_description":null,
 "po_help":null,
 "po_name":null,
 "po_printname":null,
 "printname":"Warning Date",
 "updated":"2024-05-14T13:10:46",
 "updatedby":100}, "children" : []},
 {"tablename" : "ad_element", "data" : {"ad_element_id":400071,
 "columnname":"IsAssigned",
 "ad_client_id":0,
 "ad_org_id":0,
 "ad_reference_id":20,
 "ad_reference_value_id":null,
 "created":"2024-05-14T18:17:27",
 "createdby":100,
 "description":null,
 "entitytype":"JTT",
 "fieldlength":1,
 "help":null,
 "isactive":"Y",
 "name":"Assigned",
 "po_description":null,
 "po_help":null,
 "po_name":null,
 "po_printname":null,
 "printname":"Assigned",
 "updated":"2024-05-14T18:17:27",
 "updatedby":100}, "children" : []},
 {"tablename" : "ad_element", "data" : {"ad_element_id":400072,
 "columnname":"VSRMIDI",
 "ad_client_id":0,
 "ad_org_id":0,
 "ad_reference_id":12,
 "ad_reference_value_id":null,
 "created":"2024-05-17T13:29:29",
 "createdby":100,
 "description":"Rate for Medium Vehicle",
 "entitytype":"JTT",
 "fieldlength":22,
 "help":null,
 "isactive":"Y",
 "name":"Medium",
 "po_description":null,
 "po_help":null,
 "po_name":null,
 "po_printname":null,
 "printname":"Medium",
 "updated":"2024-05-17T13:29:29",
 "updatedby":100}, "children" : []},
 {"tablename" : "ad_element", "data" : {"ad_element_id":400073,
 "columnname":"InclPackTour",
 "ad_client_id":0,
 "ad_org_id":0,
 "ad_reference_id":28,
 "ad_reference_value_id":null,
 "created":"2024-05-17T15:58:11",
 "createdby":100,
 "description":null,
 "entitytype":"JTT",
 "fieldlength":1,
 "help":null,
 "isactive":"Y",
 "name":"Incl Packaged Tour",
 "po_description":null,
 "po_help":null,
 "po_name":null,
 "po_printname":null,
 "printname":"Incl Packaged Tour",
 "updated":"2024-05-17T15:58:11",
 "updatedby":100}, "children" : []},
 {"tablename" : "ad_element", "data" : {"ad_element_id":400074,
 "columnname":"IsFixPrice",
 "ad_client_id":0,
 "ad_org_id":0,
 "ad_reference_id":20,
 "ad_reference_value_id":null,
 "created":"2024-05-20T15:48:32",
 "createdby":100,
 "description":null,
 "entitytype":"JTT",
 "fieldlength":1,
 "help":null,
 "isactive":"Y",
 "name":"Fix Price",
 "po_description":null,
 "po_help":null,
 "po_name":null,
 "po_printname":null,
 "printname":"Fix Price",
 "updated":"2024-05-20T15:48:32",
 "updatedby":100}, "children" : []},
 {"tablename" : "ad_element", "data" : {"ad_element_id":1000061,
 "columnname":"JTT_VehicleSize_ID",
 "ad_client_id":0,
 "ad_org_id":0,
 "ad_reference_id":null,
 "ad_reference_value_id":null,
 "created":"2024-03-21T11:01:43",
 "createdby":100,
 "description":null,
 "entitytype":"JTT",
 "fieldlength":null,
 "help":null,
 "isactive":"Y",
 "name":"Vehicle Size",
 "po_description":null,
 "po_help":null,
 "po_name":null,
 "po_printname":null,
 "printname":"Vehicle Size",
 "updated":"2024-03-22T16:01:06",
 "updatedby":100}, "children" : []},
 {"tablename" : "ad_element", "data" : {"ad_element_id":1000062,
 "columnname":"SeatsMax",
 "ad_client_id":0,
 "ad_org_id":0,
 "ad_reference_id":22,
 "ad_reference_value_id":null,
 "created":"2024-03-21T11:03:38",
 "createdby":100,
 "description":null,
 "entitytype":"JTT",
 "fieldlength":22,
 "help":null,
 "isactive":"Y",
 "name":"Max Pax",
 "po_description":null,
 "po_help":null,
 "po_name":null,
 "po_printname":null,
 "printname":"Max Pax",
 "updated":"2024-03-21T11:03:38",
 "updatedby":100}, "children" : []},
 {"tablename" : "ad_element", "data" : {"ad_element_id":1000063,
 "columnname":"IsOffRoad",
 "ad_client_id":0,
 "ad_org_id":0,
 "ad_reference_id":20,
 "ad_reference_value_id":null,
 "created":"2024-03-21T11:15:31",
 "createdby":100,
 "description":null,
 "entitytype":"JTT",
 "fieldlength":1,
 "help":null,
 "isactive":"Y",
 "name":"Off Road",
 "po_description":null,
 "po_help":null,
 "po_name":null,
 "po_printname":null,
 "printname":"Off Road",
 "updated":"2024-03-21T11:15:31",
 "updatedby":100}, "children" : []},
 {"tablename" : "ad_element", "data" : {"ad_element_id":1000065,
 "columnname":"LumpSum",
 "ad_client_id":0,
 "ad_org_id":0,
 "ad_reference_id":12,
 "ad_reference_value_id":null,
 "created":"2024-04-29T09:37:32",
 "createdby":100,
 "description":null,
 "entitytype":"JTT",
 "fieldlength":22,
 "help":null,
 "isactive":"Y",
 "name":"Lump Sum",
 "po_description":null,
 "po_help":null,
 "po_name":null,
 "po_printname":null,
 "printname":"Lump Sum",
 "updated":"2024-04-29T13:38:35",
 "updatedby":100}, "children" : []},
 {"tablename" : "ad_element", "data" : {"ad_element_id":1000069,
 "columnname":"JTT_CustTypeID",
 "ad_client_id":0,
 "ad_org_id":0,
 "ad_reference_id":null,
 "ad_reference_value_id":null,
 "created":"2024-06-06T18:18:20",
 "createdby":100,
 "description":null,
 "entitytype":"JTT",
 "fieldlength":null,
 "help":null,
 "isactive":"Y",
 "name":"Customer Type ID",
 "po_description":null,
 "po_help":null,
 "po_name":null,
 "po_printname":null,
 "printname":"Customer Type ID",
 "updated":"2024-06-06T18:18:20",
 "updatedby":100}, "children" : []},
 {"tablename" : "ad_element", "data" : {"ad_element_id":1000071,
 "columnname":"Colour",
 "ad_client_id":0,
 "ad_org_id":0,
 "ad_reference_id":22,
 "ad_reference_value_id":null,
 "created":"2024-06-06T18:20:45",
 "createdby":100,
 "description":null,
 "entitytype":"JTT",
 "fieldlength":null,
 "help":null,
 "isactive":"Y",
 "name":"Colour",
 "po_description":null,
 "po_help":null,
 "po_name":null,
 "po_printname":null,
 "printname":"Colour",
 "updated":"2024-06-14T09:21:30",
 "updatedby":100}, "children" : []},
 {"tablename" : "ad_element", "data" : {"ad_element_id":1000072,
 "columnname":"JTT_CustomerType_ID",
 "ad_client_id":0,
 "ad_org_id":0,
 "ad_reference_id":null,
 "ad_reference_value_id":null,
 "created":"2024-06-06T18:26:40",
 "createdby":100,
 "description":null,
 "entitytype":"JTT",
 "fieldlength":null,
 "help":null,
 "isactive":"Y",
 "name":"Customer Type",
 "po_description":null,
 "po_help":null,
 "po_name":null,
 "po_printname":null,
 "printname":"Customer Type",
 "updated":"2024-06-14T09:13:38",
 "updatedby":100}, "children" : []},
 {"tablename" : "ad_element", "data" : {"ad_element_id":1000073,
 "columnname":"JTT_ItineraryDetail",
 "ad_client_id":0,
 "ad_org_id":0,
 "ad_reference_id":14,
 "ad_reference_value_id":null,
 "created":"2024-06-11T13:15:14",
 "createdby":100,
 "description":"Details of Itinerary to supplement the Description in Quote and Trip",
 "entitytype":"JTT",
 "fieldlength":1000,
 "help":null,
 "isactive":"Y",
 "name":"JTT_ItineraryDetail",
 "po_description":null,
 "po_help":null,
 "po_name":null,
 "po_printname":null,
 "printname":"Itin Detail",
 "updated":"2024-06-11T13:15:14",
 "updatedby":100}, "children" : []},
 {"tablename" : "ad_element", "data" : {"ad_element_id":1000075,
 "columnname":"JTT_O_RideLineTotal",
 "ad_client_id":0,
 "ad_org_id":0,
 "ad_reference_id":12,
 "ad_reference_value_id":null,
 "created":"2024-06-13T11:12:34",
 "createdby":100,
 "description":"Value Of GST Inclusive Line Total on Order line",
 "entitytype":"JTT",
 "fieldlength":0,
 "help":null,
 "isactive":"Y",
 "name":"O_RideLineTotal",
 "po_description":null,
 "po_help":null,
 "po_name":null,
 "po_printname":null,
 "printname":"Override Line Total",
 "updated":"2024-06-13T11:12:34",
 "updatedby":100}, "children" : []}]